Division,WeightClassKg,Place,Name,Team,BodyweightKg,Best3SquatKg,Best3BenchKg,Best3DeadliftKg,TotalKg,Equipment,Event,Sex,BirthDate
Boys,59.87,DQ,Erik Julio,Houston Northbrook,58.38,183.7,83.91,,,Single-ply,SBD,M,
Boys,67.13,1,Bayron Pecina,Houston Northbrook,66.5,129.27,72.57,142.88,344.73,Single-ply,SBD,M,
Boys,67.13,2,Christopher Ortiz,Waller,62.32,117.93,83.91,115.67,317.51,Single-ply,SBD,M,
Boys,67.13,3,Marcello Villarreal,Houston Northbrook,65.18,115.67,74.84,124.74,315.25,Single-ply,SBD,M,
Boys,74.84,1,Gabriel Mata,Houston Northbrook,73.21,165.56,92.99,219.99,478.54,Single-ply,SBD,M,
Boys,74.84,2,Joshua Cadieux,Waller,74.16,156.49,92.99,165.56,415.04,Single-ply,SBD,M,
Boys,74.84,3,M'Kheilan Woods,Navasota,73.71,149.69,79.38,183.7,412.77,Single-ply,SBD,M,
Boys,74.84,4,Kaleb Walter,Navasota,70.67,167.83,88.45,151.95,408.23,Single-ply,SBD,M,
Boys,74.84,5,Adam Vance,Waller,73.53,145.15,92.99,161.03,399.16,Single-ply,SBD,M,
Boys,74.84,6,Josue Giron,Houston Northbrook,73.89,151.95,70.31,165.56,387.82,Single-ply,SBD,M,
Boys,74.84,7,Alex Alvarado,Houston Northbrook,68.67,122.47,74.84,142.88,340.19,Single-ply,SBD,M,
Boys,74.84,8,Riley Paschke,Waller,73.35,104.33,97.52,115.67,317.51,Single-ply,SBD,M,
Boys,74.84,9,Steven Portillo,Houston Northbrook,73.26,102.06,54.43,113.4,269.89,Single-ply,SBD,M,
Boys,82.1,1,Austin Bice,Waller,80.51,158.76,81.65,183.7,424.11,Single-ply,SBD,M,
Boys,82.1,2,Jan Herrera,Houston Northbrook,76.11,156.49,102.06,151.95,410.5,Single-ply,SBD,M,
Boys,82.1,3,Ryan Chim,Waller,77.7,142.88,86.18,149.69,378.75,Single-ply,SBD,M,
Boys,82.1,4,Victor Pacheco,Waller,79.7,129.27,90.72,138.35,358.34,Single-ply,SBD,M,
Boys,82.1,DQ,Micah Humphrey,Houston Cypress Ridge,75.93,,70.31,170.1,,Single-ply,SBD,M,
Boys,89.81,1,Angel Reyes,Houston Northbrook,85.37,151.95,92.99,183.7,428.64,Single-ply,SBD,M,
Boys,89.81,2,Tashawn Justice,Waller,89.68,142.88,72.57,183.7,399.16,Single-ply,SBD,M,
Boys,89.81,3,Joshua Harris,Waller,82.37,127.01,77.11,145.15,349.27,Single-ply,SBD,M,
Boys,89.81,4,Blane Cumberledge,Waller,88.22,124.74,72.57,133.81,331.12,Single-ply,SBD,M,
Boys,99.79,1,Chance Risner,Navasota,95.93,174.63,111.13,188.24,474,Single-ply,SBD,M,
Boys,99.79,2,Tyler Sierra,Navasota,92.62,161.03,88.45,183.7,433.18,Single-ply,SBD,M,
Boys,99.79,3,Kenta Poole,Waller,98.52,151.95,106.59,170.1,428.64,Single-ply,SBD,M,
Boys,99.79,4,Sebastian Guzman,Houston Northbrook,95.84,151.95,65.77,165.56,383.29,Single-ply,SBD,M,
Boys,99.79,5,Noah Silcox,Navasota,93.94,102.06,92.99,183.7,378.75,Single-ply,SBD,M,
Boys,99.79,6,El Grande Gunner,Waller,94.71,136.08,68.04,165.56,369.68,Single-ply,SBD,M,
Boys,109.77,1,Prince Echaverry,Houston Northbrook,106.32,244.94,138.35,242.67,625.96,Single-ply,SBD,M,
Boys,109.77,2,Joe Gaines,Houston Cypress Ridge,104.1,192.78,113.4,226.8,532.97,Single-ply,SBD,M,
Boys,109.77,3,Eduardo Perez,Navasota,100.15,210.92,92.99,192.78,496.68,Single-ply,SBD,M,
Boys,109.77,4,Andres Tobias,Navasota,101.6,183.7,92.99,185.97,462.66,Single-ply,SBD,M,
Boys,109.77,5,Drew Chavez,Navasota,104.69,165.56,88.45,188.24,442.25,Single-ply,SBD,M,
Boys,109.77,6,David Romero,Navasota,99.84,154.22,83.91,183.7,421.84,Single-ply,SBD,M,
Boys,109.77,7,Nohea-ikaika Raquedan,Houston Cypress Ridge,106.05,136.08,81.65,172.37,390.09,Single-ply,SBD,M,
Boys,109.77,8,Cj Woodson,Waller,106.14,174.63,68.04,145.15,387.82,Single-ply,SBD,M,
Boys,109.77,9,Jacob Arellano,Navasota,103.51,111.13,79.38,170.1,360.61,Single-ply,SBD,M,
Boys,124.74,1,Gullermo Balderas,Houston Cypress Ridge,122.83,235.87,142.88,183.7,562.45,Single-ply,SBD,M,
Boys,124.74,2,Jose Lopez,Navasota,124.51,219.99,92.99,238.14,551.11,Single-ply,SBD,M,
Boys,124.74,3,Jeremy Borajas,Houston Cypress Ridge,117.57,192.78,108.86,192.78,494.42,Single-ply,SBD,M,
Boys,124.74,4,Mathew Sosa,Navasota,113.35,188.24,88.45,188.24,464.93,Single-ply,SBD,M,
Boys,124.74,5,Jovanny Hernandez,Houston Cypress Ridge,120.07,127.01,99.79,165.56,392.36,Single-ply,SBD,M,
Boys,124.74,6,Albert Gonzales,Houston Northbrook,118.48,113.4,68.04,165.56,347,Single-ply,SBD,M,
Boys,139.71,1,Hector Olivo,Houston Cypress Ridge,139.71,181.44,88.45,185.97,455.86,Single-ply,SBD,M,
