Division,WeightClassKg,Place,Name,Team,BodyweightKg,Best3SquatKg,Best3BenchKg,Best3DeadliftKg,TotalKg,Equipment,Event,Sex,BirthDate
Boys,51.71,1,Robert Noriega,Kress,50.48,129.27,81.65,163.29,374.21,Single-ply,SBD,M,
Boys,51.71,2,Edgar Ramos,Perryton,50.94,122.47,70.31,127.01,319.78,Single-ply,SBD,M,
Boys,51.71,3,Xavier Ellis,Kress,45.22,95.25,56.7,129.27,281.23,Single-ply,SBD,M,
Boys,51.71,4,Santiago Monreal,Perryton,47.72,106.59,52.16,115.67,274.42,Single-ply,SBD,M,
Boys,51.71,5,Bobby Hudson,Dumas,49.85,95.25,52.16,111.13,258.55,Single-ply,SBD,M,
Boys,55.79,1,Caden Rocha,Panhandle,55.52,174.63,102.06,163.29,439.98,Single-ply,SBD,M,
Boys,55.79,2,Jeremey Rodriguez,Tulia,55.79,158.76,90.72,170.1,419.57,Single-ply,SBD,M,
Boys,55.79,3,Michael Bautista,Friona,55.07,142.88,83.91,154.22,381.02,Single-ply,SBD,M,
Boys,55.79,4,Cooper Talley,Quanah,55.79,142.88,68.04,131.54,342.46,Single-ply,SBD,M,
Boys,55.79,5,Sergio Magallanes,Muleshoe,54.98,136.08,68.04,127.01,331.12,Single-ply,SBD,M,
Boys,55.79,6,Ivan Magallanes,Dumas,53.34,127.01,74.84,122.47,324.32,Single-ply,SBD,M,
Boys,55.79,7,Will Brown,Quanah,54.02,113.4,65.77,102.06,281.23,Single-ply,SBD,M,
Boys,55.79,DQ,Adam Alarcron,Muleshoe,54.98,129.27,,,,Single-ply,SBD,M,
Boys,59.87,1,Mario Bautista,Friona,58.92,151.95,106.59,170.1,428.64,Single-ply,SBD,M,
Boys,59.87,2,Jonathan Jaso,Dumas,59.15,161.03,92.99,170.1,424.11,Single-ply,SBD,M,
Boys,59.87,3,Josue Fernandez,Dumas,59.83,145.15,92.99,145.15,383.29,Single-ply,SBD,M,
Boys,59.87,4,Jorge Garcia,Friona,56.34,142.88,81.65,136.08,360.61,Single-ply,SBD,M,
Boys,59.87,5,Jeo Ochoa,Perryton,59.87,136.08,74.84,147.42,358.34,Single-ply,SBD,M,
Boys,59.87,6,Wyatt Stamps,Panhandle,57.02,102.06,72.57,147.42,322.05,Single-ply,SBD,M,
Boys,59.87,7,Ethaniel Trevino,Tulia,56.56,129.27,58.97,124.74,312.98,Single-ply,SBD,M,
Boys,59.87,8,Edgar Gallegos,Sunray,57.2,111.13,65.77,129.27,306.17,Single-ply,SBD,M,
Boys,59.87,9,Diego Cedillo,Kress,58.83,117.93,61.23,113.4,292.57,Single-ply,SBD,M,
Boys,67.13,1,Jose Chavira,Dumas,66.86,197.31,122.47,197.31,517.1,Single-ply,SBD,M,
Boys,67.13,2,Adam Hope,Quanah,65.09,183.7,102.06,188.24,474,Single-ply,SBD,M,
Boys,67.13,3,Nathan Gonzales,Dumas,65.27,176.9,104.33,190.51,471.74,Single-ply,SBD,M,
Boys,67.13,4,Jason Kaufmann,Quanah,65.63,208.65,92.99,167.83,469.47,Single-ply,SBD,M,
Boys,67.13,5,Rodolfo Delgado,Perryton,66.54,167.83,115.67,183.7,467.2,Single-ply,SBD,M,
Boys,67.13,6,Jess Philley,Dumas,66.95,188.24,106.59,158.76,453.59,Single-ply,SBD,M,
Boys,67.13,7,Dominic Casares,Sunray,66.22,172.37,102.06,172.37,446.79,Single-ply,SBD,M,
Boys,67.13,8,Vincent Yarbrough,Tulia,64.09,158.76,102.06,183.7,444.52,Single-ply,SBD,M,
Boys,67.13,9,Carlos Parra,Dumas,67,170.1,104.33,151.95,426.38,Single-ply,SBD,M,
Boys,67.13,10,Xuan Garcia,Friona,66.77,151.95,97.52,165.56,415.04,Single-ply,SBD,M,
Boys,67.13,11,Yahir Quezada,Muleshoe,66.68,158.76,81.65,163.29,403.7,Single-ply,SBD,M,
Boys,67.13,12,Christian Zapata,Kress,64.18,124.74,65.77,158.76,349.27,Single-ply,SBD,M,
Boys,67.13,13,Tye Bice,Tulia,65.95,124.74,61.23,142.88,328.85,Single-ply,SBD,M,
Boys,67.13,14,Jasiah Castellon,Tulia,61.33,102.06,79.38,136.08,317.51,Single-ply,SBD,M,
Boys,67.13,15,Davonte Baker,Kress,65.32,115.67,63.5,129.27,308.44,Single-ply,SBD,M,
Boys,67.13,16,Devion Ellis,Kress,61.37,102.06,56.7,138.35,297.1,Single-ply,SBD,M,
Boys,67.13,DQ,Lorenzo Hinojosa,Muleshoe,65.54,158.76,,,,Single-ply,SBD,M,
Boys,67.13,DQ,Xander Jackson,Quanah,65.59,158.76,,,,Single-ply,SBD,M,
Boys,74.84,1,Dylan Davis,Panhandle,73.89,226.8,120.2,183.7,530.7,Single-ply,SBD,M,
Boys,74.84,2,Uriel Vasquez,Muleshoe,67.59,183.7,108.86,170.1,462.66,Single-ply,SBD,M,
Boys,74.84,3,Jaden Noriega,Kress,73.39,165.56,124.74,167.83,458.13,Single-ply,SBD,M,
Boys,74.84,4,Eric Casadillas,Sunray,68.67,158.76,113.4,174.63,446.79,Single-ply,SBD,M,
Boys,74.84,5,Michael Guzman,Kress,71.8,156.49,106.59,183.7,446.79,Single-ply,SBD,M,
Boys,74.84,6,Eidan Loera,Dumas,70.03,172.37,113.4,156.49,442.25,Single-ply,SBD,M,
Boys,74.84,7,Noah Cantu,Muleshoe,68.99,167.83,88.45,183.7,439.98,Single-ply,SBD,M,
Boys,74.84,8,Owen Loveless,Quanah,69.13,165.56,104.33,158.76,428.64,Single-ply,SBD,M,
Boys,74.84,9,Whitman Martin,Panhandle,71.89,170.1,92.99,158.76,421.84,Single-ply,SBD,M,
Boys,74.84,10,Ryan Clifton,Muleshoe,69.4,165.56,81.65,165.56,412.77,Single-ply,SBD,M,
Boys,74.84,11,Aaron Salinas,Friona,72.3,172.37,81.65,156.49,410.5,Single-ply,SBD,M,
Boys,74.84,12,Skyler Monroe,Tulia,70.03,136.08,88.45,158.76,383.29,Single-ply,SBD,M,
Boys,74.84,13,Royce Rey,Tulia,69.4,122.47,83.91,158.76,365.14,Single-ply,SBD,M,
Boys,74.84,14,Miguel Vargas,Sunray,69.31,127.01,72.57,142.88,342.46,Single-ply,SBD,M,
Boys,74.84,15,Wayne Fish,Bushland,70.81,97.52,86.18,113.4,297.1,Single-ply,SBD,M,
Boys,74.84,DQ,Manny Rivera,Tulia,68.81,,,,,Single-ply,SBD,M,
Boys,82.1,1,Sabien Perry,Dumas,75.11,272.16,142.88,235.87,650.91,Single-ply,SBD,M,
Boys,82.1,2,Yahir Mendoza,Dumas,80.33,258.55,131.54,222.26,612.35,Single-ply,SBD,M,
Boys,82.1,3,Jose Ticum,Friona,76.93,233.6,131.54,226.8,591.94,Single-ply,SBD,M,
Boys,82.1,4,Braydon Garcia,Quanah,77.61,235.87,117.93,238.14,591.94,Single-ply,SBD,M,
Boys,82.1,5,Dalton L'Esperance,Perryton,81.56,204.12,124.74,215.46,544.31,Single-ply,SBD,M,
Boys,82.1,6,Caleb McDowell,Tulia,81.96,188.24,95.25,210.92,494.42,Single-ply,SBD,M,
Boys,82.1,7,Jakobe McGary,Quanah,79.06,204.12,83.91,204.12,492.15,Single-ply,SBD,M,
Boys,82.1,8,Mike Theis,Panhandle,78.24,183.7,129.27,167.83,480.81,Single-ply,SBD,M,
Boys,82.1,9,Tony Rodriguez,Friona,76.43,183.7,106.59,179.17,469.47,Single-ply,SBD,M,
Boys,82.1,10,Kevin Lucatero,Friona,79.24,165.56,111.13,190.51,467.2,Single-ply,SBD,M,
Boys,82.1,11,Andrew Colon,Tulia,77.7,147.42,90.72,183.7,421.84,Single-ply,SBD,M,
Boys,82.1,12,Jake Dixon,Kress,80.42,142.88,95.25,142.88,381.02,Single-ply,SBD,M,
Boys,82.1,13,Quavi Ellis,Kress,79.88,142.88,77.11,154.22,374.21,Single-ply,SBD,M,
Boys,89.81,1,Dalton Leven,Dumas,88.27,278.96,149.69,233.6,662.24,Single-ply,SBD,M,
Boys,89.81,2,Stetson Garcia,Perryton,86.14,204.12,158.76,222.26,585.13,Single-ply,SBD,M,
Boys,89.81,3,Preston Painter,Perryton,88.99,176.9,136.08,170.1,483.08,Single-ply,SBD,M,
Boys,89.81,4,Jose Castillo,Kress,89.58,172.37,102.06,181.44,455.86,Single-ply,SBD,M,
Boys,89.81,5,Jose Ramirez,Perryton,85.14,142.88,90.72,176.9,410.5,Single-ply,SBD,M,
Boys,89.81,6,James Walker,Kress,88.45,129.27,72.57,113.4,315.25,Single-ply,SBD,M,
Boys,99.79,1,Joe Barrera,Tulia,98.75,263.08,190.51,256.28,709.87,Single-ply,SBD,M,
Boys,99.79,2,Isaac Tovar,Sunray,98.11,226.8,129.27,197.31,553.38,Single-ply,SBD,M,
Boys,99.79,3,Eziekel Hinojose,Muleshoe,92.71,204.12,106.59,204.12,514.83,Single-ply,SBD,M,
Boys,99.79,4,Hayden Forbes,Panhandle,99.38,195.04,108.86,185.97,489.88,Single-ply,SBD,M,
Boys,99.79,5,Dustin Medina,Panhandle,94.76,183.7,99.79,183.7,467.2,Single-ply,SBD,M,
Boys,99.79,6,Raymond Cortez,Muleshoe,95.48,188.24,97.52,172.37,458.13,Single-ply,SBD,M,
Boys,99.79,7,Julio Villado,Sunray,93.89,170.1,108.86,174.63,453.59,Single-ply,SBD,M,
Boys,99.79,8,Ahlai Don Juan,Quanah,98.34,183.7,83.91,170.1,437.72,Single-ply,SBD,M,
Boys,99.79,9,Gabe Abarca,Friona,90.13,156.49,81.65,136.08,374.21,Single-ply,SBD,M,
Boys,109.77,1,Gianni Escobar,Perryton,105.96,233.6,165.56,240.4,639.57,Single-ply,SBD,M,
Boys,109.77,2,Jj Mandujano,Perryton,105.46,204.12,120.2,260.82,585.13,Single-ply,SBD,M,
Boys,109.77,3,Aaron Rodriguez,Friona,108.41,233.6,133.81,195.04,562.45,Single-ply,SBD,M,
Boys,109.77,4,Ishmael Flores,Friona,103.96,226.8,124.74,192.78,544.31,Single-ply,SBD,M,
Boys,109.77,5,Matthew Dimas,Friona,101.74,183.7,106.59,183.7,474,Single-ply,SBD,M,
Boys,109.77,6,Cj Call,Quanah,103.83,188.24,124.74,158.76,471.74,Single-ply,SBD,M,
Boys,109.77,7,Caden Griffith,Bushland,104.01,183.7,92.99,158.76,435.45,Single-ply,SBD,M,
Boys,124.74,1,Hector Pando,Dumas,119.7,288.03,165.56,249.48,703.07,Single-ply,SBD,M,
Boys,124.74,2,Jake Padilla,Friona,116.12,249.48,158.76,233.6,641.83,Single-ply,SBD,M,
Boys,124.74,3,Meckeal Barrera,Quanah,111.22,272.16,158.76,176.9,607.81,Single-ply,SBD,M,
Boys,124.74,4,Troi Barrera,Quanah,119.66,233.6,124.74,226.8,585.13,Single-ply,SBD,M,
Boys,124.74,5,Anthony Abarca,Friona,112.49,219.99,108.86,215.46,544.31,Single-ply,SBD,M,
Boys,124.74,6,Jacinto Briones,Tulia,117.66,204.12,113.4,192.78,510.29,Single-ply,SBD,M,
Boys,139.71,1,Jacob Hernandez,Vega,127.73,288.03,170.1,219.99,678.12,Single-ply,SBD,M,
Boys,139.71,2,Juan Alvarez,Perryton,131.9,278.96,127.01,226.8,632.76,Single-ply,SBD,M,
Boys,139.71,3,Eric Jaramillo,Friona,129.68,195.04,147.42,195.04,537.51,Single-ply,SBD,M,
Boys,139.71,4,Xathen Chasco,Tulia,126.51,136.08,124.74,185.97,446.79,Single-ply,SBD,M,
Boys,139.71,5,Anthony Kent,Sunray,134.35,106.59,63.5,136.08,306.17,Single-ply,SBD,M,
Boys,139.71+,1,Lucas Martinez,Dumas,141.61,292.57,199.58,242.67,734.82,Single-ply,SBD,M,
