WeightClassKg,Name,Division,AgeRange,Sex,Best3SquatKg,Best3BenchKg,Best3DeadliftKg,TotalKg,Event,Equipment,Place
44,Amy Perovich,High School,13-19,F,,,,222.26,SBD,Single-ply,1
48,Sue Plas,High School,13-19,F,,,,210.92,SBD,Single-ply,1
48,S. Miltimore,High School,13-19,F,,,,165.56,SBD,Single-ply,2
48,Alicia Cogo,High School,13-19,F,,,,147.42,SBD,Single-ply,3
48,Nancy Newman,High School,13-19,F,,,,83.91,SBD,Single-ply,4
52,Angelique Klann,High School,13-19,F,,,,229.06,SBD,Single-ply,1
52,Karen Wilkin,High School,13-19,F,,,,204.12,SBD,Single-ply,2
52,Tyree Trickey,High School,13-19,F,,,,192.78,SBD,Single-ply,3
52,Tracie Chapman,High School,13-19,F,,,,183.7,SBD,Single-ply,4
52,D. Droncheff,High School,13-19,F,,,,176.9,SBD,Single-ply,5
52,Crystal Oberle,High School,13-19,F,,,,176.9,SBD,Single-ply,6
56,Vikki Towas,High School,13-19,F,,,,217.72,SBD,Single-ply,1
56,A. Kozarian,High School,13-19,F,,,,210.92,SBD,Single-ply,2
56,Annette Felan,High School,13-19,F,,,,208.65,SBD,Single-ply,3
56,Bridget Bomay,High School,13-19,F,,,,197.31,SBD,Single-ply,4
56,Kim Saruga,High School,13-19,F,,,,188.24,SBD,Single-ply,5
56,Tracy Herrell,High School,13-19,F,,,,179.17,SBD,Single-ply,6
60,Natalie Peterlin,High School,13-19,F,,,,247.21,SBD,Single-ply,1
60,Vickie Moore,High School,13-19,F,,,,204.12,SBD,Single-ply,2
60,Julie McGrady,High School,13-19,F,,,,201.85,SBD,Single-ply,3
60,Christi Bates,High School,13-19,F,,,,176.9,SBD,Single-ply,4
60,Tammie Skatzka,High School,13-19,F,,,,174.63,SBD,Single-ply,5
60,Samantha Elliot,High School,13-19,F,,,,140.61,SBD,Single-ply,6
67.5,Debbie Pusz,High School,13-19,F,,,,297.1,SBD,Single-ply,1
67.5,Michelle Rollins,High School,13-19,F,,,,251.74,SBD,Single-ply,2
67.5,Lisa Davis,High School,13-19,F,,,,244.94,SBD,Single-ply,3
67.5,Michelle Allen,High School,13-19,F,,,,229.06,SBD,Single-ply,4
67.5,Stacy Weaver,High School,13-19,F,,,,213.19,SBD,Single-ply,5
67.5,Carolyn Poiner,High School,13-19,F,,,,192.78,SBD,Single-ply,6
75,Anne Forster,High School,13-19,F,,,,233.6,SBD,Single-ply,1
75,Danielle Ortiz,High School,13-19,F,,,,213.19,SBD,Single-ply,2
82.5,Toria Holman,High School,13-19,F,,,,294.84,SBD,Single-ply,1
82.5,Deanna Couch,High School,13-19,F,,,,158.76,SBD,Single-ply,2
90+,Barbara Hare,High School,13-19,F,,,,240.4,SBD,Single-ply,1
90+,Missy Burrell,High School,13-19,F,,,,183.7,SBD,Single-ply,2
48,Paul Huggins,High School,13-19,M,,,,231.33,SBD,Single-ply,1
48,Scott Wielgosz,High School,13-19,M,,,,217.72,SBD,Single-ply,2
48,Dennis Skatzka,High School,13-19,M,,,,206.38,SBD,Single-ply,3
48,Brian Segrest,High School,13-19,M,,,,204.12,SBD,Single-ply,4
48,Brian Johnston,High School,13-19,M,,,,156.49,SBD,Single-ply,5
52,Shawn Vallie,High School,13-19,M,,,,308.44,SBD,Single-ply,1
52,K. Milkiewicz,High School,13-19,M,,,,269.89,SBD,Single-ply,2
56,Kelly Martin,High School,13-19,F,,,,312.98,SBD,Single-ply,1
56,John Lopez,High School,13-19,M,,,,308.44,SBD,Single-ply,2
56,Dale Gardner,High School,13-19,M,,,,299.37,SBD,Single-ply,3
56,Matt Enderby,High School,13-19,M,,,,278.96,SBD,Single-ply,4
56,Mike Hillier,High School,13-19,M,,,,267.62,SBD,Single-ply,5
56,George Hembree,High School,13-19,M,,,,238.14,SBD,Single-ply,6
60,Brian Doyle,High School,13-19,M,,,,385.55,SBD,Single-ply,1
60,Paul Grahl,High School,13-19,M,,,,365.14,SBD,Single-ply,2
60,Jason Hoskins,High School,13-19,M,,,,328.85,SBD,Single-ply,3
60,Bill Haps,High School,13-19,M,,,,310.71,SBD,Single-ply,4
60,Sean Schultz,High School,13-19,M,,,,281.23,SBD,Single-ply,5
60,B. Maze,High School,13-19,M,,,,272.16,SBD,Single-ply,6
67.5,Mike Gibson,High School,13-19,M,,,,403.7,SBD,Single-ply,1
67.5,Doug Terry,High School,13-19,M,,,,394.63,SBD,Single-ply,2
67.5,Larry Donahee,High School,13-19,M,,,,360.61,SBD,Single-ply,3
67.5,Frank Leet,High School,13-19,M,,,,358.34,SBD,Single-ply,4
67.5,Wes Brant,High School,13-19,M,,,,356.07,SBD,Single-ply,5
67.5,S. Woodward,High School,13-19,M,,,,335.66,SBD,Single-ply,6
75,Tony Carnes,High School,13-19,M,,,,442.25,SBD,Single-ply,1
75,Jim Rudberg,High School,13-19,M,,,,442.25,SBD,Single-ply,2
75,Mike Nuens,High School,13-19,M,,,,403.7,SBD,Single-ply,3
75,Russ Shifferd,High School,13-19,M,,,,347,SBD,Single-ply,4
75,Darren Warford,High School,13-19,M,,,,344.73,SBD,Single-ply,5
75,Joe Oddo,High School,13-19,M,,,,335.66,SBD,Single-ply,6
82.5,Albie Rasegan,High School,13-19,M,,,,557.92,SBD,Single-ply,1
82.5,Ray Rieck,High School,13-19,M,,,,383.29,SBD,Single-ply,2
82.5,Kevin Collins,High School,13-19,M,,,,378.75,SBD,Single-ply,3
82.5,Bob Harrell,High School,13-19,M,,,,353.8,SBD,Single-ply,4
82.5,Scott Baird,High School,13-19,M,,,,351.53,SBD,Single-ply,5
82.5,John Appleberg,High School,13-19,M,,,,344.73,SBD,Single-ply,6
90,Keith Collins,High School,13-19,M,,,,471.74,SBD,Single-ply,1
90,Scott Knapp,High School,13-19,M,,,,417.3,SBD,Single-ply,2
90,Ray Klann,High School,13-19,M,,,,387.82,SBD,Single-ply,3
90,Travis Angell,High School,13-19,M,,,,385.55,SBD,Single-ply,4
90,D. Korenchuck,High School,13-19,M,,,,381.02,SBD,Single-ply,5
90,Tim McKim,High School,13-19,M,,,,358.34,SBD,Single-ply,6
100,Mike Beasley,High School,13-19,M,,,,539.77,SBD,Single-ply,1
100,Steve Clark,High School,13-19,M,,,,408.23,SBD,Single-ply,2
100,Lee Hienz,High School,13-19,M,,,,405.97,SBD,Single-ply,3
100,E. Kendzierski,High School,13-19,M,,,,344.73,SBD,Single-ply,4
110,Mike Andrews,High School,13-19,M,,,,439.98,SBD,Single-ply,1
110,Tim Orsini,High School,13-19,M,,,,365.14,SBD,Single-ply,2
110,Doug Heerema,High School,13-19,M,,,,331.12,SBD,Single-ply,3
110,Tim Schäfer,High School,13-19,M,,,,326.59,SBD,Single-ply,4
110,Brian Hoch,High School,13-19,M,,,,303.91,SBD,Single-ply,5
125,Scott Rasegan,High School,13-19,M,,,,396.89,SBD,Single-ply,1
125+,Eric Hoke,High School,13-19,M,,,,310.71,SBD,Single-ply,1
