Division,WeightClassKg,Place,Name,Team,BodyweightKg,Best3SquatKg,Best3BenchKg,Best3DeadliftKg,TotalKg,Equipment,Event,Sex,BirthDate
Boys,51.71,1,Joseph Requena,Laredo Alexander,48.35,79.38,49.9,108.86,238.14,Single-ply,SBD,M,
Boys,55.79,1,Pablo Pitero,Zapata,55.79,83.91,54.43,102.06,240.4,Single-ply,SBD,M,
Boys,55.79,2,Diego Hiracheta,Laredo Martin,53.52,90.72,49.9,77.11,217.72,Single-ply,SBD,M,
Boys,55.79,3,Diego Resendez,Laredo United South,54.7,108.86,,,108.86,Single-ply,S,M,
Boys,59.87,1,Francisco Villarreal,Laredo Nixon,59.78,188.24,117.93,192.78,498.95,Single-ply,SBD,M,
Boys,59.87,2,Isaac Lozano,Roma,59.78,154.22,90.72,172.37,417.3,Single-ply,SBD,M,
Boys,59.87,3,Gerardo Cavazos,Laredo Martin,57.88,95.25,49.9,111.13,256.28,Single-ply,SBD,M,
Boys,59.87,4,Brayan Pitero,Zapata,58.33,56.7,38.56,70.31,165.56,Single-ply,SBD,M,
Boys,67.13,1,Nolam Raya,Laredo United South,61.23,183.7,113.4,204.12,501.22,Single-ply,SBD,M,
Boys,67.13,2,Alex Cardenas,Del Rio,65.05,149.69,115.67,188.24,453.59,Single-ply,SBD,M,
Boys,67.13,3,Christopher Kitterman,Laredo Johnson,66.68,120.2,104.33,174.63,399.16,Single-ply,SBD,M,
Boys,67.13,4,Miguel Terrazas,Laredo Nixon,65.95,158.76,88.45,149.69,396.89,Single-ply,SBD,M,
Boys,67.13,5,Danny Riojas,Zapata,65.14,124.74,88.45,142.88,356.07,Single-ply,SBD,M,
Boys,67.13,6,Joseph Salazar,Zapata,63.32,124.74,70.31,142.88,337.93,Single-ply,SBD,M,
Boys,67.13,7,Emmanuel Garza,Laredo Alexander,61.96,124.74,65.77,127.01,317.51,Single-ply,SBD,M,
Boys,74.84,1,Adrian Cardenas,Del Rio,70.85,199.58,131.54,206.38,537.51,Single-ply,SBD,M,
Boys,74.84,2,Yahir Reyna,Laredo United South,74.66,174.63,133.81,188.24,496.68,Single-ply,SBD,M,
Boys,74.84,3,Marcos Gonzalez,Laredo Alexander,74.03,151.95,111.13,179.17,442.25,Single-ply,SBD,M,
Boys,74.84,4,Carlos Mora,Laredo Alexander,73.39,167.83,83.91,183.7,435.45,Single-ply,SBD,M,
Boys,74.84,5,Rudy Tobias,Laredo United South,71.85,154.22,102.06,163.29,419.57,Single-ply,SBD,M,
Boys,74.84,6,Leonardo Sena,Laredo Johnson,73.94,127.01,115.67,156.49,399.16,Single-ply,SBD,M,
Boys,74.84,7,Elian De La Paz,Del Rio,72.76,147.42,77.11,170.1,394.63,Single-ply,SBD,M,
Boys,74.84,8,Jose De Los Santos,Laredo United,72.57,151.95,79.38,156.49,387.82,Single-ply,SBD,M,
Boys,74.84,9,Dante Castillo,Del Rio,67.95,142.88,90.72,147.42,381.02,Single-ply,SBD,M,
Boys,74.84,10,Javier Jimenez,Laredo Alexander,74.57,142.88,83.91,142.88,369.68,Single-ply,SBD,M,
Boys,82.1,1,Brandon Hernandez,Laredo United,78.02,183.7,129.27,190.51,503.49,Single-ply,SBD,M,
Boys,82.1,2,Luis Gonzalez,Laredo United South,79.65,188.24,124.74,190.51,503.49,Single-ply,SBD,M,
Boys,82.1,3,Rene Carrasco,Del Rio,78.2,183.7,108.86,170.1,462.66,Single-ply,SBD,M,
Boys,82.1,4,Fernando Bernal,Laredo United South,80.29,161.03,106.59,167.83,435.45,Single-ply,SBD,M,
Boys,82.1,5,Salvador Guerrero,Laredo Johnson,81.37,158.76,81.65,147.42,387.82,Single-ply,SBD,M,
Boys,82.1,6,Felipe Lopez,Del Rio,80.38,131.54,95.25,151.95,378.75,Single-ply,SBD,M,
Boys,82.1,7,John Chaney,Del Rio,77.84,124.74,79.38,165.56,369.68,Single-ply,SBD,M,
Boys,82.1,8,Atzel Chavez,Laredo United,77.47,138.35,72.57,156.49,367.41,Single-ply,SBD,M,
Boys,82.1,DQ,Angel Guerra,Laredo United South,78.2,,,,,Single-ply,SBD,M,
Boys,89.81,1,Gerardo Enriquez,Laredo Alexander,88.36,217.72,151.95,226.8,596.47,Single-ply,SBD,M,
Boys,89.81,2,Jorge Torres,Roma,87.72,226.8,142.88,181.44,551.11,Single-ply,SBD,M,
Boys,89.81,3,Alexis Gonzalez #7,Laredo Nixon,89.36,213.19,117.93,204.12,535.24,Single-ply,SBD,M,
Boys,89.81,4,Agustin Meza,Laredo Alexander,88,170.1,102.06,192.78,464.93,Single-ply,SBD,M,
Boys,89.81,5,Juan Zambrano,Laredo Martin,89.27,165.56,102.06,149.69,417.3,Single-ply,SBD,M,
Boys,89.81,6,Elijah Murphy,Laredo United South,85.73,147.42,83.91,161.03,392.36,Single-ply,SBD,M,
Boys,89.81,7,Santiago Hernandez,Laredo Martin,85.09,138.35,63.5,145.15,347,Single-ply,SBD,M,
Boys,89.81,8,David Betancourt,Laredo Johnson,84.14,122.47,79.38,136.08,337.93,Single-ply,SBD,M,
Boys,99.79,1,Artemio Belmontes,Roma,98.16,226.8,124.74,199.58,551.11,Single-ply,SBD,M,
Boys,99.79,2,Cesar Diaz,Del Rio,99.06,192.78,133.81,210.92,537.51,Single-ply,SBD,M,
Boys,99.79,3,Andy Torres,Laredo United,98.88,183.7,151.95,190.51,526.17,Single-ply,SBD,M,
Boys,99.79,4,Robert Benavides,Zapata,98.93,183.7,124.74,192.78,501.22,Single-ply,SBD,M,
Boys,99.79,5,Pedro Contreras,Laredo Martin,98.88,201.85,108.86,179.17,489.88,Single-ply,SBD,M,
Boys,99.79,6,Jorge Saldana,Laredo Alexander,93.62,172.37,108.86,204.12,485.34,Single-ply,SBD,M,
Boys,99.79,7,Roman Vasquez,Roma,93.44,195.04,113.4,174.63,483.08,Single-ply,SBD,M,
Boys,99.79,8,Ricky Torres,Del Rio,90.26,170.1,111.13,183.7,464.93,Single-ply,SBD,M,
Boys,99.79,9,Jesus Aguilar,Laredo Cigarroa,92.53,185.97,106.59,165.56,458.13,Single-ply,SBD,M,
Boys,99.79,10,Joey Esqueda,Laredo Alexander,94.35,174.63,83.91,183.7,442.25,Single-ply,SBD,M,
Boys,99.79,11,Carlos Vega,Laredo Johnson,94.26,129.27,90.72,165.56,385.55,Single-ply,SBD,M,
Boys,99.79,12,Sean Priego,Laredo Nixon,95.89,127.01,106.59,149.69,383.29,Single-ply,SBD,M,
Boys,99.79,13,Rafael Hiracheta,Laredo Martin,94.26,140.61,77.11,156.49,374.21,Single-ply,SBD,M,
Boys,99.79,14,David Garza,Laredo Cigarroa,95.25,138.35,72.57,142.88,353.8,Single-ply,SBD,M,
Boys,99.79,15,Enrique Waldo,Laredo Johnson,97.79,117.93,72.57,142.88,333.39,Single-ply,SBD,M,
Boys,99.79,16,Ronnie Guerra,Zapata,94.8,208.65,115.67,,324.32,Single-ply,SB,M,
Boys,99.79,17,Andres Guerra,Laredo Alexander,91.44,156.49,,,156.49,Single-ply,S,M,
Boys,99.79,18,Luis Franco,Laredo United,99.16,142.88,,,142.88,Single-ply,S,M,
Boys,109.77,1,Gael Soto,Laredo United,104.05,213.19,163.29,183.7,560.19,Single-ply,SBD,M,
Boys,109.77,2,Joey Garza,Laredo Nixon,104.33,217.72,124.74,190.51,532.97,Single-ply,SBD,M,
Boys,109.77,3,Ryan Stillman,Laredo United,104.6,197.31,138.35,183.7,519.36,Single-ply,SBD,M,
Boys,109.77,4,Eleazar Guerra,Laredo United South,109.77,204.12,133.81,181.44,519.36,Single-ply,SBD,M,
Boys,109.77,5,Jorge Valdez,Laredo United,102.15,195.04,104.33,192.78,492.15,Single-ply,SBD,M,
Boys,109.77,6,Gabriel Sanchez,Del Rio,101.79,158.76,115.67,183.7,458.13,Single-ply,SBD,M,
Boys,109.77,DQ,Tomas Pizana,Laredo Martin,104.6,151.95,,,,Single-ply,SBD,M,
Boys,124.74,1,Kristian Jimenez,Laredo Alexander,123.29,294.84,183.7,254.01,732.55,Single-ply,SBD,M,
Boys,124.74,2,Chris Castro,Laredo Nixon,119.84,242.67,124.74,240.4,607.81,Single-ply,SBD,M,
Boys,124.74,3,Mark Rodriguez,Laredo United South,115.76,231.33,147.42,215.46,594.21,Single-ply,SBD,M,
Boys,124.74,4,Angel Rios,Laredo United South,113.31,231.33,161.03,183.7,576.06,Single-ply,SBD,M,
Boys,124.74,5,Caleb Rodriguez,Del Rio,123.92,206.38,108.86,192.78,508.02,Single-ply,SBD,M,
Boys,124.74,6,Sean Guevara,Laredo Nixon,122.29,188.24,149.69,145.15,483.08,Single-ply,SBD,M,
Boys,124.74,7,Javier Gutierrez,Zapata,114.49,158.76,113.4,183.7,455.86,Single-ply,SBD,M,
Boys,124.74,8,Jesus Garcia,Roma,114.31,240.4,,,240.4,Single-ply,S,M,
Boys,139.71,1,Anthony Huizar,Del Rio,126.46,272.16,161.03,226.8,659.98,Single-ply,SBD,M,
Boys,139.71,2,Ehud Mendez,Laredo Alexander,139.43,208.65,113.4,254.01,576.06,Single-ply,SBD,M,
Boys,139.71,3,Jose Silva,Roma,127.82,215.46,113.4,213.19,542.04,Single-ply,SBD,M,
Boys,139.71,4,Jose Garza,Roma,126.55,199.58,115.67,204.12,519.36,Single-ply,SBD,M,
Boys,139.71,5,Noah Romero,Laredo Martin,132.9,124.74,74.84,149.69,349.27,Single-ply,SBD,M,
Boys,139.71+,1,Manny Torres,Laredo Cigarroa,150.41,249.48,142.88,208.65,601.01,Single-ply,SBD,M,
Boys,139.71+,2,Jorge Rangel,Laredo Cigarroa,146.6,204.12,142.88,185.97,532.97,Single-ply,SBD,M,
Boys,139.71+,3,Esteban Garcia,Laredo Cigarroa,144.15,190.51,104.33,185.97,480.81,Single-ply,SBD,M,
Boys,139.71+,4,Rene Hernandez,Roma,144.51,183.7,102.06,145.15,430.91,Single-ply,SBD,M,
