Division,WeightClassKg,Place,Name,Team,BodyweightKg,Best3SquatKg,Best3BenchKg,Best3DeadliftKg,TotalKg,Equipment,Event,Sex,BirthDate
Boys,51.71,1,Cory Newkirk,Hardin,51.71,102.06,52.16,111.13,265.35,Single-ply,SBD,M,
Boys,51.71,2,Micah Johnson,Hardin,47.63,58.97,45.36,90.72,195.04,Single-ply,SBD,M,
Boys,55.79,1,Rock Page,Cleveland Tarkington,55.79,129.27,90.72,127.01,347,Single-ply,SBD,M,
Boys,59.87,1,Chris McCarty,Hardin,56.7,124.74,70.31,136.08,331.12,Single-ply,SBD,M,
Boys,67.13,1,Scott Jones,Warren,65.77,154.22,108.86,181.44,444.52,Single-ply,SBD,M,
Boys,67.13,2,Draven Guidry,Hardin,66.68,142.88,74.84,142.88,360.61,Single-ply,SBD,M,
Boys,67.13,3,Jarrick Harper,Warren,66.22,138.35,74.84,138.35,351.53,Single-ply,SBD,M,
Boys,67.13,4,Jesse Smith,Warren,64.41,115.67,83.91,149.69,349.27,Single-ply,SBD,M,
Boys,67.13,DQ,Wade Hamblin,Hardin,63.96,,,,,Single-ply,SBD,M,
Boys,67.13,DQ,Dylan Errington,Cleveland Tarkington,67.13,,,,,Single-ply,SBD,M,
Boys,67.13,DQ,Ethan Millard,Cleveland Tarkington,67.13,,,,,Single-ply,SBD,M,
Boys,74.84,1,Tatum Clements,Cleveland Tarkington,74.39,174.63,97.52,181.44,453.59,Single-ply,SBD,M,
Boys,74.84,2,Riley Kubezcka,Hardin,74.84,165.56,92.99,183.7,442.25,Single-ply,SBD,M,
Boys,74.84,3,Danny Crump,Hardin,72.12,172.37,70.31,183.7,426.38,Single-ply,SBD,M,
Boys,74.84,4,Landon Ponton,Hardin,74.84,140.61,70.31,179.17,390.09,Single-ply,SBD,M,
Boys,74.84,5,Bryar Stewart,Warren,73.48,142.88,83.91,158.76,385.55,Single-ply,SBD,M,
Boys,74.84,6,Trenton Tillman,Warren,67.59,133.81,81.65,158.76,374.21,Single-ply,SBD,M,
Boys,74.84,7,Deacon Young,Warren,68.95,133.81,65.77,142.88,342.46,Single-ply,SBD,M,
Boys,74.84,8,Marek Christy,Warren,74.39,124.74,83.91,127.01,335.66,Single-ply,SBD,M,
Boys,74.84,9,Quinton Frerich,Warren,70.31,106.59,63.5,136.08,306.17,Single-ply,SBD,M,
Boys,74.84,10,Colsen Thompson,Warren,73.94,106.59,61.23,136.08,303.91,Single-ply,SBD,M,
Boys,82.1,1,Brandon Pitty,Cleveland Tarkington,80.29,231.33,120.2,217.72,569.26,Single-ply,SBD,M,
Boys,82.1,2,Matthew Hughes,Hardin,77.11,192.78,127.01,192.78,512.56,Single-ply,SBD,M,
Boys,82.1,3,Lahr Randolph,Hardin,82.1,158.76,97.52,154.22,410.5,Single-ply,SBD,M,
Boys,89.81,1,Clayton Fountain,Warren,83.91,142.88,95.25,161.03,399.16,Single-ply,SBD,M,
Boys,89.81,2,Blake Parsons,Hardin,83.91,142.88,92.99,151.95,387.82,Single-ply,SBD,M,
Boys,99.79,1,Shane Holst,Hardin,99.79,260.82,161.03,258.55,680.39,Single-ply,SBD,M,
Boys,99.79,2,Justin Scarborough,Cleveland Tarkington,94.35,151.95,104.33,138.35,394.63,Single-ply,SBD,M,
Boys,99.79,3,Jacob Carmack,Warren,99.79,145.15,95.25,154.22,394.63,Single-ply,SBD,M,
Boys,99.79,4,Andrew Guidry,Hardin,93.89,138.35,83.91,149.69,371.95,Single-ply,SBD,M,
Boys,109.77,1,Cody Mendenhall,Hardin,107.05,172.37,124.74,224.53,521.63,Single-ply,SBD,M,
Boys,109.77,2,Adrian Ibarra,Hardin,106.59,154.22,127.01,188.24,469.47,Single-ply,SBD,M,
Boys,109.77,3,Nick Garrett,Hardin,107.5,158.76,113.4,156.49,428.64,Single-ply,SBD,M,
Boys,109.77,4,Colby Moody,Warren,101.15,154.22,90.72,158.76,403.7,Single-ply,SBD,M,
Boys,109.77,5,Chris Nugent,Hardin,107.5,131.54,74.84,161.03,367.41,Single-ply,SBD,M,
Boys,109.77,DQ,Nathan Holst,Hardin,103.42,,,,,Single-ply,SBD,M,
Boys,109.77,DQ,Dalton Pelts,Warren,109.77,,,,,Single-ply,SBD,M,
Boys,124.74,1,Conner Colbert,Cleveland Tarkington,123.83,176.9,115.67,163.29,455.86,Single-ply,SBD,M,
Boys,124.74,2,Zach Davila,Hardin,113.4,156.49,88.45,183.7,428.64,Single-ply,SBD,M,
Boys,139.71,1,Tristan Tousha,Warren,129.27,240.4,142.88,181.44,564.72,Single-ply,SBD,M,
Boys,139.71,2,Kyler Colbert,Cleveland Tarkington,136.08,197.31,138.35,192.78,528.44,Single-ply,SBD,M,
