Division,WeightClassKg,Place,Name,Team,BodyweightKg,Best3SquatKg,Best3BenchKg,Best3DeadliftKg,TotalKg,Equipment,Event,Sex,BirthDate
Boys,51.71,1,Justin Chapa,Edinburg Vela,49.17,163.29,113.4,151.95,428.64,Single-ply,SBD,M,
Boys,51.71,2,Dante Silva,Mission Sharyland,50.71,133.81,86.18,142.88,362.87,Single-ply,SBD,M,
Boys,51.71,3,Joe Frank Cruz,Edinburg North,51.71,102.06,63.5,142.88,308.44,Single-ply,SBD,M,
Boys,51.71,4,Dane Arispe,Edinburg,49.44,86.18,47.63,90.72,224.53,Single-ply,SBD,M,
Boys,55.79,1,Nate Martinez #2,Weslaco East,55.79,183.7,97.52,165.56,446.79,Single-ply,SBD,M,
Boys,55.79,2,Jaime Salinas,Edinburg North,55.07,97.52,74.84,115.67,288.03,Single-ply,SBD,M,
Boys,55.79,3,Dominic Richmond,Edinburg,55.75,90.72,49.9,108.86,249.48,Single-ply,SBD,M,
Boys,55.79,DQ,Ronni Vera,Mission,54.48,,,,,Single-ply,SBD,M,
Boys,59.87,1,Nicholas Gonzalez,Edinburg,59.83,124.74,102.06,147.42,374.21,Single-ply,SBD,M,
Boys,59.87,2,Eugenio Chavez,Mission Sharyland,56.97,133.81,88.45,149.69,371.95,Single-ply,SBD,M,
Boys,59.87,3,Sean Carpenter,Edinburg North,59.87,113.4,83.91,131.54,328.85,Single-ply,SBD,M,
Boys,59.87,4,Justin Flores,Edcouch-Elsa,59.38,127.01,56.7,138.35,322.05,Single-ply,SBD,M,
Boys,59.87,5,Trystan Rojas,Edcouch-Elsa,59.87,124.74,63.5,113.4,301.64,Single-ply,SBD,M,
Boys,59.87,DQ,Rosbel Vera,Mission,56.97,,,,,Single-ply,SBD,M,
Boys,67.13,1,Aj Contreras,La Villa,67.13,185.97,115.67,208.65,510.29,Single-ply,SBD,M,
Boys,67.13,2,Kyle Yanez,Edinburg Vela,67.13,197.31,102.06,197.31,496.68,Single-ply,SBD,M,
Boys,67.13,3,Marcelo Velasco,Mission Sharyland,65.05,163.29,104.33,195.04,462.66,Single-ply,SBD,M,
Boys,67.13,4,Ryen Abrego,Edinburg,65.77,163.29,104.33,149.69,417.3,Single-ply,SBD,M,
Boys,67.13,5,Jacob Espericueta,La Villa,64.36,149.69,95.25,165.56,410.5,Single-ply,SBD,M,
Boys,67.13,6,Julius Molina,Edinburg North,66.04,138.35,86.18,149.69,374.21,Single-ply,SBD,M,
Boys,67.13,7,Anthony Martinez #26,Edinburg North,66.36,142.88,74.84,151.95,369.68,Single-ply,SBD,M,
Boys,67.13,8,Modesto Reyes,La Villa,61.96,115.67,56.7,120.2,292.57,Single-ply,SBD,M,
Boys,67.13,DQ,Jimmy Quintero,Mission,67.13,149.69,102.06,,,Single-ply,SBD,M,
Boys,67.13,DQ,Pablo López,Mission Veterans Memorial,66.27,172.37,,,,Single-ply,SBD,M,
Boys,67.13,DQ,Yashid Cobos,Edinburg Vela,66.04,158.76,,,,Single-ply,SBD,M,
Boys,67.13,DQ,Fabian Rivas,Edinburg Vela,65,,,,,Single-ply,SBD,M,
Boys,74.84,1,Devin Aguilar,Edinburg North,74.07,210.92,142.88,222.26,576.06,Single-ply,SBD,M,
Boys,74.84,2,Daniel Anzaldua,Mission Sharyland,74.39,183.7,151.95,188.24,523.9,Single-ply,SBD,M,
Boys,74.84,3,Jayden Silguero,La Villa,70.13,183.7,113.4,183.7,480.81,Single-ply,SBD,M,
Boys,74.84,4,Luis Segura,PSJA Southwest,74.75,158.76,124.74,188.24,471.74,Single-ply,SBD,M,
Boys,74.84,5,Braedan Chapa,Edinburg Vela,71.94,165.56,113.4,158.76,437.72,Single-ply,SBD,M,
Boys,74.84,6,Marco Garza,Mission Sharyland,71.26,145.15,102.06,167.83,415.04,Single-ply,SBD,M,
Boys,74.84,7,Nicolas Moreno,Mission Sharyland,74.71,149.69,74.84,174.63,399.16,Single-ply,SBD,M,
Boys,74.84,8,Oziel Silva,Edinburg North,72.76,138.35,97.52,156.49,392.36,Single-ply,SBD,M,
Boys,74.84,9,Esai Pacheco,Edinburg Vela,70.49,120.2,90.72,172.37,383.29,Single-ply,SBD,M,
Boys,74.84,10,John Torres,Edcouch-Elsa,71.35,145.15,86.18,149.69,381.02,Single-ply,SBD,M,
Boys,74.84,11,Derek Valenzuela,Mission Veterans Memorial,70.17,102.06,56.7,142.88,301.64,Single-ply,SBD,M,
Boys,74.84,DQ,Allan Benavides,Edinburg North,74.84,224.53,,,,Single-ply,SBD,M,
Boys,74.84,DQ,Bryan Huffman,Edinburg Vela,71.76,133.81,83.91,,,Single-ply,SBD,M,
Boys,74.84,DQ,Isaac Solis,Edinburg,71.71,167.83,,,,Single-ply,SBD,M,
Boys,82.1,1,Juan Saenz,Edinburg North,81.19,229.06,165.56,229.06,623.69,Single-ply,SBD,M,
Boys,82.1,2,Jonathan Maldonado,Edinburg,80.78,197.31,147.42,170.1,514.83,Single-ply,SBD,M,
Boys,82.1,3,Fernando Guzman,Edinburg Vela,75.98,183.7,127.01,190.51,501.22,Single-ply,SBD,M,
Boys,82.1,4,Josue Gomez,Mission,80.1,185.97,115.67,192.78,494.42,Single-ply,SBD,M,
Boys,82.1,5,Izaac Estrada,Edcouch-Elsa,81.01,183.7,92.99,185.97,462.66,Single-ply,SBD,M,
Boys,82.1,6,Heston Garza,Edcouch-Elsa,81.01,181.44,90.72,190.51,462.66,Single-ply,SBD,M,
Boys,82.1,7,Jesus Badillo,Mission Veterans Memorial,79.51,176.9,97.52,176.9,451.32,Single-ply,SBD,M,
Boys,82.1,8,Lupe Garcia,PSJA Southwest,76.02,129.27,83.91,147.42,360.61,Single-ply,SBD,M,
Boys,82.1,DQ,Rene Martinez,Mission Sharyland,78.34,154.22,,,,Single-ply,SBD,M,
Boys,82.1,DQ,Diego Trevino,Mission Sharyland,82.1,197.31,,,,Single-ply,SBD,M,
Boys,89.81,1,Bobby Flores,Edinburg,88.9,238.14,151.95,244.94,635.03,Single-ply,SBD,M,
Boys,89.81,2,Jose Zavala,Weslaco East,88.04,217.72,145.15,249.48,612.35,Single-ply,SBD,M,
Boys,89.81,3,Jerry Reyes,La Villa,89.45,247.21,161.03,174.63,582.87,Single-ply,SBD,M,
Boys,89.81,4,Jesus Garcia,Edinburg Vela,86.59,219.99,133.81,219.99,573.79,Single-ply,SBD,M,
Boys,89.81,5,Ever Reyes,La Villa,89.36,222.26,124.74,197.31,544.31,Single-ply,SBD,M,
Boys,89.81,6,Jaime Munoz,Weslaco East,84.87,208.65,108.86,188.24,505.76,Single-ply,SBD,M,
Boys,89.81,7,Jose Sanchez,Edinburg North,88.22,156.49,104.33,174.63,435.45,Single-ply,SBD,M,
Boys,89.81,8,Paul Villapando,Edcouch-Elsa,84.28,163.29,81.65,149.69,394.63,Single-ply,SBD,M,
Boys,89.81,9,Jetzael Ramos,PSJA Southwest,83.19,117.93,63.5,136.08,317.51,Single-ply,SBD,M,
Boys,89.81,DQ,Johnathan Rocha,Mission,84.87,,,,,Single-ply,SBD,M,
Boys,89.81,DQ,Zeek Cuardos,Mission,88.95,263.08,,,,Single-ply,SBD,M,
Boys,99.79,1,Cristian Hernandez,Mission,97.11,226.8,142.88,238.14,607.81,Single-ply,SBD,M,
Boys,99.79,2,Francisco Gomez,Mission Veterans Memorial,95.03,224.53,133.81,195.04,553.38,Single-ply,SBD,M,
Boys,99.79,3,Alessandro Escobedo,Edinburg,99.43,197.31,142.88,183.7,523.9,Single-ply,SBD,M,
Boys,99.79,4,Cj Vallejo,Edcouch-Elsa,93.26,192.78,108.86,183.7,485.34,Single-ply,SBD,M,
Boys,99.79,5,Jozef Baldo,Mission Sharyland,94.48,158.76,74.84,158.76,392.36,Single-ply,SBD,M,
Boys,99.79,6,Herieberto Rocha,PSJA Southwest,94.48,124.74,90.72,124.74,340.19,Single-ply,SBD,M,
Boys,99.79,7,Andrew Acosta,La Villa,91.35,113.4,61.23,111.13,285.76,Single-ply,SBD,M,
Boys,99.79,8,Jesus Ponce,PSJA Southwest,92.22,111.13,58.97,102.06,272.16,Single-ply,SBD,M,
Boys,109.77,1,Noe Castillo,Weslaco East,105.78,240.4,195.04,226.8,662.24,Single-ply,SBD,M,
Boys,109.77,2,Isaac Gonzalez,Weslaco East,106.28,249.48,170.1,201.85,621.42,Single-ply,SBD,M,
Boys,109.77,3,Tristan Pena,Edinburg Vela,103.06,206.38,122.47,190.51,519.36,Single-ply,SBD,M,
Boys,109.77,4,Jonathan Villegas,Mission Sharyland,102.92,172.37,102.06,165.56,439.98,Single-ply,SBD,M,
Boys,124.74,1,Dante Ramones,Edinburg North,121.93,281.23,181.44,244.94,707.6,Single-ply,SBD,M,
Boys,124.74,2,Justin Sandoval,Edcouch-Elsa,124.74,276.69,161.03,222.26,659.98,Single-ply,SBD,M,
Boys,124.74,3,Maximiliano Zepeda,Edinburg North,124.19,219.99,142.88,215.46,578.33,Single-ply,SBD,M,
Boys,124.74,4,Carlos Arteaga,Edinburg,122.33,174.63,133.81,179.17,487.61,Single-ply,SBD,M,
Boys,124.74,5,Josue Martinez,PSJA Southwest,112.04,97.52,68.04,111.13,276.69,Single-ply,SBD,M,
Boys,124.74,DQ,Mark Abila,Mission,115.44,231.33,,,,Single-ply,SBD,M,
Boys,139.71,1,Marco Gamez,Edinburg Vela,133.63,247.21,174.63,233.6,655.44,Single-ply,SBD,M,
Boys,139.71,2,Oscar de la Cruz,PSJA Southwest,131.54,226.8,172.37,226.8,625.96,Single-ply,SBD,M,
Boys,139.71,3,Amadeo Sanchez,Edinburg,130.63,238.14,185.97,185.97,610.08,Single-ply,SBD,M,
Boys,139.71+,1,Juan Barrera,Edcouch-Elsa,175.09,272.16,181.44,219.99,673.58,Single-ply,SBD,M,
Boys,139.71+,2,Deven Martinez,Edcouch-Elsa,145.65,249.48,124.74,215.46,589.67,Single-ply,SBD,M,
Boys,139.71+,3,Michael Drexler,Edinburg,141.97,174.63,113.4,151.95,439.98,Single-ply,SBD,M,
Boys,,NS,Jaime Elissetche,La Villa,,,,,,Single-ply,SBD,M,
