Division,WeightClassKg,Place,Name,Team,BodyweightKg,Best3SquatKg,Best3BenchKg,Best3DeadliftKg,TotalKg,Equipment,Event,Sex,BirthDate
Boys,51.71,1,Carlos Gamez,Hitchcock,51.71,136.08,79.38,136.08,351.53,Single-ply,SBD,M,
Boys,51.71,2,Seven Petteway,Clute Brazoswood,51.62,88.45,68.04,117.93,274.42,Single-ply,SBD,M,
Boys,51.71,3,Jose Aleman,Van Vleck,43.27,70.31,54.43,90.72,215.46,Single-ply,SBD,M,
Boys,51.71,4,Richard Perry,West Columbia,45,70.31,56.7,81.65,208.65,Single-ply,SBD,M,
Boys,51.71,5,Kooper Hodge,Van Vleck,46.9,68.04,43.09,72.57,183.7,Single-ply,SBD,M,
Boys,55.79,1,Marcos Aguirre,Pasadena Memorial,55.34,140.61,90.72,127.01,358.34,Single-ply,SBD,M,
Boys,55.79,2,Mateo Aguirre,Pasadena Memorial,54.43,142.88,79.38,129.27,351.53,Single-ply,SBD,M,
Boys,55.79,3,Nicklaus Mann,Clute Brazoswood,52.62,86.18,61.23,104.33,251.74,Single-ply,SBD,M,
Boys,59.87,1,Ty Maxwell,Hitchcock,59.87,165.56,90.72,167.83,424.11,Single-ply,SBD,M,
Boys,59.87,2,Noah Almaraz,Danbury,59.33,142.88,97.52,163.29,403.7,Single-ply,SBD,M,
Boys,59.87,3,Oscar Cruz,Alvin Shadow Creek,58.24,122.47,70.31,158.76,351.53,Single-ply,SBD,M,
Boys,67.13,1,Noah Hysten,Van Vleck,66.41,204.12,115.67,183.7,503.49,Single-ply,SBD,M,
Boys,67.13,2,Zyran King-Brooks,Alvin Shadow Creek,66.59,185.97,117.93,183.7,487.61,Single-ply,SBD,M,
Boys,67.13,3,Victor Williams,Manvel,66.32,183.7,97.52,199.58,480.81,Single-ply,SBD,M,
Boys,67.13,4,Cole Fisher,Hitchcock,66.68,192.78,97.52,185.97,476.27,Single-ply,SBD,M,
Boys,67.13,5,David Jimenez,Alvin Shadow Creek,62.96,190.51,88.45,195.04,474,Single-ply,SBD,M,
Boys,67.13,6,Gavin Shuttlesworth,Hitchcock,66.95,185.97,102.06,158.76,446.79,Single-ply,SBD,M,
Boys,67.13,7,Marcos Zuñiga,Clute Brazoswood,66.04,158.76,92.99,167.83,419.57,Single-ply,SBD,M,
Boys,67.13,8,Hunter Sanderson,West Columbia,67.13,142.88,92.99,165.56,401.43,Single-ply,SBD,M,
Boys,67.13,9,Eric Stephenson,Hitchcock,66.32,158.76,81.65,158.76,399.16,Single-ply,SBD,M,
Boys,67.13,10,Matthew Cunningham,Freeport Brazosport,65.77,151.95,97.52,147.42,396.89,Single-ply,SBD,M,
Boys,67.13,11,Rooke Samford,Sweeny,61.6,124.74,83.91,165.56,374.21,Single-ply,SBD,M,
Boys,67.13,12,Christian Byrd,Sweeny,65.05,124.74,77.11,149.69,351.53,Single-ply,SBD,M,
Boys,67.13,13,Alexander Keo,Manvel,63.23,138.35,70.31,131.54,340.19,Single-ply,SBD,M,
Boys,67.13,14,Trayvon Hall,Hitchcock,65.68,113.4,70.31,99.79,283.5,Single-ply,SBD,M,
Boys,74.84,1,Kaiden Garza,Van Vleck,70.4,174.63,113.4,172.37,460.4,Single-ply,SBD,M,
Boys,74.84,2,Clayton Johnson,Danbury,73.21,170.1,106.59,183.7,460.4,Single-ply,SBD,M,
Boys,74.84,3,Jared Dotson,Hitchcock,72.03,181.44,90.72,158.76,430.91,Single-ply,SBD,M,
Boys,74.84,4,Brayze Schill,West Columbia,70.03,147.42,97.52,181.44,426.38,Single-ply,SBD,M,
Boys,74.84,5,Jacob Artiles,Pasadena Memorial,73.39,156.49,97.52,170.1,424.11,Single-ply,SBD,M,
Boys,74.84,6,Benjamin Cherian,Alvin Shadow Creek,73.57,156.49,68.04,181.44,405.97,Single-ply,SBD,M,
Boys,74.84,7,Chris Rebollar,Danbury,74.39,145.15,95.25,151.95,392.36,Single-ply,SBD,M,
Boys,74.84,8,Daiten Garza,Van Vleck,74.57,170.1,74.84,142.88,387.82,Single-ply,SBD,M,
Boys,74.84,9,Jaden Zetka,Danbury,69.4,136.08,88.45,145.15,369.68,Single-ply,SBD,M,
Boys,74.84,10,Ethan Redd,Van Vleck,70.22,120.2,83.91,147.42,351.53,Single-ply,SBD,M,
Boys,74.84,11,Keegan Toomer,Sweeny,69.31,113.4,72.57,142.88,328.85,Single-ply,SBD,M,
Boys,74.84,12,Danny Garcia,Clute Brazoswood,73.57,92.99,74.84,151.95,319.78,Single-ply,SBD,M,
Boys,74.84,13,Evan Horton,Clute Brazoswood,70.94,83.91,63.5,97.52,244.94,Single-ply,SBD,M,
Boys,74.84,14,Johnathan Gomez,Freeport Brazosport,74.84,70.31,52.16,97.52,219.99,Single-ply,SBD,M,
Boys,82.1,1,LaMarcus Owens,Manvel,80.65,254.01,140.61,251.74,646.37,Single-ply,SBD,M,
Boys,82.1,2,Matt Fleming,Hitchcock,82.1,256.28,127.01,190.51,573.79,Single-ply,SBD,M,
Boys,82.1,3,Parker Kingrea,West Columbia,78.65,210.92,115.67,204.12,530.7,Single-ply,SBD,M,
Boys,82.1,4,Alex Leija,Freeport Brazosport,80.38,204.12,129.27,197.31,530.7,Single-ply,SBD,M,
Boys,82.1,5,Dacoda Lopez,Clute Brazoswood,80.56,156.49,127.01,210.92,494.42,Single-ply,SBD,M,
Boys,82.1,6,Fabian Garza,Pasadena Memorial,79.83,181.44,115.67,195.04,492.15,Single-ply,SBD,M,
Boys,82.1,7,Austin Hill,Van Vleck,79.83,195.04,102.06,192.78,489.88,Single-ply,SBD,M,
Boys,82.1,8,Camron Barmettler,Danbury,81.19,188.24,111.13,190.51,489.88,Single-ply,SBD,M,
Boys,82.1,9,Joshua Roberson,Alvin Shadow Creek,79.65,188.24,92.99,206.38,487.61,Single-ply,SBD,M,
Boys,82.1,10,Dakota Craig,Danbury,80.1,154.22,124.74,174.63,453.59,Single-ply,SBD,M,
Boys,82.1,11,Darrin Adams,Hitchcock,78.93,167.83,77.11,183.7,428.64,Single-ply,SBD,M,
Boys,82.1,12,Colton Whyde,Sweeny,76.29,117.93,90.72,140.61,349.27,Single-ply,SBD,M,
Boys,82.1,13,Hunter Ryman,Van Vleck,79.29,136.08,92.99,111.13,340.19,Single-ply,SBD,M,
Boys,82.1,DQ,Carlo Lewis,Hitchcock,81.37,233.6,111.13,,,Single-ply,SBD,M,
Boys,89.81,1,Garrett Sassin,Alvin Shadow Creek,87.63,213.19,131.54,224.53,569.26,Single-ply,SBD,M,
Boys,89.81,2,Caleb Myers,Sweeny,86.82,213.19,124.74,219.99,557.92,Single-ply,SBD,M,
Boys,89.81,3,Jesse Sanchez,Sweeny,83.55,206.38,115.67,215.46,537.51,Single-ply,SBD,M,
Boys,89.81,4,Hadyn Schneider,West Columbia,84.01,206.38,108.86,204.12,519.36,Single-ply,SBD,M,
Boys,89.81,5,Bradford Erwin,West Columbia,87.82,201.85,124.74,190.51,517.1,Single-ply,SBD,M,
Boys,89.81,6,Justin Davila,Pasadena Memorial,87.27,183.7,102.06,206.38,492.15,Single-ply,SBD,M,
Boys,89.81,7,Tyler Norman,Hitchcock,89.18,190.51,92.99,204.12,487.61,Single-ply,SBD,M,
Boys,89.81,8,Javin Hines,West Columbia,84.55,183.7,95.25,192.78,471.74,Single-ply,SBD,M,
Boys,89.81,9,Isaac Kinard,Manvel,83.28,165.56,111.13,190.51,467.2,Single-ply,SBD,M,
Boys,89.81,10,Mauricio Gloria,Pasadena Memorial,84.82,172.37,86.18,188.24,446.79,Single-ply,SBD,M,
Boys,89.81,11,Richard Lancaster,West Columbia,84.82,165.56,106.59,161.03,433.18,Single-ply,SBD,M,
Boys,89.81,12,Landon Perez,Pasadena Memorial,86,163.29,102.06,165.56,430.91,Single-ply,SBD,M,
Boys,89.81,13,Ethan Cromeans,Clute Brazoswood,88.54,151.95,111.13,167.83,430.91,Single-ply,SBD,M,
Boys,89.81,14,Israel Ayala,Danbury,88.99,167.83,95.25,142.88,405.97,Single-ply,SBD,M,
Boys,99.79,1,Demontae Seymore,Manvel,93.71,258.55,165.56,256.28,680.39,Single-ply,SBD,M,
Boys,99.79,2,Max Kroschel,Danbury,97.52,215.46,156.49,217.72,589.67,Single-ply,SBD,M,
Boys,99.79,3,Dijon James,Clute Brazoswood,94.62,197.31,149.69,231.33,578.33,Single-ply,SBD,M,
Boys,99.79,4,Elim Castro,Freeport Brazosport,92.71,204.12,106.59,195.04,505.76,Single-ply,SBD,M,
Boys,99.79,5,Jase Ogelsby,Stafford,98.43,165.56,120.2,208.65,494.42,Single-ply,SBD,M,
Boys,99.79,6,Donato Cortes,Danbury,95.53,183.7,124.74,176.9,485.34,Single-ply,SBD,M,
Boys,99.79,7,Blaine Ashworth,Van Vleck,98.79,190.51,115.67,176.9,483.08,Single-ply,SBD,M,
Boys,99.79,8,Cade Lamb,West Columbia,92.71,174.63,111.13,183.7,469.47,Single-ply,SBD,M,
Boys,99.79,9,Davis Groves,Clute Brazoswood,90.72,183.7,102.06,176.9,462.66,Single-ply,SBD,M,
Boys,99.79,10,Payton Johnson,West Columbia,98.88,174.63,102.06,165.56,442.25,Single-ply,SBD,M,
Boys,99.79,11,Tresten McArthur,Sweeny,91.53,161.03,102.06,170.1,433.18,Single-ply,SBD,M,
Boys,99.79,12,Logan Bosarge,Sweeny,91.17,136.08,83.91,145.15,365.14,Single-ply,SBD,M,
Boys,109.77,1,Alex Flores,Clute Brazoswood,101.88,238.14,165.56,217.72,621.42,Single-ply,SBD,M,
Boys,109.77,2,Josh Diaz,Alvin Shadow Creek,105.41,238.14,165.56,206.38,610.08,Single-ply,SBD,M,
Boys,109.77,3,Kenyon Armstrong,Manvel,101.88,213.19,145.15,219.99,578.33,Single-ply,SBD,M,
Boys,109.77,4,Ricardo Cordova,Pasadena Memorial,106.96,215.46,142.88,217.72,576.06,Single-ply,SBD,M,
Boys,109.77,5,Mason Flemming,Manvel,107.23,201.85,140.61,199.58,542.04,Single-ply,SBD,M,
Boys,109.77,6,Britton Mosely,Manvel,105.14,204.12,108.86,195.04,508.02,Single-ply,SBD,M,
Boys,109.77,7,Jaiden Longoria,Pasadena Memorial,105.78,183.7,115.67,208.65,508.02,Single-ply,SBD,M,
Boys,109.77,8,Caleb Hadley,Stafford,106.5,181.44,127.01,192.78,501.22,Single-ply,SBD,M,
Boys,109.77,9,Angel Amezquita,Van Vleck,103.15,183.7,108.86,190.51,483.08,Single-ply,SBD,M,
Boys,109.77,10,Taylor Williams,Stafford,106.23,176.9,108.86,174.63,460.4,Single-ply,SBD,M,
Boys,124.74,1,Bj Moore,Freeport Brazosport,122.83,290.3,190.51,238.14,718.94,Single-ply,SBD,M,
Boys,124.74,2,Jordan Able,Clute Brazoswood,118.21,229.06,163.29,226.8,619.15,Single-ply,SBD,M,
Boys,124.74,3,Kris Whitley,Clute Brazoswood,119.02,210.92,154.22,204.12,569.26,Single-ply,SBD,M,
Boys,124.74,4,Ronnie Cathey,Van Vleck,121.02,231.33,127.01,201.85,560.19,Single-ply,SBD,M,
Boys,124.74,5,Shane Martinez,Sweeny,114.49,213.19,140.61,199.58,553.38,Single-ply,SBD,M,
Boys,124.74,6,Alex Mateo,Pasadena Memorial,124.01,201.85,113.4,219.99,535.24,Single-ply,SBD,M,
Boys,124.74,7,Erskin Hill,Hitchcock,123.38,210.92,131.54,190.51,532.97,Single-ply,SBD,M,
Boys,124.74,8,Christian Betts,Pasadena Memorial,115.76,210.92,106.59,206.38,523.9,Single-ply,SBD,M,
Boys,124.74,9,Rudy Garcia,Clute Brazoswood,122.29,204.12,136.08,183.7,523.9,Single-ply,SBD,M,
Boys,124.74,10,Mason Wallace,West Columbia,111.77,188.24,117.93,210.92,517.1,Single-ply,SBD,M,
Boys,124.74,11,Albert Ruben,Hitchcock,119.2,231.33,115.67,165.56,512.56,Single-ply,SBD,M,
Boys,124.74,12,Gabriel Villarreal,Pasadena Memorial,112.94,199.58,90.72,188.24,478.54,Single-ply,SBD,M,
Boys,139.71,1,Dylan Hughes,Alvin Shadow Creek,130.36,294.84,190.51,292.57,777.91,Single-ply,SBD,M,
Boys,139.71,2,John Fletcher,Manvel,131.9,256.28,167.83,249.48,673.58,Single-ply,SBD,M,
Boys,139.71,3,Xavier Potts,Manvel,127.28,258.55,138.35,240.4,637.3,Single-ply,SBD,M,
Boys,139.71,4,Wade Springfield,Van Vleck,137.62,233.6,147.42,192.78,573.79,Single-ply,SBD,M,
Boys,139.71,5,Micah Williams,Manvel,135.71,213.19,145.15,181.44,539.77,Single-ply,SBD,M,
Boys,139.71,6,Francisco Elgueda,Alvin Shadow Creek,129.27,176.9,117.93,192.78,487.61,Single-ply,SBD,M,
Boys,139.71,7,Corey Locke,Stafford,130.27,199.58,102.06,174.63,476.27,Single-ply,SBD,M,
Boys,139.71,8,Declan Donnelly,Sweeny,126.46,174.63,108.86,167.83,451.32,Single-ply,SBD,M,
Boys,139.71+,1,Reagan Gibson,West Columbia,144.51,306.17,197.31,272.16,775.64,Single-ply,SBD,M,
Boys,139.71+,2,Marcus Kemp,Alvin Shadow Creek,158.21,260.82,117.93,226.8,605.55,Single-ply,SBD,M,
Boys,139.71+,3,Trevor Strother,Hitchcock,143.06,226.8,129.27,181.44,537.51,Single-ply,SBD,M,
Boys,139.71+,4,Erick Woods,Stafford,147.69,174.63,138.35,215.46,528.44,Single-ply,SBD,M,
Boys,139.71+,5,Devin Anderson,Hitchcock,145.15,206.38,92.99,165.56,464.93,Single-ply,SBD,M,
