Division,WeightClassKg,Place,Name,Team,BodyweightKg,Best3SquatKg,Best3BenchKg,Best3DeadliftKg,TotalKg,Equipment,Event,Sex,BirthDate
Boys,59.87,1,Kyndle Esparza,Seagraves,58.88,151.95,77.11,170.1,399.16,Single-ply,SBD,M,
Boys,59.87,DQ,Jacob Arguellez,Brownfield,57.97,,,,,Single-ply,SBD,M,
Boys,67.13,1,Mark Rubalcava,Sundown,65.14,190.51,113.4,195.04,498.95,Single-ply,SBD,M,
Boys,67.13,2,Jacob Amesquita,Seagraves,66.59,147.42,86.18,149.69,383.29,Single-ply,SBD,M,
Boys,67.13,3,Braden Conn,Brownfield,67.13,124.74,70.31,131.54,326.59,Single-ply,SBD,M,
Boys,67.13,4,Aj Gutierrez,Tahoka,61.96,102.06,61.23,115.67,278.96,Single-ply,SBD,M,
Boys,67.13,DQ,Thomas Sullivan,Tahoka,67.13,142.88,,,,Single-ply,SBD,M,
Boys,74.84,1,Rickey Melendez,Sundown,69.58,210.92,127.01,181.44,519.36,Single-ply,SBD,M,
Boys,74.84,2,Stephen Hernandez,Tahoka,69.76,158.76,97.52,165.56,421.84,Single-ply,SBD,M,
Boys,74.84,3,Ben Reynolds,Sundown,69.4,129.27,70.31,140.61,340.19,Single-ply,SBD,M,
Boys,74.84,4,David Hernandez,Tahoka,73.57,117.93,81.65,138.35,337.93,Single-ply,SBD,M,
Boys,74.84,5,Jacob Flores,Brownfield,74.84,117.93,54.43,113.4,285.76,Single-ply,SBD,M,
Boys,74.84,6,Noah Arenas,Brownfield,71.76,104.33,74.84,104.33,283.5,Single-ply,SBD,M,
Boys,82.1,1,Kevin Garcia,Sundown,81.65,254.01,174.63,256.28,684.92,Single-ply,SBD,M,
Boys,82.1,2,EJ Hernandez,Sundown,80.38,231.33,163.29,217.72,612.35,Single-ply,SBD,M,
Boys,82.1,3,Francisco Garza,Brownfield,79.38,213.19,120.2,199.58,532.97,Single-ply,SBD,M,
Boys,82.1,4,Isiah Flores,Sundown,81.19,195.04,102.06,195.04,492.15,Single-ply,SBD,M,
Boys,82.1,5,Jc Camacho,Sundown,79.56,181.44,113.4,183.7,478.54,Single-ply,SBD,M,
Boys,89.81,1,Diego Hernandez,Sundown,87.54,231.33,142.88,229.06,603.28,Single-ply,SBD,M,
Boys,89.81,2,Austin Ferriera,Brownfield,88.36,210.92,145.15,190.51,546.58,Single-ply,SBD,M,
Boys,89.81,3,Jaxon Rodriguez,Sundown,85.64,167.83,95.25,190.51,453.59,Single-ply,SBD,M,
Boys,89.81,4,Brady Barcheers,Tahoka,84.37,149.69,102.06,183.7,435.45,Single-ply,SBD,M,
Boys,89.81,5,Landon Sehon,Sundown,89.36,163.29,113.4,156.49,433.18,Single-ply,SBD,M,
Boys,89.81,6,Carlos Baltazar,Seagraves,89.81,136.08,81.65,151.95,369.68,Single-ply,SBD,M,
Boys,89.81,7,Stephen Jenkins,Brownfield,83.19,122.47,70.31,120.2,312.98,Single-ply,SBD,M,
Boys,99.79,1,Andrew Hernandez,Sundown,96.8,276.69,167.83,226.8,671.32,Single-ply,SBD,M,
Boys,99.79,2,Jadon McAdams,Sundown,91.53,174.63,115.67,170.1,460.4,Single-ply,SBD,M,
Boys,99.79,3,Zayden Morin,Brownfield,98.88,190.51,97.52,154.22,442.25,Single-ply,SBD,M,
Boys,99.79,4,Andrew Castillo,Sundown,95.44,154.22,83.91,158.76,396.89,Single-ply,SBD,M,
Boys,109.77,1,Andy Castillo,Sundown,108.23,256.28,167.83,260.82,684.92,Single-ply,SBD,M,
Boys,109.77,2,Dekota Golightly,Sundown,109.13,240.4,149.69,206.38,596.47,Single-ply,SBD,M,
Boys,109.77,3,Xavyn Garcia,Sundown,109.68,226.8,147.42,188.24,562.45,Single-ply,SBD,M,
Boys,109.77,4,Chris Arrington,Tahoka,109.5,163.29,102.06,181.44,446.79,Single-ply,SBD,M,
Boys,109.77,5,Austin Reyes,Sundown,105.32,165.56,99.79,158.76,424.11,Single-ply,SBD,M,
Boys,109.77,6,Jace Valdez,Brownfield,101.42,142.88,81.65,138.35,362.87,Single-ply,SBD,M,
Boys,109.77,7,Andrew Lira,Brownfield,108.41,113.4,86.18,156.49,356.07,Single-ply,SBD,M,
Boys,109.77,8,Brock Case,Tahoka,107.5,133.81,68.04,149.69,351.53,Single-ply,SBD,M,
Boys,124.74,1,Kesean Dever,Brownfield,112.85,254.01,147.42,231.33,632.76,Single-ply,SBD,M,
Boys,124.74,2,Jeffery Rodriguez,Sundown,116.21,240.4,151.95,226.8,619.15,Single-ply,SBD,M,
Boys,124.74,3,Chris Castillo,Sundown,121.93,226.8,151.95,204.12,582.87,Single-ply,SBD,M,
Boys,124.74,4,Ezyah Torres-Peralez,Tahoka,112.22,136.08,77.11,140.61,353.8,Single-ply,SBD,M,
Boys,139.71+,1,Konar Alaman,Sundown,165.65,272.16,172.37,235.87,680.39,Single-ply,SBD,M,
Boys,139.71+,2,Jesus Rodriguez,Sundown,143.61,226.8,127.01,204.12,557.92,Single-ply,SBD,M,
