Division,WeightClassKg,Place,Name,Team,BodyweightKg,Best3SquatKg,Best3BenchKg,Best3DeadliftKg,TotalKg,Equipment,Event,Sex,BirthDate
Boys,51.71,1,Kevin Debes,Brownsville Rivera,49.99,104.33,63.5,111.13,278.96,Single-ply,SBD,M,
Boys,51.71,2,Joseph Soto,PSJA Memorial,51.35,83.91,56.7,111.13,251.74,Single-ply,SBD,M,
Boys,55.79,1,Andres Pelayo,Brownsville Rivera,55.16,124.74,70.31,136.08,331.12,Single-ply,SBD,M,
Boys,59.87,1,Juan Ramirez,PSJA Memorial,59.51,115.67,56.7,142.88,315.25,Single-ply,SBD,M,
Boys,67.13,1,Michael Morgan,PSJA Memorial,64.41,176.9,124.74,170.1,471.74,Single-ply,SBD,M,
Boys,67.13,2,Alex Perez,Brownsville Porter,65.32,151.95,90.72,154.22,396.89,Single-ply,SBD,M,
Boys,67.13,3,Jose Medellin,Brownsville Rivera,66.22,154.22,88.45,147.42,390.09,Single-ply,SBD,M,
Boys,67.13,4,Brenden Gonzalez,PSJA Memorial,61.42,124.74,90.72,129.27,344.73,Single-ply,SBD,M,
Boys,74.84,1,Jacob Olivarez,PSJA Memorial,72.57,226.8,142.88,222.26,591.94,Single-ply,SBD,M,
Boys,74.84,2,Jesus Pardo,Brownsville Rivera,70.13,226.8,129.27,215.46,571.53,Single-ply,SBD,M,
Boys,74.84,3,John Lopez,Weslaco East,69.4,158.76,106.59,183.7,449.06,Single-ply,SBD,M,
Boys,82.1,1,Daniel Villanueva,Brownsville Rivera,82.1,192.78,129.27,188.24,510.29,Single-ply,SBD,M,
Boys,82.1,2,Juan Zavala,Brownsville Porter,79.83,179.17,115.67,199.58,494.42,Single-ply,SBD,M,
Boys,82.1,3,Steve Arteaga,Brownsville Rivera,78.47,142.88,102.06,147.42,392.36,Single-ply,SBD,M,
Boys,82.1,DQ,Jose Hernandez,Brownsville Rivera,74.93,,,,,Single-ply,SBD,M,
Boys,82.1,DQ,Jose E Hernandez,Brownsville Rivera,74.93,,,,,Single-ply,SBD,M,
Boys,89.81,1,Jose Zavala,Weslaco East,86.91,219.99,145.15,258.55,623.69,Single-ply,SBD,M,
Boys,89.81,2,Jaime Munoz,Weslaco East,84.1,213.19,108.86,199.58,521.63,Single-ply,SBD,M,
Boys,89.81,3,Julio Castro,Brownsville Porter,86.45,120.2,79.38,127.01,326.59,Single-ply,SBD,M,
Boys,99.79,1,Josuf Moralez,Weslaco East,97.34,217.72,149.69,217.72,585.13,Single-ply,SBD,M,
Boys,99.79,2,Mark Pena,PSJA Memorial,98.7,183.7,120.2,199.58,503.49,Single-ply,SBD,M,
Boys,99.79,3,Alejandro Corona,PSJA Memorial,90.72,156.49,115.67,156.49,428.64,Single-ply,SBD,M,
Boys,109.77,1,Jesus Hernandez,Brownsville Rivera,104.33,265.35,176.9,235.87,678.12,Single-ply,SBD,M,
Boys,109.77,2,Noe Castillo,Weslaco East,106.32,249.48,190.51,226.8,666.78,Single-ply,SBD,M,
Boys,109.77,3,Isaac Gonzalez,Weslaco East,105.23,272.16,176.9,215.46,664.51,Single-ply,SBD,M,
Boys,109.77,4,Jesus Salas,Brownsville Rivera,109.77,226.8,136.08,192.78,555.65,Single-ply,SBD,M,
Boys,109.77,5,Estevan Cisneros,Brownsville Porter,104.42,204.12,129.27,210.92,544.31,Single-ply,SBD,M,
Boys,109.77,6,Victor Martinez,PSJA Memorial,106.23,215.46,127.01,199.58,542.04,Single-ply,SBD,M,
Boys,109.77,7,Julius Gonzalez,Weslaco East,101.51,195.04,117.93,185.97,498.95,Single-ply,SBD,M,
Boys,109.77,8,Angel Giron,Brownsville Porter,102.06,183.7,102.06,197.31,483.08,Single-ply,SBD,M,
Boys,109.77,DQ,Hector Guerrero,Brownsville Rivera,106.87,226.8,,,,Single-ply,SBD,M,
Boys,124.74,1,Abraham Lozano,Brownsville Rivera,122.92,272.16,136.08,226.8,635.03,Single-ply,SBD,M,
Boys,124.74,2,Julian Lopez,PSJA Memorial,111.58,226.8,124.74,204.12,555.65,Single-ply,SBD,M,
Boys,124.74,3,Abraham Villalon,Brownsville Porter,122.02,215.46,142.88,197.31,555.65,Single-ply,SBD,M,
Boys,124.74,4,Michael Alegria,Weslaco East,121.65,183.7,120.2,183.7,487.61,Single-ply,SBD,M,
Boys,124.74,5,Aaron Palacios,Brownsville Porter,121.02,147.42,74.84,142.88,365.14,Single-ply,SBD,M,
Boys,124.74,DQ,Ezequiel Torres,Brownsville Rivera,124.28,,,,,Single-ply,SBD,M,
Boys,139.71,1,Gael Pineda,PSJA Memorial,136.08,197.31,120.2,183.7,501.22,Single-ply,SBD,M,
Boys,,NS,Jarek Espinoza,Weslaco East,,,,,,Single-ply,SBD,M,
Boys,,NS,Diego Ortiz,Weslaco East,,,,,,Single-ply,SBD,M,
Boys,,NS,Deryck Ramirez,Weslaco East,,,,,,Single-ply,SBD,M,
Boys,,NS,Nate Martinez #2,Weslaco East,,,,,,Single-ply,SBD,M,
