Division,WeightClassKg,Place,Name,Team,BodyweightKg,Best3SquatKg,Best3BenchKg,Best3DeadliftKg,TotalKg,Equipment,Event,Sex,BirthDate
Boys,55.79,1,Hunter Sertain,Ozona,54.48,108.86,45.36,,154.22,Single-ply,SB,M,
Boys,59.87,1,Perdro Elizondo,Ozona,57.7,136.08,81.65,149.69,367.41,Single-ply,SBD,M,
Boys,59.87,2,Noah Bohnert,Comfort,56.38,111.13,65.77,136.08,312.98,Single-ply,SBD,M,
Boys,59.87,3,Tyler Williams,Center Point,59.01,158.76,81.65,,240.4,Single-ply,SB,M,
Boys,59.87,4,Evan Parker,Leakey,55.93,95.25,,122.47,217.72,Single-ply,SD,M,
Boys,67.13,1,Mauricio Gallegos,Center Point,64.95,219.99,83.91,195.04,498.95,Single-ply,SBD,M,
Boys,67.13,2,Austin Harris,Rocksprings,66.41,149.69,111.13,154.22,415.04,Single-ply,SBD,M,
Boys,67.13,3,Ian Buchanan,Leakey,62.19,147.42,95.25,165.56,408.23,Single-ply,SBD,M,
Boys,67.13,4,Jose Castenada,Center Point,64.36,158.76,79.38,142.88,381.02,Single-ply,SBD,M,
Boys,74.84,1,Eddie Rios,Ozona,71.94,179.17,97.52,167.83,444.52,Single-ply,SBD,M,
Boys,74.84,2,Logan Aguirre,Comfort,68.81,158.76,83.91,179.17,421.84,Single-ply,SBD,M,
Boys,74.84,3,Casey Vincent,Center Point,71.21,183.7,74.84,,258.55,Single-ply,SB,M,
Boys,82.1,1,Tap Shanklin,Rocksprings,76.07,213.19,111.13,199.58,523.9,Single-ply,SBD,M,
Boys,82.1,2,Eddie Flemma,Center Point,81.01,183.7,113.4,165.56,462.66,Single-ply,SBD,M,
Boys,82.1,3,Jarryn Puckett,Ozona,79.38,149.69,88.45,156.49,394.63,Single-ply,SBD,M,
Boys,82.1,4,Cyrus Falcon,Comfort,81.74,142.88,61.23,172.37,376.48,Single-ply,SBD,M,
Boys,82.1,5,Mathew Medina,Comfort,81.15,124.74,56.7,138.35,319.78,Single-ply,SBD,M,
Boys,89.81,1,Ruben Guerrero,Leakey,87.86,188.24,,,188.24,Single-ply,S,M,
Boys,99.79,1,Kyle Sanders,Rocksprings,92.4,240.4,124.74,183.7,548.85,Single-ply,SBD,M,
Boys,99.79,2,Gabe Ceniceros,Center Point,97.98,201.85,113.4,188.24,503.49,Single-ply,SBD,M,
Boys,99.79,3,Roberto Rivas,Rocksprings,97.75,233.6,102.06,,335.66,Single-ply,SB,M,
Boys,109.77,1,Robert Barrera,Ozona,102.06,183.7,120.2,183.7,487.61,Single-ply,SBD,M,
Boys,109.77,2,Caleb Yeschke,Leakey,108.86,167.83,99.79,170.1,437.72,Single-ply,SBD,M,
Boys,109.77,3,Zeke Tafoya,Leakey,101.6,165.56,77.11,140.61,383.29,Single-ply,SBD,M,
Boys,124.74,1,Jon-Mychael Kirkland,Rocksprings,112.49,244.94,147.42,244.94,637.3,Single-ply,SBD,M,
Boys,124.74,2,Santiago Pinedo,Comfort,120.66,102.06,61.23,113.4,276.69,Single-ply,SBD,M,
Boys,139.71,1,Martin Hernandez,Comfort,127.28,247.21,147.42,238.14,632.76,Single-ply,SBD,M,
Boys,139.71+,1,Ralph Sinfuentes,Rocksprings,179.17,183.7,99.79,142.88,426.38,Single-ply,SBD,M,
Boys,,NS,Jadon Dobbins,Rocksprings,,,,,,Single-ply,SBD,M,
