Division,WeightClassKg,Place,Name,Team,BodyweightKg,Best3SquatKg,Best3BenchKg,Best3DeadliftKg,TotalKg,Equipment,Event,Sex,BirthDate
Boys,51.71,1,Cruz Terrell,Beaumont West Brook,50.8,90.72,45.36,115.67,251.74,Single-ply,SBD,M,
Boys,55.79,1,Emmanuel Batongmalaki,Baytown Lee,53.07,106.59,70.31,151.95,328.85,Single-ply,SBD,M,
Boys,55.79,2,Stoney Connors,Beaumont West Brook,55.34,90.72,54.43,111.13,256.28,Single-ply,SBD,M,
Boys,59.87,1,Landyn Harmon,Baytown Lee,57.15,106.59,61.23,120.2,288.03,Single-ply,SBD,M,
Boys,59.87,2,Antonio Correa,Baytown Lee,56.25,106.59,56.7,120.2,283.5,Single-ply,SBD,M,
Boys,59.87,3,Arrin Lewis,Baytown Lee,59.87,90.72,56.7,95.25,242.67,Single-ply,SBD,M,
Boys,59.87,DQ,Christopher Wells,Baytown Lee,57.61,,,,,Single-ply,SBD,M,
Boys,67.13,1,Andrew Phillips,Beaumont West Brook,66.68,147.42,99.79,145.15,392.36,Single-ply,SBD,M,
Boys,67.13,2,Dwain King,Baytown Lee,67.13,104.33,95.25,156.49,356.07,Single-ply,SBD,M,
Boys,67.13,3,Andrew Estrada,Baytown Lee,65.77,115.67,74.84,147.42,337.93,Single-ply,SBD,M,
Boys,67.13,4,Robert Keasling,Dayton,62.14,102.06,68.04,111.13,281.23,Single-ply,SBD,M,
Boys,67.13,5,Josiah Joseph,Baytown Lee,65.77,102.06,72.57,102.06,276.69,Single-ply,SBD,M,
Boys,67.13,6,Chris Castillo,Baytown Goose Creek Memorial,61.69,92.99,56.7,104.33,254.01,Single-ply,SBD,M,
Boys,67.13,7,Wilford Pitre,Baytown Lee,67.13,79.38,65.77,90.72,235.87,Single-ply,SBD,M,
Boys,67.13,DQ,Ja'Croey Boston,Baytown Lee,63.5,,,,,Single-ply,SBD,M,
Boys,67.13,DQ,Clinton Kemper,Baytown Lee,63.5,,,,,Single-ply,SBD,M,
Boys,67.13,DQ,Brian White,Baytown Lee,65.77,,,,,Single-ply,SBD,M,
Boys,74.84,1,Sergio Hinojosa,Baytown Goose Creek Memorial,73.94,197.31,122.47,251.74,571.53,Single-ply,SBD,M,
Boys,74.84,2,Larry Brooks,Beaumont West Brook,73.94,244.94,133.81,192.78,571.53,Single-ply,SBD,M,
Boys,74.84,2,Bradlee Koba,Beaumont West Brook,74.84,145.15,92.99,133.81,371.95,Single-ply,SBD,M,
Boys,74.84,3,Beaux Cox,Huffman Hargrave,74.84,190.51,120.2,188.24,498.95,Single-ply,SBD,M,
Boys,74.84,4,Owen Romero,Baytown Lee,72.12,151.95,102.06,170.1,424.11,Single-ply,SBD,M,
Boys,74.84,5,Wanyae Barnes,Baytown Lee,68.04,142.88,83.91,183.7,410.5,Single-ply,SBD,M,
Boys,74.84,6,Kofi Cooper,Baytown Lee,72.57,129.27,86.18,142.88,358.34,Single-ply,SBD,M,
Boys,74.84,7,Nicholas Carmon,Baytown Lee,73.94,104.33,97.52,131.54,333.39,Single-ply,SBD,M,
Boys,74.84,8,Denzel Taylor,Baytown Lee,68.04,117.93,70.31,127.01,315.25,Single-ply,SBD,M,
Boys,74.84,9,Nickolas Rodriguez,Baytown Lee,73.94,106.59,68.04,124.74,299.37,Single-ply,SBD,M,
Boys,74.84,10,Ehert Calloway,Baytown Lee,67.59,88.45,61.23,127.01,276.69,Single-ply,SBD,M,
Boys,74.84,11,Edgar Flores,Baytown Lee,69.85,83.91,70.31,111.13,265.35,Single-ply,SBD,M,
Boys,74.84,12,Dustin Baker,Baytown Lee,72.57,61.23,47.63,127.01,235.87,Single-ply,SBD,M,
Boys,74.84,13,Edson Gonzalez,Baytown Lee,70.76,,,161.03,161.03,Single-ply,D,M,
Boys,74.84,DQ,Xehvion Trahan,Baytown Lee,69.85,,,,,Single-ply,SBD,M,
Boys,74.84,DQ,Adrian Mondragon,Baytown Lee,70.31,,,,,Single-ply,SBD,M,
Boys,74.84,DQ,Dylan Edwards,Baytown Lee,73.94,,,,,Single-ply,SBD,M,
Boys,74.84,DQ,Levay Duncan,Baytown Lee,72.57,,,,,Single-ply,SBD,M,
Boys,82.1,1,Titus Ellingsen,Huffman Hargrave,82.1,192.78,124.74,183.7,501.22,Single-ply,SBD,M,
Boys,82.1,3,Guillermo Vasquez,Baytown Lee,78.02,124.74,70.31,154.22,349.27,Single-ply,SBD,M,
Boys,82.1,DQ,Fernando Ramos,Baytown Goose Creek Memorial,79.38,,,,,Single-ply,SBD,M,
Boys,82.1,DQ,Julian Chapa,Baytown Goose Creek Memorial,81.65,,,,,Single-ply,SBD,M,
Boys,82.1,DQ,John Arenas,Baytown Goose Creek Memorial,77.11,,,,,Single-ply,SBD,M,
Boys,82.1,DQ,Matteo De Los Reyes,Baytown Lee,75.3,,,,,Single-ply,SBD,M,
Boys,89.81,1,Tyler Westbrook,Huffman Hargrave,88,197.31,129.27,188.24,514.83,Single-ply,SBD,M,
Boys,89.81,2,Horacio Thomas,Baytown Lee,89.81,140.61,72.57,156.49,369.68,Single-ply,SBD,M,
Boys,89.81,3,Levi Brown,Dayton,89.81,142.88,72.57,145.15,360.61,Single-ply,SBD,M,
Boys,89.81,4,Hayden Bogle,Baytown Lee,88.45,92.99,61.23,124.74,278.96,Single-ply,SBD,M,
Boys,89.81,5,Benito Zuniga,Baytown Goose Creek Memorial,88.45,106.59,47.63,111.13,265.35,Single-ply,SBD,M,
Boys,89.81,6,Mathew Garza,Baytown Lee,87.54,83.91,61.23,104.33,249.48,Single-ply,SBD,M,
Boys,89.81,DQ,Juan Huerta,Baytown Lee,86.18,,,,,Single-ply,SBD,M,
Boys,89.81,DQ,Harold Gibson,Baytown Lee,84.82,,,,,Single-ply,SBD,M,
Boys,89.81,DQ,Noah Smith,Huffman Hargrave,89.81,,,,,Single-ply,SBD,M,
Boys,99.79,1,Camron Coleman,Beaumont West Brook,99.34,217.72,158.76,201.85,578.33,Single-ply,SBD,M,
Boys,99.79,2,Jonathan Ayala,Baytown Goose Creek Memorial,92.53,213.19,124.74,233.6,571.53,Single-ply,SBD,M,
Boys,99.79,3,Ivan Ibarra,Baytown Lee,97.52,170.1,120.2,190.51,480.81,Single-ply,SBD,M,
Boys,99.79,4,Angel Ceja #3,Baytown Lee,97.98,140.61,106.59,165.56,412.77,Single-ply,SBD,M,
Boys,99.79,5,Angel Jara,Baytown Goose Creek Memorial,99.34,165.56,74.84,165.56,405.97,Single-ply,SBD,M,
Boys,99.79,6,Jonathan Carter,Baytown Lee,96.62,136.08,79.38,176.9,392.36,Single-ply,SBD,M,
Boys,99.79,7,Bryce Dehart,Dayton,99.79,117.93,68.04,136.08,322.05,Single-ply,SBD,M,
Boys,99.79,8,Ricarri Blow,Baytown Lee,91.63,124.74,68.04,127.01,319.78,Single-ply,SBD,M,
Boys,99.79,9,Raymundo Navarro,Baytown Lee,92.99,111.13,65.77,140.61,317.51,Single-ply,SBD,M,
Boys,99.79,10,Anthony Clark #7,Baytown Lee,97.98,113.4,61.23,142.88,317.51,Single-ply,SBD,M,
Boys,109.77,1,Colton Colton,Huffman Hargrave,109.77,195.04,138.35,201.85,535.24,Single-ply,SBD,M,
Boys,109.77,2,Mathew Chin,Beaumont West Brook,102.06,183.7,124.74,210.92,519.36,Single-ply,SBD,M,
Boys,109.77,3,Noe Salinas,Baytown Lee,104.33,165.56,92.99,183.7,442.25,Single-ply,SBD,M,
Boys,109.77,4,Aiden Newsome,Dayton,109.77,154.22,90.72,183.7,428.64,Single-ply,SBD,M,
Boys,109.77,5,Isac Rendon,Baytown Lee,103.42,147.42,102.06,163.29,412.77,Single-ply,SBD,M,
Boys,109.77,6,Mason Coulter,Huffman Hargrave,102.06,136.08,83.91,165.56,385.55,Single-ply,SBD,M,
Boys,109.77,7,Julian Salinas,Baytown Lee,108.41,81.65,68.04,127.01,276.69,Single-ply,SBD,M,
Boys,124.74,1,Jeremiah Jordan,Beaumont West Brook,117.03,204.12,136.08,181.44,521.63,Single-ply,SBD,M,
Boys,124.74,2,Domonic Medina,Baytown Lee,113.85,190.51,117.93,197.31,505.76,Single-ply,SBD,M,
Boys,124.74,3,Shane Morgan,Dayton,124.74,156.49,88.45,188.24,433.18,Single-ply,SBD,M,
Boys,124.74,4,Chritopher Sandoval,Baytown Lee,111.58,111.13,61.23,129.27,301.64,Single-ply,SBD,M,
Boys,124.74,5,Jaden Trebes,Baytown Lee,111.13,90.72,52.16,108.86,251.74,Single-ply,SBD,M,
Boys,124.74,DQ,Braxton Chambers,Beaumont West Brook,119.29,,,,,Single-ply,SBD,M,
Boys,124.74,DQ,Issac Herron,Baytown Lee,115.21,,,,,Single-ply,SBD,M,
Boys,139.71,1,Arthur Hebert,Beaumont West Brook,125.19,231.33,149.69,181.44,562.45,Single-ply,SBD,M,
Boys,139.71,2,Adrian Arrellano,Baytown Goose Creek Memorial,131.09,199.58,92.99,188.24,480.81,Single-ply,SBD,M,
Boys,139.71,3,Nikolas Rodriguez,Baytown Lee,129.73,174.63,86.18,183.7,444.52,Single-ply,SBD,M,
Boys,139.71,4,Damian Hernandez,Baytown Goose Creek Memorial,130.18,127.01,70.31,142.88,340.19,Single-ply,SBD,M,
Boys,139.71,5,Dylan Jeffers,Baytown Goose Creek Memorial,130.63,102.06,61.23,117.93,281.23,Single-ply,SBD,M,
Boys,139.71+,1,Omar Nieto,Baytown Lee,149.69,247.21,120.2,215.46,582.87,Single-ply,SBD,M,
Boys,139.71+,2,Marcus Jefferson,Beaumont West Brook,155.58,208.65,111.13,197.31,517.1,Single-ply,SBD,M,
Boys,139.71+,3,Gavin Pacheco,Baytown Lee,163.29,124.74,74.84,176.9,376.48,Single-ply,SBD,M,
Boys,139.71+,4,Cayden Shaver,Dayton,140.16,124.74,104.33,142.88,371.95,Single-ply,SBD,M,
Boys,139.71+,5,Jeremyh Brown,Baytown Lee,143.34,133.81,83.91,151.95,369.68,Single-ply,SBD,M,
