Name,Sex,Division,Age,BodyweightKg,WeightClassKg,Squat1Kg,Squat2Kg,Squat3Kg,Squat4Kg,Best3SquatKg,Bench1Kg,Bench2Kg,Bench3Kg,Bench4Kg,Best3BenchKg,Deadlift1Kg,Deadlift2Kg,Deadlift3Kg,Deadlift4Kg,Best3DeadliftKg,TotalKg,Place,Event,Equipment,BirthDate
Rita Nagy,F,FElite,46,72.1,75,,,,,,115,122.5,130,-140,130,,,,,,130,1,B,Raw,
Evelin Eisensehr,F,FElite,46,81.9,82.5,,,,,,117.5,-121,-121,,117.5,,,,,,117.5,1,B,Raw,
Mirtill Lachmann,F,FElite,28,95,90+,200,230,-252.5,,230,80,95,-105,,95,200,220,,,220,545,1,SBD,Wraps,
Ferenc Maglódi,M,MElite,35,83.2,90,,,,,,210,215,220,,220,,,,,,220,1,B,Raw,
Attila Gembiczki,M,MElite,33,88.2,90,,,,,,200,-207.5,-207.5,,200,,,,,,200,2,B,Raw,
Dezső Korom,M,MElite,23,99.3,100,,,,,,210,,,,210,,,,,,210,1,B,Raw,
Ákos Oláh,M,MElite,31,102.6,110,,,,,,200,210,-220,,210,,,,,,210,1,B,Raw,
Ádám Moszkál,M,MElite,24,114.4,125,,,,,,220,230,245,,245,,,,,,245,1,B,Raw,
László Mészáros,M,MElite,51,134.5,140,,,,,,250,260,270,,270,,,,,,270,1,B,Raw,
Alex Véró,M,MElite,23,149.1,140+,,,,,,200,217.5,-222.5,,217.5,,,,,,217.5,1,B,Raw,
Csaba Bajczer,M,MElite,19,90,90,,,,,,,,,,,300,307.5,-312.5,,307.5,307.5,1,D,Raw,
Gábor János Kiss,M,MElite,31,107.1,110,,,,,,,,,,,310,335,-340,,335,335,1,D,Raw,
Zoltán Borbíró,M,MElite,25,120,125,,,,,,,,,,,320,335,342.5,,342.5,342.5,1,D,Raw,
Dávid Kecskés,M,MElite,27,133,140,,,,,,,,,,,370,390,400,405,400,400,1,D,Raw,
Ádám Kiss,M,MElite,23,125.4,140,,,,,,,,,,,340,360,-380,,360,360,2,D,Raw,
Balázs Hajdú,M,MElite,23,87.3,90,235,250,260,,260,170,180,190,,190,280,300,-310,,300,750,1,SBD,Wraps,
Róbert Majoros,M,MElite,26,99.1,100,315,325,-330,,325,,,,,,,,,,,,DQ,SBD,Wraps,
Péter Czentye,M,MElite,31,99,100,310,-330,345,,345,-170,170,172.5,,172.5,285,305,315,,315,832.5,1,SBD,Wraps,
János Rajmund Nagy,M,MElite,26,118,125,320,340,352.5,,352.5,210,220,225,,225,-350,-350,-350,,,,DQ,SBD,Wraps,
Tamás Bocz,M,MElite,37,113.3,125,315,330,-340,,330,215,225,230,,230,315,325,,,325,885,1,SBD,Wraps,
László Haraszti Ifj,M,MET3,18,95.8,100,,,,,,150,-165,-165,,150,,,,,,150,1,B,Multi-ply,
János Gábor Bialik,M,MET3,19,118.3,125,,,,,,200,210,-221,221,210,,,,,,210,1,B,Multi-ply,
Benjamin Áder,M,MJE,21,63,67.5,,,,,,-130,130,135,,135,,,,,,135,1,B,Multi-ply,
Norbert Deli,M,MOE,39,74.5,75,,,,,,150,160,165,,165,,,,,,165,1,B,Multi-ply,
Mihály Berecki,M,MOE,33,77.8,82.5,,,,,,-160,160,-170,,160,,,,,,160,1,B,Multi-ply,
Zoltán Szabó,M,MOE,35,85.7,90,,,,,,200,-215,-215,,200,,,,,,200,1,B,Multi-ply,
Zsolt Nándor Oláh,M,MOE,25,87.1,90,,,,,,160,-175,-202.5,,160,,,,,,160,2,B,Multi-ply,
Károly József Szuder,M,MOE,33,100,100,,,,,,220,230,-235,,230,,,,,,230,1,B,Multi-ply,
Zoltán Zelei,M,MOE,33,102.5,110,,,,,,-300,-300,-305,,,,,,,,,DQ,B,Multi-ply,
József Somogyi,M,MOE,28,122,125,,,,,,-210,-210,-210,,,,,,,,,DQ,B,Multi-ply,
Richárd Buda,M,MOE,27,134.2,140,,,,,,360,370,-391,-391,370,,,,,,370,1,B,Multi-ply,
István Dávid,M,MOE,38,131,140,,,,,,180,-190,-190,,180,,,,,,180,2,B,Multi-ply,
Alex Véró,M,MOE,23,151.2,140+,,,,,,285,-300,-300,,285,,,,,,285,1,B,Multi-ply,
Péter Belme,M,MEM1,45,98.5,100,,,,,,-210,210,-215,,210,,,,,,210,1,B,Multi-ply,
József Kovács,M,MEM1,47,101.5,110,,,,,,-180,180,-190,,180,,,,,,180,1,B,Multi-ply,
László Haraszti,M,MEM1,49,111.1,125,,,,,,-240,-240,-240,,,,,,,,,DQ,B,Multi-ply,
Lajos Vig,M,MEM1,40,130.5,140,,,,,,-270,270,285,,285,,,,,,285,1,B,Multi-ply,
Béla Kling,M,MEM2,52,100,100,,,,,,200,-205,-210,,200,,,,,,200,1,B,Multi-ply,
Ferenc Balázs,M,MEM2,50,106.3,110,,,,,,260,-270,-270,,260,,,,,,260,1,B,Multi-ply,
István Csertek,M,MEM2,55,110.7,125,,,,,,140,150,-160,,150,,,,,,150,1,B,Multi-ply,
Csaba Molnár,M,MEM2,56,135.7,140,,,,,,-230,230,-240,,230,,,,,,230,1,B,Multi-ply,
János Csatári,M,MEM3,64,104.4,110,,,,,,150,160,-170,,160,,,,,,160,1,B,Multi-ply,
László Jobbágy,M,MEM4,73,80.1,82.5,,,,,,-140,,,,,,,,,,,DQ,B,Multi-ply,
Huba Hablicsek,M,MJE,22,60.6,67.5,,,,,,,,,,,140,150,-160,,150,150,1,D,Multi-ply,
Huba Hablicsek,M,MOE,22,60.6,67.5,,,,,,,,,,,140,150,-160,,150,150,1,D,Multi-ply,
Norbert Gerhát,M,MOE,29,81.2,82.5,,,,,,,,,,,225,235,-240,,235,235,1,D,Multi-ply,
Norbert Hablicsek,M,MOE,46,107.6,110,,,,,,,,,,,200,-220,-280,,200,200,1,D,Multi-ply,
Ernő Eck,M,MOE,48,120.4,125,,,,,,,,,,,,,,,,,DQ,D,Multi-ply,
István Dávid,M,MOE,38,130.9,140,,,,,,,,,,,200,220,240,,240,240,1,D,Multi-ply,
Norbert Hablicsek,M,MEM1,46,107.6,110,,,,,,,,,,,200,-220,-280,,200,200,1,D,Multi-ply,
Ernő Eck,M,MEM1,48,120.4,125,,,,,,,,,,,,,,,,,DQ,D,Multi-ply,
Ladislau Kiss,M,MEM4,72,96.3,100,,,,,,,,,,,230,250,262.5,,262.5,262.5,1,D,Multi-ply,
Ernő Eck,M,MOE,48,120.4,125,-290,-290,-290,,,,,,,,,,,,,,DQ,SBD,Multi-ply,
István Dávid,M,MOE,38,130.9,140,200,-220,,,200,180,,,,180,200,220,240,,240,620,1,SBD,Multi-ply,
Ernő Eck,M,MEM1,48,120.4,125,-290,-290,-290,,,,,,,,,,,,,,DQ,SBD,Multi-ply,
Ernő Eck,M,MOE,48,120.4,125,-290,-290,-290,,,,,,,,,,,,,,DQ,S,Multi-ply,
István Dávid,M,MOE,38,130.9,140,200,-220,,,200,,,,,,,,,,,200,1,S,Multi-ply,
Ernő Eck,M,MEM1,48,120.4,125,-290,-290,-290,,,,,,,,,,,,,,DQ,S,Multi-ply,
Ferenc Gajdács,M,MO-MOZG,26,75,75,,,,,,-140,-140,-140,,,,,,,,,DQ,B,Raw,
Gábor Galambos,M,MO-MOZG,36,100.1,110,,,,,,95,100,102.5,,102.5,,,,,,102.5,1,B,Raw,
Norbert Hajas,M,MM1-MOZG,48,74.8,75,,,,,,155,165.5,172.5,,172.5,,,,,,172.5,1,B,Raw,
Barbara Bécsi,F,FT3,18,54.9,56,80,90,-100,-108,90,40,45,-50,,45,122.5,130,141,,141,276,1,SBD,Wraps,
Nelli Belme,F,FT3,18,55.1,56,70,-80,-80,,70,-37.5,40,-42.5,,40,70,80,-82.5,,80,190,2,SBD,Wraps,
Laura T. Kiss,F,FT2,16,67.5,67.5,-90,95,-105,,95,60,-62.5,-62.5,,60,120,130,-140,,130,285,1,SBD,Wraps,
Kinga Karsai,F,FT2,17,65,67.5,90,100,-105,,100,42.5,-47.5,-47.5,,42.5,100,110,115,,115,257.5,2,SBD,Wraps,
Dorina Veinémer,F,FT2,17,66.7,67.5,75,80,87.5,,87.5,45,50,55,,55,97.5,105,112.5,,112.5,255,3,SBD,Wraps,
Hajnalka Kovács,F,FJ,20,65,67.5,105,112.5,-115,,112.5,65,70,-75,,70,107.5,115,122.5,,122.5,305,1,SBD,Wraps,
Viktória Majoros,F,FJ,20,81.9,82.5,125,135,142.5,,142.5,67.5,-75,75,,75,127.5,137.5,145,,145,362.5,1,SBD,Wraps,
Ágnes Papp,F,FO,42,48.3,52,60,67.5,-72.5,,67.5,45,47.5,-50,,47.5,110,120,-122.5,,120,235,1,SBD,Wraps,
Dzsenifer Embais,F,FO,32,59.6,60,-145,145,-150,,145,-55,-55,,,,-125,,,,,,DQ,SBD,Wraps,
Klaudia Csatlós,F,FO,30,58.3,60,145,152.5,157.5,,157.5,70,75,-82.5,,75,152.5,162.5,-167.5,,162.5,395,1,SBD,Wraps,
Krisztina Majoros,F,FO,27,63.6,67.5,152.5,162.5,170,180.5,170,70,75,77.5,,77.5,152.5,162.5,-170,,162.5,410,1,SBD,Wraps,
Renáta Vida,F,FO,24,69.2,75,120,130,140,,140,70,75,-77.5,,75,130,140,145,,145,360,1,SBD,Wraps,
Viktória Gombás,F,FO,32,74.1,75,115,120,-125,,120,50,55,-57.5,,55,110,115,120,,120,295,2,SBD,Wraps,
Zsuzsa Kárai,F,FO,37,78.6,82.5,115,125,130,,130,-75,75,77.5,,77.5,145,150,155,,155,362.5,1,SBD,Wraps,
Ágnes Papp,F,FM1,42,48.3,52,60,67.5,-72.5,,67.5,45,47.5,-50,,47.5,110,120,-122.5,,120,235,1,SBD,Wraps,
Katalin Ferkel,F,FM1,49,56.8,60,90.5,-110,-110,-110,90.5,40,42.5,45,,45,100,110,120,,120,255.5,1,SBD,Wraps,
Henrietta Tuba,F,FM1,45,65.4,67.5,100,-110,115,,115,70,75,80,,80,130,140,150,,150,345,1,SBD,Wraps,
Beáta Kárpáti,F,FM1,47,64.6,67.5,70,-80,85,,85,60,65,70,,70,110,115,120,,120,275,2,SBD,Wraps,
Anita Olláriné Móczár,F,FM1,40,73.7,75,-80,80,90,,90,-62.5,62.5,67.5,,67.5,115,125,135,,135,292.1,1,SBD,Wraps,
Andrea Györki,F,FM1,44,76.8,82.5,-80,-85,-90,,,-42.5,,,,,-90,,,,,,DQ,SBD,Wraps,
Zita Evelley,F,FM2,50,74,75,80,90,-100,,90,52.5,57.5,-60,,57.5,110,120,130,132.5,130,277.5,1,SBD,Wraps,
Ildikó György,F,FM2,50,79.4,82.5,-125,125,132.5,140,132.5,95,100,-103,105,100,155,-165,165,170.5,165,397.5,1,SBD,Wraps,
Csongor Gál,M,MT3,19,74.8,75,160,170,180,,180,-100,100,-110,,100,170,190,200,,200,480,1,SBD,Wraps,
Balázs Görög,M,MT3,18,73.2,75,-140,140,-150,,140,100,110,-115,,110,160,-180,180,,180,430,2,SBD,Wraps,
Gergő Szabó,M,MT3,18,71.3,75,125,-135,-135,,125,85,90,-92.5,,90,150,160,-170,,160,375,3,SBD,Wraps,
Tamás Parádi,M,MT1,15,70.9,75,-110,-110,117.5,,117.5,-70,80,-90,,80,130,140,151,153,151,348.5,4,SBD,Wraps,
Balázs Oláh,M,MT2,17,74.2,75,-100,115,-122.5,,115,70,-80,-80,,70,125,135,150,,150,335,5,SBD,Wraps,
Roland Király,M,MT3,19,81.9,82.5,217.5,-227.5,-227.5,,217.5,125,-132.5,-132.5,,125,227.5,237.5,-242.5,,237.5,580,1,SBD,Wraps,
Krisztián József Horváth,M,MT3,18,77.5,82.5,175,185,190,,190,90,95,-100,,95,175,187.5,192.5,,192.5,477.5,2,SBD,Wraps,
Márkó László Békés,M,MT3,18,86,90,155,-165,-165,,155,-100,-100,-100,,-100,215,-225,,,215,,DQ,SBD,Wraps,
Csaba Bajczer,M,MT3,19,87.3,90,240,250,-255,,250,150,155,157.5,,157.5,300,305,310,,310,717.5,1,SBD,Wraps,
Tamás Levente Tóth,M,MT3,19,88.5,90,-220,242.5,260,,260,147.5,-155,-155,,147.5,260,-290,-302.5,,260,667.5,2,SBD,Wraps,
Máté Gábor Király,M,MT2,17,86.3,90,165,180,195,,195,125,130,-132.5,,130,190,202.5,-212.5,,202.5,527.5,3,SBD,Wraps,
Patrik Kiss,M,MT3,19,99.4,100,240,260,-270,,260,-140,140,-150,,140,250,260,270,,270,670,1,SBD,Wraps,
Robin Fülöp,M,MT3,19,97,100,-225,-225,225,,225,130,142.5,-150,,142.5,260,-280,-280,,260,627.5,2,SBD,Wraps,
Gergő Csibi,M,MT3,19,96.5,100,-210,210,-220,,210,140,145,150,,150,-210,210,230,,230,590,3,SBD,Wraps,
Antal Ruff,M,MT3,18,94.2,100,200,210,-220,,210,127.5,135,142.5,,142.5,180,190,200,,200,552.5,4,SBD,Wraps,
Tamás Deáki,M,MT3,19,102.1,110,-225,-235,-235,,-225,-130,,,,,,,,,,,DQ,SBD,Wraps,
Márkó Roland Van Baggem,M,MT2,17,105.7,110,175,195,205,,205,125,135,-142.5,,135,225,242.5,-251,,242.5,582.5,1,SBD,Wraps,
Gergő Hoffmann,M,MT3,19,117.2,125,-220,-220,220,,220,145,160,-165,,160,260,-280,-280,,260,640,1,SBD,Wraps,
Levente Bárdossy Zsombor,M,MT3,19,133.1,140,230,240,-252.5,,240,160,170,-180,,170,260,270,280,,280,690,1,SBD,Wraps,
Máté Kiss,M,MJ,21,64.8,67.5,190,200,-205,,200,95,105,-107.5,,105,200,210,-225,,210,515,1,SBD,Wraps,
Dániel Várady,M,MJ,23,65.8,67.5,-100,100,-110,,100,80,92.5,100,,100,110,125,145,,145,345,2,SBD,Wraps,
Gábor Bezzeg,M,MJ,23,73.1,75,-200,-200,-200,,,,,,,,-250,,,,,,DQ,SBD,Wraps,
Bence Bíró,M,MJ,23,74,75,-170,-170,-170,,,,,,,,180,-195,-195,,180,,DQ,SBD,Wraps,
Tamás Harcz,M,MJ,20,71.5,75,180,200,210,212.5,210,-100,110,-115,,110,180,205,-215,,205,525,1,SBD,Wraps,
Máté Miklós Sajtos,M,MJ,22,73,75,150,165,-180,,165,100,105,110,,110,200,210,222.5,,222.5,497.5,2,SBD,Wraps,
Dominik Sallai,M,MJ,20,72.2,75,180,192.5,-200,,192.5,95,-100,-100,,95,187.5,200,-212.5,,200,487.5,3,SBD,Wraps,
Sándor Bruck,M,MJ,21,70.2,75,60,-80,-90,,60,60,70,-85,,70,160,180,-185,,180,310,4,SBD,Wraps,
Szabolcs Csányi,M,MJ,23,80.6,82.5,230,-237.5,240,,240,130,-140,142.5,,142.5,250,-260,-260,,250,632.5,1,SBD,Wraps,
Marcell Galambos,M,MJ,20,81,82.5,160,170,175,,175,105,110,-117.5,,110,175,-190,200,,200,485,2,SBD,Wraps,
Vince Veres,M,MJ,22,81.8,82.5,135,145,152.5,,152.5,85,92.5,-97.5,,92.5,135,150,165,,165,410,3,SBD,Wraps,
Dániel Oláh,M,MJ,22,89.1,90,-190,-190,-190,,,-135,,,,,-200,,,,,,DQ,SBD,Wraps,
Richárd Szilveszter Széll,M,MJ,22,88.9,90,-180,-180,-180,,,,,,,,200,220,-232.5,,220,,DQ,SBD,Wraps,
Kornél Mengyi,M,MJ,23,88.9,90,270,-285,-290,,270,155,170,-180,,170,250,265,-275,,265,705,1,SBD,Wraps,
Péter Soós,M,MJ,23,84.5,90,-210,-210,210,,210,120,125,-130,,125,190,-200,,,190,525,2,SBD,Wraps,
Ferenc Hevesi,M,MJ,20,97.1,100,230,240,250,,250,155,-160,-160,,155,270,285,-290,,285,690,1,SBD,Wraps,
Krisztián Cseszkó,M,MJ,21,99.2,100,200,210,-220,,210,135,140,145,,145,260,275,-280,,275,630,2,SBD,Wraps,
Martin Péter,M,MJ,21,97.1,100,190,-200,-200,,190,130,137.5,142.5,,142.5,225,240,-245,,240,572.5,3,SBD,Wraps,
Tibor Dávid Fülpesi,M,MJ,23,124.8,125,250,265,280,,280,200,-205,-205,,200,280,-300,-300,,280,760,1,SBD,Wraps,
Bence Palancsa,M,MJ,23,113.3,125,-222.5,-222.5,222.5,,222.5,120,130,-140,,130,240,-260,260,,260,612.5,2,SBD,Wraps,
Viktor Nagy,M,MO,25,52.2,56,90,100,115,,115,70,-80,-80,,70,140,160,-180,,160,345,1,SBD,Wraps,
Máté Kiss,M,MO,21,64.8,67.5,190,200,-205,,200,95,105,-107.5,,105,200,210,-225,,210,515,1,SBD,Wraps,
Gergely Kuti,M,MO,27,74.3,75,200,212.5,220,-225,220,105,115,122.5,,122.5,180,190,200,,200,542.5,1,SBD,Wraps,
Péter Pál Miklai,M,MO,24,67.7,75,-130,140,-150,,140,80,85,-90,,85,170,180,190,,190,415,2,SBD,Wraps,
Szabolcs Kassa,M,MO,35,75.9,82.5,-200,,,,,,,,,,,,,,,,DQ,SBD,Wraps,
Martin Marinkovich,M,MO,28,80.5,82.5,220,235,242.5,,242.5,160,170,175,,175,230,245,-255,,245,662.5,1,SBD,Wraps,
Szabolcs Csányi,M,MO,23,80.6,82.5,230,-237.5,240,,240,130,-140,142.5,,142.5,250,-260,-260,,250,632.5,2,SBD,Wraps,
Zoltán Vódli,M,MO,25,80.4,82.5,200,-220,240,,240,-135,-145,155,,155,200,230,-240,,230,625,3,SBD,Wraps,
Máté Zelena,M,MO,27,80.8,82.5,190,192.5,215,,215,135,-145,145,,145,235,250,-260,,250,610,4,SBD,Wraps,
Renátó Tóth,M,MO,26,76.2,82.5,-180,-180,180,,180,120,122.5,-130,,122.5,230,250,-255,,250,552.5,5,SBD,Wraps,
Csaba Bajczer,M,MO,19,87.3,90,240,250,-255,,250,150,155,157.5,,157.5,300,305,310,,310,717.5,1,SBD,Wraps,
Kornél Mengyi,M,MO,23,88.9,90,270,-285,-290,,270,155,170,-180,,170,250,265,-275,,265,705,2,SBD,Wraps,
Dávid Csontos,M,MO,30,86.8,90,217.5,230,235,,235,147.5,155,160,,160,235,245,250,,250,645,3,SBD,Wraps,
Róbert Tumpek,M,MO,27,97.2,100,300,320,,,320,160,-180,-180,,160,-315,,,,,,DQ,SBD,Wraps,
Attila Stir,M,MO,33,98.7,100,300,-315,315,,315,185,190,-195,,190,-290,-290,-290,,,,DQ,SBD,Wraps,
Dávid Zsarnai Lajos,M,MO,32,98.6,100,180,200,220,,220,125,135,145,,145,200,215,225,,225,590,1,SBD,Wraps,
Norbert Németh,M,MO,24,91.1,100,180,200,-210,,200,125,135,-140,,135,200,-215,215,,215,550,2,SBD,Wraps,
Gergő Rapos,M,MO,25,106.6,110,310,322.5,327.5,,327.5,185,190,192.5,,192.5,260,272.5,280,,280,800,1,SBD,Wraps,
András Szilágyi,M,MO,27,108.4,110,260,280,-290,,280,195,-205,-205,,195,285,300,-315,,300,775,2,SBD,Wraps,
Ádám Adorján,M,MO,25,109.7,110,260,-285,285,,285,145,155,-162.5,,155,285,300,-312.5,,300,740,3,SBD,Wraps,
Bence Zsolnai,M,MO,28,105.9,110,255,-270,270,,270,-150,150,-160,,150,280,300,-310,,300,720,4,SBD,Wraps,
Gábor Kocsis,M,MO,28,107.7,110,245,-255,255,,255,165,170,175,,175,235,242.5,250,,250,680,5,SBD,Wraps,
Márk Kiss,M,MO,21,106.1,110,215,227.5,240,,240,135,140,145,,145,255,265,270,,270,655,6,SBD,Wraps,
Ferenc Márkus,M,MO,26,107.3,110,260,-275,-275,,260,155,-160,160,,160,230,-240,,,230,650,7,SBD,Wraps,
Ádám Bence Lőrincz,M,MO,33,100.7,110,180,-190,-190,,180,115,125,-135,,125,180,190,200,,200,505,8,SBD,Wraps,
Attila Bakos,M,MO,28,114.7,125,-270,-270,-270,,,,,,,,-270,,,,,,DQ,SBD,Wraps,
Árpád Tóth,M,MO,34,115.1,125,-250,-250,-250,,,,,,,,-265,265,-270,,265,,DQ,SBD,Wraps,
Zoltán Borbíró,M,MO,25,120,125,285,-292.5,-292.5,,285,190,195,-200,,195,320,330,340,,340,820,1,SBD,Wraps,
Attila Zoltán Bús,M,MO,35,113.7,125,-250,-250,250,,250,120,130,137.5,,137.5,265,-282.5,282.5,,282.5,670,2,SBD,Wraps,
Pál Gubicza,M,MO,39,116.7,125,190,200,210,,210,160,170,172.5,,172.5,260,270,-280,,270,652.5,3,SBD,Wraps,
Koppány Mészáros-Vásárhelyi,M,MO,30,117.8,125,180,190,-205,,190,120,-125,-125,,120,200,215,-232.5,,215,525,4,SBD,Wraps,
Tamás Szijártó,M,MO,34,133.8,140,-305,305,330,,330,217.5,227.5,232.5,,232.5,300,-317.5,-317.5,,300,862.5,1,SBD,Wraps,
Tamás Kurcz,M,MO,31,125.3,140,245,255,-265,,255,175,185,-192.5,,185,280,-290,-290,,280,720,2,SBD,Wraps,
Péter Kiss,M,MO,30,138.2,140,230,240,250,,250,150,160,165,,165,240,250,-260,,250,665,3,SBD,Wraps,
Gergely Pál,M,MM1,43,59.2,60,140,-142.5,-150,,140,100,110,112.5,,112.5,150,160,176,,176,428.5,1,SBD,Wraps,
Krisztián Lábas,M,MM1,41,64.6,67.5,100,110,120,,120,90,100,110,,110,120,140,160,,160,390,1,SBD,Wraps,
Attila Veinémer,M,MM1,47,73.1,75,-150,-155,155,,155,100,110,115,,115,150,170,180,,180,450,1,SBD,Wraps,
Ferenc Hábetler,M,MM1,47,72.5,75,-165,165,180,,180,80,85,-90,,85,-160,-160,160,,160,425,2,SBD,Wraps,
Nándor Bíró,M,MM1,46,88,90,-140,140,150,,150,100,105,110,,110,165,170,180,,180,440,1,SBD,Wraps,
Antal Tábor,M,MM1,41,99.3,100,250,265,-270,,265,160,170,175,,175,220,230,245,,245,685,1,SBD,Wraps,
Róbert János Máté,M,MM1,43,97.5,100,220,-240,245,,245,150,160,-165,,160,250,267.5,272.5,,272.5,677.5,2,SBD,Wraps,
Zoltán Karsai,M,MM1,46,97.1,100,230,,,,230,170,180,185,,185,230,,,,230,645,3,SBD,Wraps,
Gábor Tamás Bárdossy,M,MM1,43,118.3,125,-220,-220,-220,,,,,,,,-230,,,,,,DQ,SBD,Wraps,
Zsolt Antal,M,MM1,45,111.9,125,265,-280,-280,,265,175,185,192.5,,192.5,275,285,295,,295,752.5,1,SBD,Wraps,
István Bognár,M,MM1,48,115.8,125,-250,250,-265,,250,140,150,,,150,240,250,260,,260,660,1,SBD,Wraps,
Tamás Szabó,M,MM1,49,127.9,140,-210,210,230,-247.5,230,170,180,-190,,180,-220,-240,240,260,240,650,1,SBD,Wraps,
Attila Csaba Kis,M,MM1,41,159,140+,100,140,-170,,140,60,,,,60,100,,,,100,300,1,SBD,Wraps,
István Gyuricska Jr,M,MM2,53,81.8,82.5,175,-195,195,,195,155,-170,-170,,155,170,185,195,,195,545,1,SBD,Wraps,
István Landesz,M,MM2,53,86.1,90,205,-220,-220,,205,125,130,135,,135,205,215,-225,,215,555,1,SBD,Wraps,
Béla Serfőző,M,MM2,56,97.6,100,-200,-200,200,,200,130,,,,130,200,220,238,,238,568,1,SBD,Wraps,
Gábor Csonka,M,MM2,52,105,110,-230,230,240,,240,-145,150,-157.5,,150,220,230,237.5,,237.5,627.5,1,SBD,Wraps,
Zsolt Kovács,M,MM2,57,122.8,125,-120,-120,-120,,,100,120,125,,125,200,220,230,,230,,DQ,SBD,Wraps,
István Debus,M,MM2,53,128.9,140,170,185,200,,200,140,150,160,,160,170,200,-250,,200,560,1,SBD,Wraps,
László Kurucz,M,MM3,67,63.1,67.5,-80,85,90,,90,80,90,95,,95,-105,115,120,,120,305,1,SBD,Wraps,
István Verebi,M,MM3,69,74.1,75,110,120,130,,130,95,100,102.5,,102.5,120,130,142.5,,142.5,375,1,SBD,Wraps,
Miklós Péter Kardos,M,MM3,69,79.7,82.5,-100,100,110,,110,70,75,-80,,75,125,135,140,,140,325,1,SBD,Wraps,
Anikó Bogdán,F,FT2,16,54.8,56,,,,,,25,30,-32.5,,30,,,,,,30,1,B,Raw,
Szandra Zachariás,F,FT2,16,57,60,,,,,,40,50,52.5,,52.5,,,,,,52.5,1,B,Raw,
Tímea Erzsébet Nagy,F,FT3,19,58.8,60,,,,,,40,45,50,,50,,,,,,50,2,B,Raw,
Odett Bernadett Becz,F,FT2,17,64.7,67.5,,,,,,80,85,90,92.5,90,,,,,,90,1,B,Raw,
Dominika Kulcsár,F,FT2,17,63.3,67.5,,,,,,50,55,-60,,55,,,,,,55,2,B,Raw,
Barbara Belme,F,FT1,15,83.2,90,,,,,,52.5,-57.5,-57.5,,52.5,,,,,,52.5,1,B,Raw,
Szilvia Bartha,F,FJ,21,53.3,56,,,,,,60,67.5,72.5,,72.5,,,,,,72.5,1,B,Raw,
Beatrix Bíró,F,FJ,23,64.3,67.5,,,,,,97.5,102.5,105,,105,,,,,,105,1,B,Raw,
Krisztina Réka Farkas,F,FJ,21,65.4,67.5,,,,,,80,85,90,,90,,,,,,90,2,B,Raw,
Hajnalka Kovács,F,FJ,20,65.7,67.5,,,,,,67.5,72.5,-75,,72.5,,,,,,72.5,3,B,Raw,
Éva Stefanidesz,F,FO,44,51.3,52,,,,,,55,57.5,-60,,57.5,,,,,,57.5,1,B,Raw,
Aida Biró,F,FO,32,55.8,56,,,,,,70,75,-80,,75,,,,,,75,1,B,Raw,
Klaudia Csatlós,F,FO,30,59.5,60,,,,,,70,77.5,-82.5,,77.5,,,,,,77.5,1,B,Raw,
Anita Dénes-Nagy,F,FO,46,56.9,60,,,,,,65,72.5,-80,,72.5,,,,,,72.5,2,B,Raw,
Ilona Egri,F,FO,47,56.5,60,,,,,,-60,60,-62.5,,60,,,,,,60,3,B,Raw,
Gyöngyi Herczeg,F,FO,27,67,67.5,,,,,,80,85,90,,90,,,,,,90,1,B,Raw,
Mónika Bazsó,F,FO,46,73.8,75,,,,,,102.5,-110,115,,115,,,,,,115,1,B,Raw,
Márta Matuska,F,FO,30,74.9,75,,,,,,-90,90,95,,95,,,,,,95,2,B,Raw,
Edit Borka,F,FO,40,72,75,,,,,,65,70,75,,75,,,,,,75,3,B,Raw,
Mariann Tóth,F,FO,41,97.9,90+,,,,,,70,72.5,75,,75,,,,,,75,1,B,Raw,
Éva Stefanidesz,F,FM1,44,51.3,52,,,,,,55,57.5,-60,,57.5,,,,,,57.5,1,B,Raw,
Dóra Schopf,F,FM1,46,53.3,56,,,,,,-65,-65,,,,,,,,,,DQ,B,Raw,
Anita Dénes-Nagy,F,FM1,46,56.9,60,,,,,,65,72.5,-80,,72.5,,,,,,72.5,1,B,Raw,
Ilona Egri,F,FM1,47,56.5,60,,,,,,-60,60,-62.5,,60,,,,,,60,2,B,Raw,
Zsuzsanna Haklik,F,FM1,44,58.5,60,,,,,,35,40,-42.5,,40,,,,,,40,3,B,Raw,
Beáta Kárpáti,F,FM1,47,65.8,67.5,,,,,,65,70,72.5,,72.5,,,,,,72.5,1,B,Raw,
Ruba Mónika Hollóné,F,FM1,43,66.6,67.5,,,,,,65,-67.5,67.5,,67.5,,,,,,67.5,2,B,Raw,
Zsuzsanna Czigony,F,FM1,42,62.8,67.5,,,,,,57.5,-62.5,-65,,57.5,,,,,,57.5,3,B,Raw,
Rita Nagy,F,FM1,46,73.4,75,,,,,,115,122.5,128,131,128,,,,,,128,1,B,Raw,
Mónika Bazsó,F,FM1,46,73.8,75,,,,,,102.5,-110,115,,115,,,,,,115,2,B,Raw,
Nelli Eszenyi,F,FM1,41,71.9,75,,,,,,65,72.5,75,,75,,,,,,75,3,B,Raw,
Edit Borka,F,FM1,40,72,75,,,,,,65,70,-75,,70,,,,,,70,4,B,Raw,
Anita Olláriné Móczár,F,FM1,40,73.7,75,,,,,,62.5,70,75,,75,,,,,,75,5,B,Raw,
Beáta Szalay,F,FM1,40,71.4,75,,,,,,55,60,65,,65,,,,,,65,6,B,Raw,
Andrea Györki,F,FM1,44,76.8,82.5,,,,,,42.5,50,-55,,50,,,,,,50,1,B,Raw,
Evelin Eisensehr,F,FM1,46,83.3,90,,,,,,115,-119,-119,,115,,,,,,115,1,B,Raw,
Anna Szlávik,F,FM1,47,85.5,90,,,,,,-75,-82.5,82.5,,82.5,,,,,,82.5,2,B,Raw,
Ilona Simon,F,FM1,41,82.7,90,,,,,,55,-57.5,57.5,,57.5,,,,,,57.5,3,B,Raw,
Mariann Tóth,F,FM1,41,97.9,90+,,,,,,70,72.5,75,,75,,,,,,75,1,B,Raw,
Zita Evellei,F,FM2,50,77.4,82.5,,,,,,52.5,57.5,-60,,57.5,,,,,,57.5,1,B,Raw,
Zoltán Bodnár,M,MT1,15,59.2,60,,,,,,40,50,60,-70,60,,,,,,60,1,B,Raw,
Tamás Benedek Lóczi,M,MT3,19,73.7,75,,,,,,95,102.5,-107.5,,102.5,,,,,,102.5,1,B,Raw,
István Nagy,M,MT3,18,69.2,75,,,,,,80,90,-100,,90,,,,,,90,2,B,Raw,
Sándor Almási,M,MT3,19,75.9,82.5,,,,,,125,-130,130,,130,,,,,,130,1,B,Raw,
Patrik Király,M,MT3,18,86.5,90,,,,,,120,125,-130,,125,,,,,,125,1,B,Raw,
Ferenc Márk Mata,M,MT3,19,95.9,100,,,,,,160,-170,170,,170,,,,,,170,1,B,Raw,
Gábor Hovanecz,M,MT2,17,93.5,100,,,,,,110,-117.5,120,,120,,,,,,120,2,B,Raw,
Krisztián Dér,M,MT3,18,122.7,125,,,,,,140,147.5,152.5,,152.5,,,,,,152.5,1,B,Raw,
Péter Orbán Dezső,M,MJ,23,55.4,56,,,,,,100,-102.5,102.5,-105,102.5,,,,,,102.5,1,B,Raw,
Dániel Balogh,M,MJ,22,65.8,67.5,,,,,,120,-130,130,,130,,,,,,130,1,B,Raw,
Tamás Bajor,M,MJ,23,62.9,67.5,,,,,,97.5,-102.5,102.5,,102.5,,,,,,102.5,2,B,Raw,
Benjámin Laki,M,MJ,23,73,75,,,,,,-137.5,-137.5,-137.5,,,,,,,,,DQ,B,Raw,
Bálint Száraz,M,MJ,21,74,75,,,,,,132.5,142.5,150,,150,,,,,,150,1,B,Raw,
Nándor Kozák,M,MJ,21,70.3,75,,,,,,110,120,-130,,120,,,,,,120,2,B,Raw,
Norbert Ihász,M,MJ,21,80.6,82.5,,,,,,-135,135,-140,,135,,,,,,135,1,B,Raw,
Bence Petróczki,M,MJ,20,88.9,90,,,,,,130,140,-150,,140,,,,,,140,1,B,Raw,
Valentin Veres,M,MJ,21,96.8,100,,,,,,160,-170,-170,,160,,,,,,160,1,B,Raw,
Tamás Holló,M,MJ,20,105.1,110,,,,,,152.5,157.5,160,,160,,,,,,160,1,B,Raw,
Viktor Nagy,M,MJ,23,104.9,110,,,,,,145,155,157.5,,157.5,,,,,,157.5,2,B,Raw,
Marcell Tóth,M,MJ,20,108,110,,,,,,130,140,-145,,140,,,,,,140,3,B,Raw,
Mihály Horváth,M,MJ,21,115.3,125,,,,,,170,190,197.5,,197.5,,,,,,197.5,1,B,Raw,
Zsolt Ákos Kovács,M,MJ,22,115.7,125,,,,,,180,190,192.5,,192.5,,,,,,192.5,2,B,Raw,
Patrik József Fekete,M,MJ,23,156.7,140+,,,,,,160,170,-180,,170,,,,,,170,1,B,Raw,
Ferenc Friedl,M,MO,25,65.9,67.5,,,,,,-75,-85,-95,,,,,,,,,DQ,B,Raw,
Róbert Nyíregyházi,M,MO,27,64.9,67.5,,,,,,130,137.5,-142.5,,137.5,,,,,,137.5,1,B,Raw,
Dániel Rekecki,M,MO,26,61.8,67.5,,,,,,120,-130,-130,,120,,,,,,120,2,B,Raw,
Tamás Karádi,M,MO,27,61.5,67.5,,,,,,-70,-75,77.5,,77.5,,,,,,77.5,3,B,Raw,
Bence Attila Sinka,M,MO,24,74.5,75,,,,,,162.5,-172.5,-172.5,,162.5,,,,,,162.5,1,B,Raw,
László Ferenc Horváth,M,MO,28,73.1,75,,,,,,100,-125,-125,,100,,,,,,100,2,B,Raw,
Dávid Kis,M,MO,27,80,82.5,,,,,,140,145,150,,150,,,,,,150,1,B,Raw,
Márió Kozák,M,MO,28,75.6,82.5,,,,,,135,140,145,,145,,,,,,145,2,B,Raw,
Benjámín Móricz,M,MO,25,88.5,90,,,,,,200,205,-210,,205,,,,,,205,1,B,Raw,
János Örsi,M,MO,42,90,90,,,,,,205,-210,-210,,205,,,,,,205,2,B,Raw,
István Mester,M,MO,28,89.4,90,,,,,,190,-197.5,-197.5,,190,,,,,,190,3,B,Raw,
Balázs Hadházi,M,MO,30,90,90,,,,,,150,160,-175,,160,,,,,,160,4,B,Raw,
Gábor Molnár,M,MO,27,85.1,90,,,,,,140,155,-172.5,,155,,,,,,155,5,B,Raw,
Dániel Selymes,M,MO,29,98,100,,,,,,200,-207.5,-207.5,,200,,,,,,200,1,B,Raw,
Károly József Szuder,M,MO,33,100,100,,,,,,185,190,,,190,,,,,,190,2,B,Raw,
Gergely Pál Lovas,M,MO,35,92.7,100,,,,,,170,180,-182.5,,180,,,,,,180,3,B,Raw,
Viktor István Mosonyi,M,MO,30,95.3,100,,,,,,165,175,-182.5,,175,,,,,,175,4,B,Raw,
Gábor Kecső,M,MO,24,98.9,100,,,,,,165,175,-180,,175,,,,,,175,5,B,Raw,
Richárd Németh,M,MO,26,97.7,100,,,,,,100,,,,100,,,,,,100,6,B,Raw,
Norbert Szabó,M,MO,27,101.2,110,,,,,,190,197.5,205,,205,,,,,,205,1,B,Raw,
Attila Mészáros,M,MO,32,102.4,110,,,,,,165,172.5,177.5,,177.5,,,,,,177.5,2,B,Raw,
György Bajzák,M,MO,37,101.1,110,,,,,,165,170,172.5,,172.5,,,,,,172.5,3,B,Raw,
László Kovács,M,MO,25,120.7,125,,,,,,220,235,242.5,,242.5,,,,,,242.5,1,B,Raw,
Dénes Kovács,M,MO,29,122.2,125,,,,,,215,225,237.5,,237.5,,,,,,237.5,2,B,Raw,
László Orosz,M,MO,31,119.6,125,,,,,,220,-227.5,,,220,,,,,,220,3,B,Raw,
János Krisztián Vismeg,M,MO,26,119.6,125,,,,,,200,210,-222.5,,210,,,,,,210,4,B,Raw,
Dániel Hegedüs,M,MO,28,113.6,125,,,,,,-195,195,-205,,195,,,,,,195,5,B,Raw,
Tamás Szokodi,M,MO,28,115.5,125,,,,,,-190,190,-205,,190,,,,,,190,6,B,Raw,
Zoltán Nagy Bence,M,MO,35,117.7,125,,,,,,170,180,185,,185,,,,,,185,7,B,Raw,
Zsolt Horváth,M,MO,26,131.8,140,,,,,,195,202.5,205,,205,,,,,,205,1,B,Raw,
Anwar Moha,M,MO,40,125.2,140,,,,,,140,150,160,,160,,,,,,160,2,B,Raw,
Zsolt Tóth,M,MO,50,147.9,140+,,,,,,190,202.5,212.5,-220.5,212.5,,,,,,212.5,1,B,Raw,
Zoltán József Holczmann,M,MO,49,141.1,140+,,,,,,170,180,-187.5,,180,,,,,,180,2,B,Raw,
István Répás,M,MM1,43,66.1,67.5,,,,,,135,142.5,-145,,142.5,,,,,,142.5,1,B,Raw,
Dávid István Dorogi,M,MM1,45,66,67.5,,,,,,135,140,-145,,140,,,,,,140,2,B,Raw,
Csaba Abuczki,M,MM1,45,66.6,67.5,,,,,,110,-115,115,,115,,,,,,115,3,B,Raw,
László Zsilik,M,MM1,44,74.1,75,,,,,,125,130,135,,135,,,,,,135,1,B,Raw,
Tamás Varga,M,MM1,42,73.2,75,,,,,,125,127.5,-130,,127.5,,,,,,127.5,2,B,Raw,
Zsolt Karlik,M,MM1,48,78.4,82.5,,,,,,-150,150,152.5,,152.5,,,,,,152.5,1,B,Raw,
Sándor Kozák,M,MM1,43,79.7,82.5,,,,,,-140,145,150,,150,,,,,,150,2,B,Raw,
Péter Kukla,M,MM1,47,80,82.5,,,,,,120,127.5,135,,135,,,,,,135,3,B,Raw,
Tamás Podmaniczki,M,MM1,41,81.7,82.5,,,,,,127.5,135,-140,,135,,,,,,135,4,B,Raw,
János Örsi,M,MM1,42,90,90,,,,,,205,-210,-210,,205,,,,,,205,1,B,Raw,
József Tóth,M,MM1,46,89.7,90,,,,,,170,180,182.5,,182.5,,,,,,182.5,2,B,Raw,
László Németh,M,MM1,40,89.6,90,,,,,,160,165,170,,170,,,,,,170,3,B,Raw,
Dezső Korom,M,MM1,49,84.7,90,,,,,,165,-175,-180,,165,,,,,,165,4,B,Raw,
Róbert Ferenc Bárány,M,MM1,42,87.5,90,,,,,,145,-160,160,,160,,,,,,160,5,B,Raw,
Balázs Schindler,M,MM1,43,97,100,,,,,,,,,,,,,,,,,DQ,B,Raw,
Zsolt Nagy,M,MM1,45,99.2,100,,,,,,175,182.5,-187.5,,182.5,,,,,,182.5,1,B,Raw,
Péter Belme,M,MM1,45,98.5,100,,,,,,175,-180,-182.5,,175,,,,,,175,2,B,Raw,
Sándor Bíró,M,MM1,48,98.7,100,,,,,,170,-177.5,-177.5,,170,,,,,,170,3,B,Raw,
György Berecz,M,MM1,44,93.5,100,,,,,,160,-170,,,160,,,,,,160,4,B,Raw,
István Szeifert,M,MM1,43,93.1,100,,,,,,150,-170,-182.5,,150,,,,,,150,5,B,Raw,
István Roszik,M,MM1,44,102.7,110,,,,,,-100,-100,-100,,,,,,,,,DQ,B,Raw,
Péter Ödön Takács,M,MM1,46,107.1,110,,,,,,190,200,210,,210,,,,,,210,1,B,Raw,
László Kulcsár,M,MM1,45,102.9,110,,,,,,180,190,195,,195,,,,,,195,2,B,Raw,
Lajos Filkor,M,MM1,49,108.6,110,,,,,,175,190,-195,,190,,,,,,190,3,B,Raw,
Csaba Eszes,M,MM1,47,102,110,,,,,,-150,150,160,,160,,,,,,160,4,B,Raw,
István Lugasi,M,MM1,47,103.3,110,,,,,,150,-155,-155,,150,,,,,,150,5,B,Raw,
Tamás Holló,M,MM1,46,107.6,110,,,,,,140,-145,-145,,140,,,,,,140,6,B,Raw,
Dénes Bodnár,M,MM1,46,107.5,110,,,,,,130,-140,,,130,,,,,,130,7,B,Raw,
András Sebők,M,MM1,43,120,125,,,,,,210,215,-225,,215,,,,,,215,1,B,Raw,
Richárd Nagy,M,MM1,46,115.3,125,,,,,,175,182.5,-190,,182.5,,,,,,182.5,2,B,Raw,
Imre Kozák,M,MM1,41,116,125,,,,,,170,180,-190,,180,,,,,,180,3,B,Raw,
Zsolt Oláh,M,MM1,48,117.5,125,,,,,,140,155,165,,165,,,,,,165,4,B,Raw,
Richárd Veres,M,MM1,41,116.7,125,,,,,,155,162.5,-167.5,,162.5,,,,,,162.5,5,B,Raw,
Krisztián Zombor,M,MM1,41,111.8,125,,,,,,150,155,-157.5,,155,,,,,,155,6,B,Raw,
Gábor Kozák,M,MM1,47,116.3,125,,,,,,120,130,-135,,130,,,,,,130,7,B,Raw,
Lajos Kovács,M,MM1,48,125.7,140,,,,,,-172.5,,,,,,,,,,,DQ,B,Raw,
Ferenc Som,M,MM1,45,125.4,140,,,,,,180,200,-215,,200,,,,,,200,1,B,Raw,
László Horváth,M,MM1,48,131.2,140,,,,,,180,190,-200,,190,,,,,,190,2,B,Raw,
Imre Sütő,M,MM1,43,130.7,140,,,,,,-110,110,125,,125,,,,,,125,3,B,Raw,
Barna Csőke,M,MM1,43,165.2,140+,,,,,,170,180,182.5,,182.5,,,,,,182.5,1,B,Raw,
Zoltán József Holczmann,M,MM1,49,141.1,140+,,,,,,170,180,-187.5,,180,,,,,,180,2,B,Raw,
László Rieger,M,MM2,51,74.8,75,,,,,,125,132.5,135,,135,,,,,,135,1,B,Raw,
Ernő Varga,M,MM2,55,69.8,75,,,,,,120,-132.5,132.5,,132.5,,,,,,132.5,2,B,Raw,
István Gyuricska Jr,M,MM2,53,82.5,82.5,,,,,,150,160,162.5,,162.5,,,,,,162.5,1,B,Raw,
Tibor Sipos,M,MM2,55,79.6,82.5,,,,,,120,-122.5,122.5,,122.5,,,,,,122.5,2,B,Raw,
István Bara,M,MM2,51,80.6,82.5,,,,,,115,-125,-125,,115,,,,,,115,3,B,Raw,
László Kupcsik,M,MM2,53,85.5,90,,,,,,175,185,192.5,,192.5,,,,,,192.5,1,B,Raw,
Tamás Brauner,M,MM2,59,88.2,90,,,,,,140,-150,150,,150,,,,,,150,2,B,Raw,
László Kiss,M,MM2,52,90,90,,,,,,130,-140,-142.5,,130,,,,,,130,3,B,Raw,
Ferenc Papp,M,MM2,56,86.4,90,,,,,,110,115,120,,120,,,,,,120,4,B,Raw,
János Gombos,M,MM2,52,98.7,100,,,,,,175,-180,-180,,175,,,,,,175,1,B,Raw,
Attila Heizer,M,MM2,54,98.4,100,,,,,,140,-150,150,,150,,,,,,150,2,B,Raw,
Balázs Dénes,M,MM2,52,95.8,100,,,,,,110,130,-140,,130,,,,,,130,3,B,Raw,
Sándor Szabó,M,MM2,56,109.8,110,,,,,,165,170,-180,,170,,,,,,170,1,B,Raw,
László Bugyi,M,MM2,56,104,110,,,,,,150,160,-165,,160,,,,,,160,2,B,Raw,
Imre Nagy,M,MM2,57,105.1,110,,,,,,125,135,-140,,135,,,,,,135,3,B,Raw,
Zsolt Piller,M,MM2,52,119.7,125,,,,,,170,180,190,,190,,,,,,190,1,B,Raw,
Béla Nagy,M,MM2,59,112.7,125,,,,,,145,150,152.5,,152.5,,,,,,152.5,2,B,Raw,
Csaba Molnár,M,MM2,56,135.7,140,,,,,,185,-192.5,192.5,,192.5,,,,,,192.5,1,B,Raw,
Gábor Minya,M,MM2,50,126,140,,,,,,165,180,-185,,180,,,,,,180,2,B,Raw,
Zsolt Tóth,M,MM2,50,147.9,140+,,,,,,190,202.5,212.5,-220.5,212.5,,,,,,212.5,1,B,Raw,
Sándor Kovács,M,MM2,51,144.2,140+,,,,,,110,115,-120,,115,,,,,,115,2,B,Raw,
László Kurucz,M,MM3,67,64.1,67.5,,,,,,85,87.5,90,,90,,,,,,90,1,B,Raw,
Gábor Goda,M,MM3,65,73.6,75,,,,,,120,125,-127.5,,125,,,,,,125,1,B,Raw,
Tibor Palásti,M,MM3,62,71.8,75,,,,,,90,95,,,95,,,,,,95,2,B,Raw,
Zoltán Boda,M,MM3,61,78.9,82.5,,,,,,95,102.5,107.5,,107.5,,,,,,107.5,1,B,Raw,
Gábor Zsolt Teleki,M,MM3,67,80.5,82.5,,,,,,80,90,97.5,,97.5,,,,,,97.5,2,B,Raw,
Gyula Leyer,M,MM3,60,81,82.5,,,,,,50,-95,,,50,,,,,,50,3,B,Raw,
László Kozma,M,MM3,63,88.5,90,,,,,,122.5,127.5,130,,130,,,,,,130,1,B,Raw,
Sándor Busák,M,MM3,68,88,90,,,,,,110,115,-120,,115,,,,,,115,2,B,Raw,
József Sztanke,M,MM3,66,92,100,,,,,,150,-161,-161,,150,,,,,,150,1,B,Raw,
Tibor Horváth,M,MM3,64,107.3,110,,,,,,100,105,107.5,,107.5,,,,,,107.5,1,B,Raw,
Gábor István Szőke,M,MM3,64,110.9,125,,,,,,-140,-140,,,,,,,,,,DQ,B,Raw,
Zoltán Varjú,M,MM3,65,116.2,125,,,,,,140,-150,150,,150,,,,,,150,1,B,Raw,
Csaba Keszthelyi,M,MM5,86,74.4,75,,,,,,62.5,70,72.5,,72.5,,,,,,72.5,1,B,Raw,
László Jobbágy,M,MM4,73,80.1,82.5,,,,,,,,,,,,,,,,,DQ,B,Raw,
József Baranyai,M,MM5,80,80,82.5,,,,,,80,85,90,,90,,,,,,90,1,B,Raw,
József Élő Imre,M,MM4,77,85.6,90,,,,,,-100,100,-105,,100,,,,,,100,1,B,Raw,
László Kasza,M,MM4,79,88.9,90,,,,,,-100,100,-105,,100,,,,,,100,2,B,Raw,
György Kerékgyártó,M,MM4,70,93.7,100,,,,,,135,-140,140,-143,140,,,,,,140,1,B,Raw,
Dorina Montvai,F,FT1,15,50.8,52,,,,,,,,,,,60,70,-75,77.5,70,70,1,D,Raw,
Barbara Bécsi,F,FT3,18,54.9,56,,,,,,,,,,,122.5,130,141,,141,141,1,D,Raw,
Klaudia Bodnár,F,FT2,16,54.3,56,,,,,,,,,,,55,60,65,70,65,65,2,D,Raw,
Odett Bernadett Becz,F,FT2,17,65.3,67.5,,,,,,,,,,,145,155,165,170,165,165,1,D,Raw,
Vivien Halász,F,FT3,18,64.9,67.5,,,,,,,,,,,95,100,105,,105,105,2,D,Raw,
Petra Szőcs,F,FT1,15,92.9,90+,,,,,,,,,,,120,125,130,,130,130,1,D,Raw,
Ingrid Martin,F,FJ,23,55.6,56,,,,,,,,,,,45,-50,,,45,45,1,D,Raw,
Fanni Rebeka Varga,F,FJ,23,66.2,67.5,,,,,,,,,,,155,-165,-165,,155,155,1,D,Raw,
Dorina Bordás,F,FJ,21,73.8,75,,,,,,,,,,,140,150,-160,,150,150,1,D,Raw,
Kinga Kecskeméti,F,FO,31,43,44,,,,,,,,,,,110,120,125,-130,125,125,1,D,Raw,
Ágnes Papp,F,FO,42,48.3,52,,,,,,,,,,,110,120,-122.5,,120,120,1,D,Raw,
Edit Kollár,F,FO,38,55,56,,,,,,,,,,,135,140,145,,145,145,1,D,Raw,
Cintia Csordás,F,FO,25,55.5,56,,,,,,,,,,,120,125,-130,,125,125,2,D,Raw,
Klaudia Csatlós,F,FO,30,58.3,60,,,,,,,,,,,152.5,162.5,-167.5,,162.5,162.5,1,D,Raw,
Bernadett Fekete,F,FO,26,66,67.5,,,,,,,,,,,145,152.5,165,,165,165,1,D,Raw,
Gyöngyi Herczeg,F,FO,27,66.9,67.5,,,,,,,,,,,150,157.5,165,,165,165,2,D,Raw,
Krisztina Majoros,F,FO,27,63.6,67.5,,,,,,,,,,,152.5,162.5,-170,,162.5,162.5,3,D,Raw,
Lilla Szalmási-Gáspár,F,FO,31,66.4,67.5,,,,,,,,,,,100,110,115,,115,115,4,D,Raw,
Rita Nagy,F,FO,45,71.2,75,,,,,,,,,,,150,165,175,,175,175,1,D,Raw,
Anikó Hajdú,F,FO,34,68,75,,,,,,,,,,,140,150,155,,155,155,2,D,Raw,
Zsófia Kiss,F,FO,27,71.3,75,,,,,,,,,,,80,-100,-100,,80,80,3,D,Raw,
Anita Melinda Danicser,F,FO,41,92.3,90+,,,,,,,,,,,150,160,168,-170,168,168,1,D,Raw,
Ágnes Papp,F,FM1,42,48.3,52,,,,,,,,,,,110,120,-122.5,,120,120,1,D,Raw,
Éva Kucsa,F,FM1,42,59.9,60,,,,,,,,,,,135,145,-150,,145,145,1,D,Raw,
Katalin Ferkel,F,FM1,49,56.8,60,,,,,,,,,,,100,110,120,,120,120,2,D,Raw,
Szabina Erdei,F,FM1,40,65,67.5,,,,,,,,,,,175,-177.5,-177.5,,175,175,1,D,Raw,
Ildikó Sztrunga,F,FM1,41,63.7,67.5,,,,,,,,,,,120,135,140,,140,140,2,D,Raw,
Rita Nagy,F,FM1,45,71.2,75,,,,,,,,,,,150,165,175,,175,175,1,D,Raw,
Móczár Anita Olláriné,F,FM1,40,73.7,75,,,,,,,,,,,115,125,135,,135,135,2,D,Raw,
Anita Melinda Danicser,F,FM1,41,92.3,90+,,,,,,,,,,,150,160,168,-170,168,168,1,D,Raw,
Mariann Tóth,F,FM1,41,97.3,90+,,,,,,,,,,,115,120,125,,125,125,2,D,Raw,
Zita Evelley,F,FM2,50,74,75,,,,,,,,,,,110,120,130,132.5,130,130,1,D,Raw,
Katalin Rohrmann,F,FM3,67,82.7,90,,,,,,,,,,,125,130,137.5,,137.5,137.5,1,D,Raw,
Kristóf Kovács,M,MT3,18,63.8,67.5,,,,,,,,,,,-140,155,,,155,155,1,D,Raw,
Márk Dániel Hammer,M,MT3,19,73.6,75,,,,,,,,,,,190,200,-205,,200,200,1,D,Raw,
Csaba Bajczer,M,MT3,19,87.3,90,,,,,,,,,,,300,305,310,,310,310,1,D,Raw,
Martin Gréczi,M,MT3,19,106.4,110,,,,,,,,,,,200,210,220,,220,220,1,D,Raw,
Máté Musatics,M,MT2,16,106.1,110,,,,,,,,,,,120,130,140,142.5,140,140,2,D,Raw,
Gergő Hoffmann,M,MT3,19,117.2,125,,,,,,,,,,,260,-280,-280,,260,260,1,D,Raw,
Máté Kiss,M,MJ,21,64.8,67.5,,,,,,,,,,,200,210,-225,,210,210,1,D,Raw,
Dániel Nagy,M,MJ,21,60.3,67.5,,,,,,,,,,,110,120,132.5,,132.5,132.5,2,D,Raw,
Gábor Bezzeg,M,MJ,23,73.1,75,,,,,,,,,,,,,,,,,DQ,D,Raw,
Máté Miklós Sajtos,M,MJ,22,73,75,,,,,,,,,,,200,210,222.5,,222.5,222.5,1,D,Raw,
Sándor Bruck,M,MJ,21,70.2,75,,,,,,,,,,,160,180,185,,185,185,2,D,Raw,
Bence Bíró,M,MJ,23,74,75,,,,,,,,,,,180,-195,-195,,180,180,3,D,Raw,
Kornél Fodor,M,MJ,21,88.2,90,,,,,,,,,,,220,-240,-245,,220,220,1,D,Raw,
Richárd Szilveszter Széll,M,MJ,22,88.9,90,,,,,,,,,,,200,220,-232.5,,220,220,2,D,Raw,
Zoltán Debreczeni,M,MJ,23,97.9,100,,,,,,,,,,,300,-315,-315,,300,300,1,D,Raw,
János Farkas,M,MJ,21,98.1,100,,,,,,,,,,,280,290,-300,,290,290,2,D,Raw,
Vilmos Csörgő,M,MJ,23,100.1,110,,,,,,,,,,,260,275,290,,290,290,1,D,Raw,
Márk Kiss,M,MJ,21,106.1,110,,,,,,,,,,,255,265,270,,270,270,2,D,Raw,
Máté Kiss,M,MO,21,64.8,67.5,,,,,,,,,,,200,210,-225,,210,210,1,D,Raw,
Dániel Rekecki,M,MO,26,62.3,67.5,,,,,,,,,,,-170,170,-180,,170,170,2,D,Raw,
Krisztián Kiss,M,MO,41,62.4,67.5,,,,,,,,,,,140,150,155,,155,155,3,D,Raw,
István Varga,M,MO,52,74.6,75,,,,,,,,,,,190,210,-215,,210,210,1,D,Raw,
Péter Pál Miklai,M,MO,24,67.7,75,,,,,,,,,,,170,180,190,,190,190,2,D,Raw,
Patrik Dusnoki,M,MO,24,74.4,75,,,,,,,,,,,180,190,-200,,190,190,3,D,Raw,
Szabolcs Kassa,M,MO,35,75.9,82.5,,,,,,,,,,,,,,,,,DQ,D,Raw,
Valter Balogh,M,MO,35,80.7,82.5,,,,,,,,,,,245,260,-265,,260,260,1,D,Raw,
Máté Zelena,M,MO,27,80.8,82.5,,,,,,,,,,,235,250,-260,,250,250,2,D,Raw,
Tamás Sipos,M,MO,34,78.9,82.5,,,,,,,,,,,210,230,-235,,230,230,3,D,Raw,
Norbert Gerhát,M,MO,29,81.2,82.5,,,,,,,,,,,215,-222.5,-222.5,,215,215,4,D,Raw,
Ferenc Hajó,M,MO,28,87.8,90,,,,,,,,,,,-220,-230,-235,,,,DQ,D,Raw,
Árpád Ignéczi,M,MO,25,88.9,90,,,,,,,,,,,310,330,342.5,,342.5,342.5,1,D,Raw,
Gergely Marton,M,MO,24,88.1,90,,,,,,,,,,,250,275,285,,285,285,2,D,Raw,
Zoltán Debreczeni,M,MO,23,97.9,100,,,,,,,,,,,300,-315,-315,,300,300,1,D,Raw,
László Jóljárt,M,MO,35,93.4,100,,,,,,,,,,,185,-192.5,-192.5,,185,185,2,D,Raw,
János Földi,M,MO,26,107.9,110,,,,,,,,,,,260,280,-290,,280,280,1,D,Raw,
István Szilárd Nyúzó,M,MO,24,109,110,,,,,,,,,,,220,230,245,,245,245,2,D,Raw,
Tamás Szűcs,M,MO,36,109.3,110,,,,,,,,,,,220,-230,-230,,220,220,3,D,Raw,
Ádám Bence Lőrincz,M,MO,33,100.7,110,,,,,,,,,,,180,190,200,,200,200,4,D,Raw,
Viktor Kiss,M,MO,26,121.6,125,,,,,,,,,,,250,270,285,,285,285,1,D,Raw,
Árpád Tóth,M,MO,34,115.1,125,,,,,,,,,,,-265,265,-270,,265,265,2,D,Raw,
Tibor Lázár,M,MO,31,134.9,140,,,,,,,,,,,280,300,-310,,300,300,1,D,Raw,
Tamás Kurcz,M,MO,31,125.3,140,,,,,,,,,,,280,-290,-290,,280,280,2,D,Raw,
Tamás Rózsa,M,MO,26,150.8,140+,,,,,,,,,,,270,302.5,310,,310,310,1,D,Raw,
Krisztián Kiss,M,MM1,41,62.4,67.5,,,,,,,,,,,140,150,155,,155,155,1,D,Raw,
Szilárd Bodó,M,MM1,40,69.6,75,,,,,,,,,,,200,215,230.5,,230.5,230.5,1,D,Raw,
Péter Csitkovics,M,MM1,41,70.4,75,,,,,,,,,,,160,170,175,,175,175,2,D,Raw,
Ferenc Hábetler,M,MM1,47,72.5,75,,,,,,,,,,,-160,-160,160,,160,160,3,D,Raw,
Barnabás Hegyi,M,MM1,40,82.6,90,,,,,,,,,,,-160,-160,-160,,,,DQ,D,Raw,
Roland Póta,M,MM1,42,89.9,90,,,,,,,,,,,255,-275,,,255,255,1,D,Raw,
Csaba Krisztin,M,MM1,47,89.1,90,,,,,,,,,,,180,-195,-195,,180,180,2,D,Raw,
Tamás Deli,M,MM1,43,99.2,100,,,,,,,,,,,280,290,300,-305.5,300,300,1,D,Raw,
András István Varga,M,MM1,46,98.3,100,,,,,,,,,,,260,271,-276,,271,271,2,D,Raw,
Tamás Sándor Margittai,M,MM1,43,98.1,100,,,,,,,,,,,200,250,-290,,250,250,3,D,Raw,
Lajos Bán,M,MM1,43,108.8,110,,,,,,,,,,,230,245,-250,,245,245,1,D,Raw,
Zsolt Antal,M,MM1,45,111.9,125,,,,,,,,,,,275,285,295,,295,295,1,D,Raw,
István Bognár,M,MM1,48,115.8,125,,,,,,,,,,,240,250,260,,260,260,2,D,Raw,
Tibor Karalyos,M,MM1,46,140,140,,,,,,,,,,,275,300,,,300,300,1,D,Raw,
László Vass,M,MM1,41,146.5,140+,,,,,,,,,,,200,230,-252.5,,230,230,1,D,Raw,
István Varga,M,MM2,52,74.6,75,,,,,,,,,,,190,210,-215,,210,210,1,D,Raw,
István Landesz,M,MM2,53,86.1,90,,,,,,,,,,,205,215,-225,,215,215,1,D,Raw,
Béla Serfőző,M,MM2,56,97.6,100,,,,,,,,,,,200,220,238,,238,238,1,D,Raw,
Gábor Csonka,M,MM2,52,105,110,,,,,,,,,,,220,230,237.5,,237.5,237.5,1,D,Raw,
Zsolt Kovács,M,MM2,57,122.8,125,,,,,,,,,,,200,220,230,,230,230,1,D,Raw,
József Csordás,M,MM2,52,117.9,125,,,,,,,,,,,150,165,180,,180,180,2,D,Raw,
Béla Szolnoki,M,MM2,51,126.2,140,,,,,,,,,,,310,325,-335,,325,325,1,D,Raw,
Ottó Antal,M,MM3,61,58.4,60,,,,,,,,,,,145,150,155,,155,155,1,D,Raw,
Ladislau Kiss,M,MM4,72,96.3,100,,,,,,,,,,,220,230,240,,240,240,1,D,Raw,
Klaudia Bodnár,F,FT2,16,54.3,56,30,37.5,40,-47.5,40,,,,,,,,,,,40,1,S,Wraps,
Dorina Bordás,F,FJ,21,73.8,75,120,130.5,135,,135,,,,,,,,,,,135,1,S,Wraps,
Krisztina Majoros,F,FO,27,63.6,67.5,152.5,162.5,170,-180.5,170,,,,,,,,,,,170,1,S,Wraps,
Zsófia Kiss,F,FO,27,71.3,75,-60,60,80,,80,,,,,,,,,,,80,1,S,Wraps,
Ágnes Papp,F,FM1,42,48.3,52,60,67.5,-72.5,,67.5,,,,,,,,,,,67.5,1,S,Wraps,
Éva Kucsa,F,FM1,42,59.9,60,125,130,-135,,130,,,,,,,,,,,130,1,S,Wraps,
Katalin Ferkel,F,FM1,49,56.8,60,90.5,-100,-110,-110,90.5,,,,,,,,,,,90.5,2,S,Wraps,
Móczár Anita Olláriné,F,FM1,40,73.7,75,-80,80,90,,90,,,,,,,,,,,90,1,S,Wraps,
Katalin Rohrmann,F,FM3,67,82.7,90,92.5,97.5,,,97.5,,,,,,,,,,,97.5,1,S,Wraps,
Kristóf Kovács,M,MT3,18,63.8,67.5,110,-120,120,,120,,,,,,,,,,,120,1,S,Wraps,
Dominik Csaba Filep,M,MT3,18,73.8,75,-180,-180,-180,,,,,,,,,,,,,,DQ,S,Wraps,
Tamás Benedek Lóczi,M,MT3,19,75.9,82.5,140,-150,-150,-150,140,,,,,,,,,,,140,1,S,Wraps,
Attila Horváth,M,MT2,16,109,110,190,210.5,217.5,222.5,217.5,,,,,,,,,,,217.5,1,S,Wraps,
Dávid Somogyi Levente,M,MT3,19,118.8,125,-230,-230,230,,230,,,,,,,,,,,230,1,S,Wraps,
Máté Kiss,M,MJ,21,64.8,67.5,190,200,-205,,200,,,,,,,,,,,200,1,S,Wraps,
Bence Bíró,M,MJ,23,74,75,-170,-170,-170,,,,,,,,,,,,,,DQ,S,Wraps,
Tamás Harcz,M,MJ,20,71.5,75,180,200,210,212.5,210,,,,,,,,,,,210,1,S,Wraps,
Sándor Bruck,M,MJ,21,70.2,75,60,-80,90,,90,,,,,,,,,,,90,2,S,Wraps,
Bence Palancsa,M,MJ,23,113.3,125,-222.5,-222.5,222.5,,222.5,,,,,,,,,,,222.5,1,S,Wraps,
Martin Marinkovich,M,MO,28,80.5,82.5,220,235,242.5,,242.5,,,,,,,,,,,242.5,1,S,Wraps,
Máté Zelena,M,MO,27,80.8,82.5,190,192.5,215,,215,,,,,,,,,,,215,2,S,Wraps,
Szabolcs Kassa,M,MO,35,75.9,82.5,-200,200,,,200,,,,,,,,,,,200,3,S,Wraps,
Árpád Ignéczi,M,MO,25,88.9,90,-270,270,280,,280,,,,,,,,,,,280,1,S,Wraps,
Zsolt Takó,M,MO,37,98.8,100,170,-180,180,,180,,,,,,,,,,,180,1,S,Wraps,
Dávid Imre Barabás,M,MO,32,97.8,100,-150,150,-205,,150,,,,,,,,,,,150,2,S,Wraps,
Gábor Kocsis,M,MO,28,107.7,110,245,-255,255,,255,,,,,,,,,,,255,1,S,Wraps,
Ádám Bence Lőrincz,M,MO,33,100.7,110,180,-190,-190,,180,,,,,,,,,,,180,2,S,Wraps,
Tamás Kurcz,M,MO,31,125.3,140,245,255,-265,,255,,,,,,,,,,,255,1,S,Wraps,
Ferenc Hábetler,M,MM1,47,72.5,75,-165,165,180,,180,,,,,,,,,,,180,1,S,Wraps,
Barnabás Hegyi,M,MM1,40,82.6,90,-125,-125,-125,,,,,,,,,,,,,,DQ,S,Wraps,
Csaba Krisztin,M,MM1,47,89.1,90,-150,-150,,,,,,,,,,,,,,,DQ,S,Wraps,
Tamás Brudnyák,M,MM1,45,97.3,100,200,215,-220,,215,,,,,,,,,,,215,1,S,Wraps,
István Bognár,M,MM1,48,115.8,125,-250,250,-265,,250,,,,,,,,,,,250,1,S,Wraps,
László Vass,M,MM1,41,146.5,140+,220,250,-270,,250,,,,,,,,,,,250,1,S,Wraps,
István Gyuricska Jr,M,MM2,53,81.8,82.5,175,-195,195,,195,,,,,,,,,,,195,1,S,Wraps,
Tibor Sipos,M,MM2,55,77.3,82.5,130,140,,,140,,,,,,,,,,,140,2,S,Wraps,
István Landesz,M,MM2,53,86.1,90,205,-220,-220,,205,,,,,,,,,,,205,1,S,Wraps,
Béla Serfőző,M,MM2,56,97.6,100,-200,-200,200,,200,,,,,,,,,,,200,1,S,Wraps,
Zsolt Kovács,M,MM2,57,122.8,125,-120,-120,-120,,,,,,,,,,,,,,DQ,S,Wraps,
Béla Szolnoki,M,MM2,51,126.2,140,-295,-307.5,,,,,,,,,,,,,,,DQ,S,Wraps,
