Division,WeightClassKg,Place,Name,Team,BodyweightKg,Best3SquatKg,Best3BenchKg,Best3DeadliftKg,TotalKg,Equipment,Event,Sex,BirthDate
Boys,51.71,1,Cade Borchert,Lockhart,51.71,90.72,49.9,104.33,244.94,Single-ply,SBD,M,
Boys,51.71,2,Anthony Gonzalez,Luling,49.62,79.38,47.63,111.13,238.14,Single-ply,SBD,M,
Boys,51.71,3,David Zamora,Luling,45,90.72,40.82,97.52,229.06,Single-ply,SBD,M,
Boys,55.79,1,Ethan Hernandez,Geronimo Navarro,55.79,124.74,79.38,129.27,333.39,Single-ply,SBD,M,
Boys,55.79,2,Gavin Gutierrez,Runge,54.98,115.67,65.77,138.35,319.78,Single-ply,SBD,M,
Boys,55.79,3,Tanner Tucker,Luling,55.43,97.52,63.5,136.08,297.1,Single-ply,SBD,M,
Boys,55.79,4,Joseph Capetillo,Lockhart,51.89,99.79,52.16,108.86,260.82,Single-ply,SBD,M,
Boys,55.79,5,Sean Mendez,Lockhart,53.16,92.99,56.7,111.13,260.82,Single-ply,SBD,M,
Boys,59.87,1,Leo Costilla,Seguin,59.06,149.69,88.45,174.63,412.77,Single-ply,SBD,M,
Boys,59.87,2,Joe Fraga,Runge,58.24,142.88,79.38,172.37,394.63,Single-ply,SBD,M,
Boys,59.87,3,Sebastian Rodriguez,Luling,55.97,99.79,61.23,127.01,288.03,Single-ply,SBD,M,
Boys,67.13,1,Gabe Driscoll,Del Valle,62.78,147.42,79.38,154.22,381.02,Single-ply,SBD,M,
Boys,67.13,2,Israel Hernandez,Seguin,67.13,142.88,83.91,147.42,374.21,Single-ply,SBD,M,
Boys,67.13,3,Trent Jones,Runge,65.14,129.27,83.91,142.88,356.07,Single-ply,SBD,M,
Boys,67.13,4,Canaan Casey,Seguin,61.33,113.4,70.31,131.54,315.25,Single-ply,SBD,M,
Boys,67.13,5,Zeke Martinez,Lockhart,62.6,111.13,63.5,120.2,294.84,Single-ply,SBD,M,
Boys,67.13,6,Daniel Gonzales #3,Del Valle,62.6,102.06,63.5,115.67,281.23,Single-ply,SBD,M,
Boys,67.13,DQ,Joseph Suarez,Lockhart,66.22,,,,,Single-ply,SBD,M,
Boys,74.84,1,Declan Trevethan,Buda Hays,73.39,204.12,104.33,208.65,517.1,Single-ply,SBD,M,
Boys,74.84,2,Joseph Duron,Lockhart,74.84,190.51,86.18,174.63,451.32,Single-ply,SBD,M,
Boys,74.84,3,Robert Branch,Lockhart,68.99,145.15,95.25,185.97,426.38,Single-ply,SBD,M,
Boys,74.84,4,Raul Villarreal,Buda Hays,72.48,151.95,106.59,158.76,417.3,Single-ply,SBD,M,
Boys,74.84,5,Ramiiro Torres,Runge,73.03,158.76,104.33,142.88,405.97,Single-ply,SBD,M,
Boys,74.84,6,Mathew Luna,Seguin,74.84,149.69,83.91,167.83,401.43,Single-ply,SBD,M,
Boys,74.84,7,Mason Ruhl,Seguin,74.3,145.15,90.72,158.76,394.63,Single-ply,SBD,M,
Boys,74.84,8,Jesael Batres,Lockhart,73.84,154.22,68.04,165.56,387.82,Single-ply,SBD,M,
Boys,74.84,9,Sean McKinney,Lockhart,71.21,147.42,77.11,147.42,371.95,Single-ply,SBD,M,
Boys,74.84,10,Ashton Anderson,Luling,73.12,122.47,79.38,142.88,344.73,Single-ply,SBD,M,
Boys,82.1,1,Ethan Thomas,Geronimo Navarro,82.1,195.04,149.69,195.04,539.77,Single-ply,SBD,M,
Boys,82.1,2,Tristan Breitenkamp,Geronimo Navarro,82.1,197.31,133.81,195.04,526.17,Single-ply,SBD,M,
Boys,82.1,3,Roberto Luna,Seguin,80.92,192.78,106.59,176.9,476.27,Single-ply,SBD,M,
Boys,82.1,4,Jaeden Wendel,Lockhart,77.29,163.29,90.72,170.1,424.11,Single-ply,SBD,M,
Boys,82.1,5,Vincent Siv,Del Valle,77.66,154.22,92.99,158.76,405.97,Single-ply,SBD,M,
Boys,82.1,6,Izacc Zamora,Geronimo Navarro,79.83,131.54,88.45,183.7,403.7,Single-ply,SBD,M,
Boys,82.1,7,Anthony Mendez,Del Valle,82.1,138.35,90.72,158.76,387.82,Single-ply,SBD,M,
Boys,82.1,8,Jordan Garcia #3,Lockhart,75.93,151.95,90.72,142.88,385.55,Single-ply,SBD,M,
Boys,82.1,9,Carlos Pena,Del Valle,80.56,136.08,97.52,149.69,383.29,Single-ply,SBD,M,
Boys,82.1,DQ,Cesar Hernandez,Lockhart,78.02,,,,,Single-ply,SBD,M,
Boys,89.81,1,Christopher Aguirre,Buda Hays,89.18,254.01,142.88,254.01,650.91,Single-ply,SBD,M,
Boys,89.81,2,Jason Iwabuchi,Buda Hays,84.46,204.12,129.27,215.46,548.85,Single-ply,SBD,M,
Boys,89.81,3,Brett Butler,Geronimo Navarro,89.81,183.7,142.88,190.51,517.1,Single-ply,SBD,M,
Boys,89.81,4,Daniel Mendoza,Runge,83.19,165.56,106.59,188.24,460.4,Single-ply,SBD,M,
Boys,89.81,5,Santiago Herrera,Seguin,85.82,165.56,104.33,190.51,460.4,Single-ply,SBD,M,
Boys,89.81,6,Javier Sifuentes,Lockhart,83.1,170.1,102.06,181.44,453.59,Single-ply,SBD,M,
Boys,89.81,7,Jason Harris,Del Valle,85.28,151.95,104.33,181.44,437.72,Single-ply,SBD,M,
Boys,89.81,8,Antonio Gomez,Luling,87.54,154.22,97.52,142.88,394.63,Single-ply,SBD,M,
Boys,89.81,9,Alan Ahoyt,Del Valle,85.55,131.54,108.86,147.42,387.82,Single-ply,SBD,M,
Boys,89.81,10,Joseph Laine,Buda Hays,87.72,142.88,83.91,145.15,371.95,Single-ply,SBD,M,
Boys,89.81,11,Thomas Garcia,Lockhart,87.82,124.74,83.91,149.69,358.34,Single-ply,SBD,M,
Boys,99.79,1,David Reyna,Geronimo Navarro,93.89,256.28,170.1,210.92,637.3,Single-ply,SBD,M,
Boys,99.79,2,Gabe Means,Geronimo Navarro,92.53,195.04,142.88,217.72,555.65,Single-ply,SBD,M,
Boys,99.79,3,Junior Rosas,Del Valle,94.71,147.42,99.79,151.95,399.16,Single-ply,SBD,M,
Boys,99.79,4,Diego Sosa,Lockhart,98.61,147.42,86.18,136.08,369.68,Single-ply,SBD,M,
Boys,99.79,5,Tanner Castillo,Lockhart,96.16,127.01,61.23,142.88,331.12,Single-ply,SBD,M,
Boys,99.79,6,Derik Rivas,Lockhart,92.8,124.74,65.77,129.27,319.78,Single-ply,SBD,M,
Boys,109.77,1,Cole Booker,Geronimo Navarro,102.51,229.06,138.35,231.33,598.74,Single-ply,SBD,M,
Boys,109.77,2,David Sillero,Lockhart,109.23,215.46,165.56,215.46,596.47,Single-ply,SBD,M,
Boys,109.77,3,Rafael Santamaria,Luling,105.32,176.9,104.33,167.83,449.06,Single-ply,SBD,M,
Boys,109.77,4,Austin Martinez,Del Valle,106.78,138.35,104.33,154.22,396.89,Single-ply,SBD,M,
Boys,109.77,5,Juan Garcia,Seguin,103.69,138.35,86.18,170.1,394.63,Single-ply,SBD,M,
Boys,109.77,6,Nathan Rodriguez,Buda Hays,101.15,129.27,83.91,161.03,374.21,Single-ply,SBD,M,
Boys,109.77,7,Josh Mireless,Lockhart,105.69,120.2,79.38,138.35,337.93,Single-ply,SBD,M,
Boys,124.74,1,Branden Knox,Seguin,111.13,206.38,115.67,213.19,535.24,Single-ply,SBD,M,
Boys,124.74,2,Alex Funnes,Geronimo Navarro,113.4,181.44,124.74,158.76,464.93,Single-ply,SBD,M,
Boys,124.74,3,Gunner Moryl,Seguin,115.03,136.08,102.06,145.15,383.29,Single-ply,SBD,M,
Boys,124.74,DQ,John Hernandez,Del Valle,112.04,183.7,104.33,,,Single-ply,SBD,M,
Boys,124.74,DQ,Jaeden Elizondo,Lockhart,122.38,183.7,,,,Single-ply,SBD,M,
Boys,124.74+,1,Sergio Hernandez,Geronimo Navarro,157.4,299.37,199.58,251.74,750.7,Single-ply,SBD,M,
Boys,124.74+,2,Isaiah Samaripa,Lockhart,170.73,303.91,163.29,247.21,714.41,Single-ply,SBD,M,
Boys,124.74+,3,Carter Holtkamp,Geronimo Navarro,137.44,272.16,170.1,226.8,669.05,Single-ply,SBD,M,
Boys,,NS,Ryan Wolfshohl,Seguin,,,,,,Single-ply,SBD,M,
Boys,,NS,Isaac Montoya,Luling,,,,,,Single-ply,SBD,M,
Boys,,NS,Ethan Robison,Buda Hays,,,,,,Single-ply,SBD,M,
Boys,,NS,Dylan Gattis,Del Valle,,,,,,Single-ply,SBD,M,
Boys,,NS,Euler de Leon,Geronimo Navarro,,,,,,Single-ply,SBD,M,
Boys,,NS,Sam Heidler,Buda Hays,,,,,,Single-ply,SBD,M,
Boys,,NS,Jake Lopez,Buda Hays,,,,,,Single-ply,SBD,M,
