Division,WeightClassKg,Place,Name,Team,BodyweightKg,Best3SquatKg,Best3BenchKg,Best3DeadliftKg,TotalKg,Equipment,Event,Sex,BirthDate
Boys,51.71,1,Tim Grindstaff,Collinsville,47.54,79.38,49.9,83.91,213.19,Single-ply,SBD,M,
Boys,51.71,2,Christian Rodriguez #2,Gainesville,47.17,56.7,34.02,79.38,170.1,Single-ply,SBD,M,
Boys,55.79,1,Ty Kirkbride,Denison,53.89,167.83,92.99,158.76,419.57,Single-ply,SBD,M,
Boys,55.79,2,Daniel Quevedo,Gainesville,55.7,156.49,83.91,129.27,369.68,Single-ply,SBD,M,
Boys,55.79,3,Andrew Angeles,Krum,55.7,97.52,74.84,142.88,315.25,Single-ply,SBD,M,
Boys,55.79,4,Gage Griegar,Collinsville,55.16,113.4,63.5,124.74,301.64,Single-ply,SBD,M,
Boys,55.79,5,Hank Hamilton,Callisburg,52.89,104.33,65.77,117.93,288.03,Single-ply,SBD,M,
Boys,55.79,6,Brodie Robinson,Krum,53.98,83.91,47.63,90.72,222.26,Single-ply,SBD,M,
Boys,59.87,1,Destin Warr,Callisburg,56.79,158.76,97.52,170.1,426.38,Single-ply,SBD,M,
Boys,59.87,2,Asher Contreras,Whitesboro,59.78,156.49,90.72,156.49,403.7,Single-ply,SBD,M,
Boys,59.87,3,Joseph Dornstadter,Denison,58.69,127.01,88.45,158.76,374.21,Single-ply,SBD,M,
Boys,59.87,4,Brayden Bahr,Sherman,57.88,65.77,36.29,77.11,179.17,Single-ply,SBD,M,
Boys,67.13,1,Ignacio Salas,Whitesboro,66.13,240.4,142.88,197.31,580.6,Single-ply,SBD,M,
Boys,67.13,2,Kyson Lusane,Denison,61.96,190.51,131.54,192.78,514.83,Single-ply,SBD,M,
Boys,67.13,3,Weston Hill,Sanger,61.6,204.12,113.4,190.51,508.02,Single-ply,SBD,M,
Boys,67.13,4,Jacob Smith,Whitesboro,65.86,188.24,113.4,195.04,496.68,Single-ply,SBD,M,
Boys,67.13,5,Alex LeBrada,Whitesboro,63.68,156.49,102.06,174.63,433.18,Single-ply,SBD,M,
Boys,67.13,6,Justin Horst,Sanger,66.68,158.76,74.84,172.37,405.97,Single-ply,SBD,M,
Boys,67.13,7,Suede Wanamaker,Callisburg,66.04,151.95,83.91,158.76,394.63,Single-ply,SBD,M,
Boys,67.13,8,Brody Hall,Whitesboro,64.05,142.88,95.25,142.88,381.02,Single-ply,SBD,M,
Boys,67.13,9,Chase Waller,Tioga,67.13,111.13,79.38,133.81,324.32,Single-ply,SBD,M,
Boys,67.13,10,James Thomas-Johnson,Sherman,63.68,111.13,70.31,124.74,306.17,Single-ply,SBD,M,
Boys,67.13,11,Jaze Drost,Sherman,63.14,102.06,65.77,124.74,292.57,Single-ply,SBD,M,
Boys,67.13,DQ,Gage Majesko,Krum,66.77,145.15,106.59,124.74,,Single-ply,SBD,M,
Boys,67.13,DQ,James Culp,Tioga,60.6,97.52,52.16,92.99,,Single-ply,SBD,M,
Boys,74.84,1,Clayton Moore,Callisburg,70.4,170.1,90.72,183.7,444.52,Single-ply,SBD,M,
Boys,74.84,2,Luke Miller,Krum,68.49,167.83,92.99,154.22,415.04,Single-ply,SBD,M,
Boys,74.84,3,Ethan Tutt,Sanger,71.21,156.49,97.52,161.03,415.04,Single-ply,SBD,M,
Boys,74.84,4,Brayden Crockett,Whitesboro,71.3,142.88,83.91,181.44,408.23,Single-ply,SBD,M,
Boys,74.84,5,Dakota Lashley,Sherman,74.66,147.42,88.45,158.76,394.63,Single-ply,SBD,M,
Boys,74.84,6,Gideon Grimsrud,Collinsville,71.67,133.81,97.52,138.35,369.68,Single-ply,SBD,M,
Boys,74.84,7,Cooper Evans,Tioga,72.3,147.42,79.38,136.08,362.87,Single-ply,SBD,M,
Boys,74.84,8,Justin Petty,Sadler S & S Consolidated,74.84,136.08,83.91,140.61,360.61,Single-ply,SBD,M,
Boys,74.84,9,Jordan McGriff,Sherman,71.21,115.67,68.04,158.76,342.46,Single-ply,SBD,M,
Boys,74.84,10,Cadence Shew,Tioga,69.58,117.93,72.57,122.47,312.98,Single-ply,SBD,M,
Boys,74.84,11,Richard Manuel,Gainesville,69.4,79.38,54.43,70.31,204.12,Single-ply,SBD,M,
Boys,74.84,DQ,Azik Willis,Collinsville,72.48,142.88,92.99,147.42,,Single-ply,SBD,M,
Boys,74.84,DQ,Kobey Wall,Krum,71.94,181.44,104.33,149.69,,Single-ply,SBD,M,
Boys,82.1,1,Aaron Shafer,Denison,81.01,215.46,124.74,204.12,544.31,Single-ply,SBD,M,
Boys,82.1,2,John Okerri,Sherman,77.84,183.7,115.67,195.04,494.42,Single-ply,SBD,M,
Boys,82.1,3,Zion Richardson,Sadler S & S Consolidated,79.2,195.04,108.86,174.63,478.54,Single-ply,SBD,M,
Boys,82.1,4,Braylon Purvey,Gainesville,79.38,188.24,92.99,183.7,464.93,Single-ply,SBD,M,
Boys,82.1,5,Chase Marcum,Denison,81.65,172.37,106.59,165.56,444.52,Single-ply,SBD,M,
Boys,82.1,6,Wiley Head,Callisburg,75.57,145.15,97.52,181.44,424.11,Single-ply,SBD,M,
Boys,82.1,7,Ricky Mejia,Sanger,78.11,167.83,88.45,163.29,419.57,Single-ply,SBD,M,
Boys,82.1,8,Vitto Minarelli,Sherman,80.01,149.69,74.84,165.56,390.09,Single-ply,SBD,M,
Boys,82.1,9,Aidan Beukema,Sanger,78.83,142.88,90.72,147.42,381.02,Single-ply,SBD,M,
Boys,82.1,10,Angel Solorzano,Sherman,75.93,131.54,86.18,145.15,362.87,Single-ply,SBD,M,
Boys,82.1,11,Jesus Molina,Tioga,79.56,127.01,83.91,149.69,360.61,Single-ply,SBD,M,
Boys,82.1,12,Tate Cole,Sherman,75.11,133.81,65.77,124.74,324.32,Single-ply,SBD,M,
Boys,89.81,1,Jeremiah Velton,Whitesboro,87,215.46,83.91,226.8,526.17,Single-ply,SBD,M,
Boys,89.81,2,Michael Deering,Denison,88.18,183.7,117.93,204.12,505.76,Single-ply,SBD,M,
Boys,89.81,3,Jose Juarez,Gainesville,83.46,170.1,106.59,188.24,464.93,Single-ply,SBD,M,
Boys,89.81,4,Cason Serna,Tioga,84.82,138.35,97.52,154.22,390.09,Single-ply,SBD,M,
Boys,89.81,5,Michael Holt,Krum,86.27,136.08,92.99,149.69,378.75,Single-ply,SBD,M,
Boys,99.79,1,Michael Driggers,Sanger,91.9,244.94,124.74,215.46,585.13,Single-ply,SBD,M,
Boys,99.79,2,Marshall Knowlton,Whitesboro,96.52,163.29,104.33,206.38,474,Single-ply,SBD,M,
Boys,99.79,3,Noah Williams,Krum,92.8,183.7,117.93,149.69,451.32,Single-ply,SBD,M,
Boys,99.79,4,John Trevino,Collinsville,92.35,165.56,97.52,156.49,419.57,Single-ply,SBD,M,
Boys,99.79,5,Kevin Tran,Gainesville,90.26,165.56,92.99,158.76,417.3,Single-ply,SBD,M,
Boys,99.79,6,Zeke Dick,Sadler S & S Consolidated,97.16,145.15,106.59,147.42,399.16,Single-ply,SBD,M,
Boys,99.79,7,Manuel Molina,Tioga,98.7,124.74,77.11,149.69,351.53,Single-ply,SBD,M,
Boys,99.79,8,Nathanioal Okeri,Sherman,91.35,113.4,79.38,124.74,317.51,Single-ply,SBD,M,
Boys,99.79,DQ,Jacob Weir,Callisburg,98.79,206.38,131.54,190.51,,Single-ply,SBD,M,
Boys,109.77,1,Kyle Carter,Krum,109.77,222.26,102.06,183.7,508.02,Single-ply,SBD,M,
Boys,109.77,2,Cooper Duce,Denison,101.97,170.1,106.59,206.38,483.08,Single-ply,SBD,M,
Boys,109.77,3,Connor Markham,Whitesboro,107.23,195.04,83.91,195.04,474,Single-ply,SBD,M,
Boys,109.77,4,Jackson Bridges,Denison,104.51,161.03,92.99,170.1,424.11,Single-ply,SBD,M,
Boys,109.77,5,Caleb Akins,Denison,109.68,167.83,97.52,154.22,419.57,Single-ply,SBD,M,
Boys,109.77,6,Diego Hernandez,Gainesville,108.86,158.76,104.33,154.22,417.3,Single-ply,SBD,M,
Boys,109.77,7,Jacob Shadburn,Tioga,100.15,127.01,88.45,124.74,340.19,Single-ply,SBD,M,
Boys,109.77,DQ,Kyler Henegar,Lindsay,104.42,158.76,97.52,154.22,,Single-ply,SBD,M,
Boys,124.74,1,Javier Zuniga,Sanger,124.38,249.48,129.27,210.92,589.67,Single-ply,SBD,M,
Boys,124.74,2,Nathan Orrick,Denison,122.47,204.12,147.42,226.8,578.33,Single-ply,SBD,M,
Boys,124.74,3,Dalton Brown,Denison,120.66,167.83,115.67,183.7,467.2,Single-ply,SBD,M,
Boys,124.74,4,Layton Morrow,Lindsay,113.31,181.44,97.52,170.1,449.06,Single-ply,SBD,M,
Boys,124.74,5,Nate Kumler,Sherman,118.21,142.88,115.67,161.03,419.57,Single-ply,SBD,M,
Boys,124.74,6,Jason Reyes,Gainesville,124.28,142.88,102.06,165.56,410.5,Single-ply,SBD,M,
Boys,124.74,7,Grayson Baker,Krum,114.12,142.88,79.38,124.74,347,Single-ply,SBD,M,
Boys,139.71,1,Diesel Wanamaker,Callisburg,128.82,197.31,102.06,199.58,498.95,Single-ply,SBD,M,
