Division,WeightClassKg,Place,Name,Team,BodyweightKg,Best3SquatKg,Best3BenchKg,Best3DeadliftKg,TotalKg,Equipment,Event,Sex,BirthDate
Boys,55.79,1,Cooper Talley,Quanah,55.07,142.88,65.77,138.35,347,Single-ply,SBD,M,
Boys,55.79,2,Koda Wood,Quanah,54.7,111.13,65.77,127.01,303.91,Single-ply,SBD,M,
Boys,55.79,3,Will Brown,Quanah,53.98,117.93,68.04,104.33,290.3,Single-ply,SBD,M,
Boys,55.79,DQ,Austin Bradley,Childress,53.89,,,,,Single-ply,SBD,M,
Boys,59.87,1,Dwight Don Juan,Quanah,59.51,117.93,58.97,133.81,310.71,Single-ply,SBD,M,
Boys,67.13,1,Kit Macina,Shamrock,64.95,197.31,104.33,197.31,498.95,Single-ply,SBD,M,
Boys,67.13,2,Jason Kaufmann,Quanah,66.32,208.65,92.99,181.44,483.08,Single-ply,SBD,M,
Boys,67.13,3,Adam Hope,Quanah,63.23,181.44,106.59,183.7,471.74,Single-ply,SBD,M,
Boys,67.13,4,Caden Peevey,Shamrock,66.5,170.1,92.99,174.63,437.72,Single-ply,SBD,M,
Boys,67.13,5,Xander Jackson,Quanah,65.68,163.29,90.72,161.03,415.04,Single-ply,SBD,M,
Boys,67.13,6,Marshall Robinson,Quanah,61.05,113.4,65.77,124.74,303.91,Single-ply,SBD,M,
Boys,67.13,7,Dalton Coles,Clarendon,63.5,102.06,61.23,117.93,281.23,Single-ply,SBD,M,
Boys,67.13,DQ,Colton Benson,Clarendon,61.69,106.59,,,,Single-ply,SBD,M,
Boys,74.84,1,Owen Loveless,Quanah,69.85,181.44,102.06,172.37,455.86,Single-ply,SBD,M,
Boys,74.84,2,Ethan Cato,Quanah,74.21,181.44,90.72,183.7,455.86,Single-ply,SBD,M,
Boys,74.84,3,Issac Salinas,Childress,70.94,165.56,102.06,179.17,446.79,Single-ply,SBD,M,
Boys,74.84,4,Lee Savage,Memphis,74.75,163.29,106.59,176.9,446.79,Single-ply,SBD,M,
Boys,74.84,5,Daniel Martinez,Shamrock,73.3,165.56,99.79,179.17,444.52,Single-ply,SBD,M,
Boys,74.84,6,Quinten Daughtery,Quanah,74.84,163.29,83.91,179.17,426.38,Single-ply,SBD,M,
Boys,74.84,7,Kaden Vela,Memphis,72.85,136.08,102.06,167.83,405.97,Single-ply,SBD,M,
Boys,74.84,8,Luis Martinez,Shamrock,71.03,151.95,81.65,158.76,392.36,Single-ply,SBD,M,
Boys,74.84,9,Cristian Mendez,Floydada,69.94,145.15,81.65,147.42,374.21,Single-ply,SBD,M,
Boys,74.84,10,Easton Frausto,Clarendon,70.31,136.08,95.25,136.08,367.41,Single-ply,SBD,M,
Boys,74.84,11,Jarod Musick,Clarendon,73.94,122.47,81.65,136.08,340.19,Single-ply,SBD,M,
Boys,82.1,1,Braydon Garcia,Quanah,77.38,247.21,131.54,244.94,623.69,Single-ply,SBD,M,
Boys,82.1,2,Andrew Suarez,Floydada,81.47,201.85,117.93,206.38,526.17,Single-ply,SBD,M,
Boys,82.1,3,Bobby Luna,Childress,78.93,165.56,115.67,172.37,453.59,Single-ply,SBD,M,
Boys,82.1,4,Chance Brandon,Quanah,76.48,170.1,90.72,174.63,435.45,Single-ply,SBD,M,
Boys,82.1,5,Charlie Sepeda,Memphis,75.02,147.42,90.72,156.49,394.63,Single-ply,SBD,M,
Boys,82.1,6,Reese Hinsley,Floydada,79.29,156.49,77.11,158.76,392.36,Single-ply,SBD,M,
Boys,82.1,7,Davin Mays,Clarendon,78.93,140.61,83.91,165.56,390.09,Single-ply,SBD,M,
Boys,82.1,8,Ricardo Saldivar,Shamrock,80.56,102.06,61.23,140.61,303.91,Single-ply,SBD,M,
Boys,82.1,DQ,Jakobe McGary,Quanah,76.93,195.04,92.99,,,Single-ply,SBD,M,
Boys,89.81,1,Reid Felton,Childress,84.19,190.51,129.27,172.37,492.15,Single-ply,SBD,M,
Boys,89.81,2,Davian Ramos,Floydada,83.82,165.56,106.59,174.63,446.79,Single-ply,SBD,M,
Boys,89.81,3,David Espinoza,Memphis,86,170.1,102.06,174.63,446.79,Single-ply,SBD,M,
Boys,89.81,4,Laremi Nava,Quanah,89.27,172.37,81.65,179.17,433.18,Single-ply,SBD,M,
Boys,89.81,5,Brayan Hernandez,Quanah,89.09,165.56,92.99,154.22,412.77,Single-ply,SBD,M,
Boys,89.81,DQ,Edgar Cervera,Floydada,89.81,163.29,,,,Single-ply,SBD,M,
Boys,99.79,1,Armando Cruz,Floydada,93.8,206.38,111.13,183.7,501.22,Single-ply,SBD,M,
Boys,99.79,2,Ahlai Don Juan,Quanah,98.25,181.44,95.25,183.7,460.4,Single-ply,SBD,M,
Boys,99.79,3,Jodie Ayala,Childress,96.16,158.76,97.52,161.03,417.3,Single-ply,SBD,M,
Boys,99.79,4,Luke Breitschopf,Shamrock,91.44,151.95,81.65,167.83,401.43,Single-ply,SBD,M,
Boys,99.79,5,Isaiah Sims,Childress,92.26,154.22,79.38,147.42,381.02,Single-ply,SBD,M,
Boys,99.79,DQ,Marcus Collins,Floydada,98.7,,,,,Single-ply,SBD,M,
Boys,109.77,1,Meckeal Barrera,Quanah,108.95,283.5,158.76,176.9,619.15,Single-ply,SBD,M,
Boys,109.77,2,Juan Gonzalez,Childress,102.15,204.12,122.47,197.31,523.9,Single-ply,SBD,M,
Boys,109.77,3,Zach Etheredge,Childress,106.14,183.7,124.74,206.38,514.83,Single-ply,SBD,M,
Boys,109.77,4,Cj Call,Quanah,105.32,199.58,129.27,167.83,496.68,Single-ply,SBD,M,
Boys,109.77,5,Adrian Macias,Childress,106.59,174.63,117.93,176.9,469.47,Single-ply,SBD,M,
Boys,109.77,DQ,Jesus Sanchez,Memphis,108.41,181.44,115.67,,,Single-ply,SBD,M,
Boys,124.74,1,Troi Barrera,Quanah,120.2,238.14,136.08,226.8,601.01,Single-ply,SBD,M,
Boys,124.74,2,Gannon Broussard,Clarendon,114.76,181.44,117.93,158.76,458.13,Single-ply,SBD,M,
Boys,124.74,DQ,Isaiah Speir,Childress,116.57,183.7,124.74,183.7,,Single-ply,SBD,M,
Boys,139.71+,1,Gavin Nazario,Clarendon,149.69,210.92,158.76,231.33,601.01,Single-ply,SBD,M,
Boys,139.71+,2,Wes Putman,Shamrock,140.34,233.6,117.93,204.12,555.65,Single-ply,SBD,M,
