Division,WeightClassKg,Place,Name,Team,BodyweightKg,Best3SquatKg,Best3BenchKg,Best3DeadliftKg,TotalKg,Equipment,Event,Sex
Boys,51.71,1,Brandon Fernandez,Poteet,48.26,142.88,81.65,147.42,371.95,Single-ply,SBD,M
Boys,51.71,DQ,Edward Fonseca,San Antonio Memorial,48.63,,,,,Single-ply,SBD,M
Boys,55.79,1,Carlos Garza-Alanis,San Antonio Southwest Legacy,53.07,81.65,52.16,106.59,240.4,Single-ply,SBD,M
Boys,59.87,1,Danny Morales,Karnes City,59.87,176.9,83.91,170.1,430.91,Single-ply,SBD,M
Boys,59.87,2,Edward Castillo,Castroville Medina Valley,59.87,156.49,92.99,149.69,399.16,Single-ply,SBD,M
Boys,59.87,3,Ernesto Rangel,San Antonio Southwest Legacy,58.24,120.2,81.65,145.15,347,Single-ply,SBD,M
Boys,59.87,4,Lorenzo Barfield,San Antonio Southwest Legacy,57.15,115.67,81.65,142.88,340.19,Single-ply,SBD,M
Boys,67.13,1,Chris Velazquez,Geronimo Navarro,62.23,204.12,104.33,163.29,471.74,Single-ply,SBD,M
Boys,67.13,2,Fabian Bazan,Castroville Medina Valley,61.51,170.1,95.25,188.24,453.59,Single-ply,SBD,M
Boys,67.13,3,Hason Shakoor,Universal City Randolph,66.77,163.29,99.79,181.44,444.52,Single-ply,SBD,M
Boys,67.13,4,Carlos Alvizo,Poth,63.32,136.08,108.86,174.63,419.57,Single-ply,SBD,M
Boys,67.13,5,Hunter Young #1,Marion,66.22,124.74,74.84,158.76,358.34,Single-ply,SBD,M
Boys,67.13,6,Cameron Kistner,Marion,64.59,136.08,56.7,136.08,328.85,Single-ply,SBD,M
Boys,67.13,7,Eric Guillen,San Antonio Southwest Legacy,63.05,120.2,72.57,133.81,326.59,Single-ply,SBD,M
Boys,67.13,8,Diego Flores,Marion,66.95,108.86,61.23,120.2,290.3,Single-ply,SBD,M
Boys,67.13,DQ,Emmanuel Rios,Castroville Medina Valley,65.41,124.74,,,,Single-ply,SBD,M
Boys,67.13,DQ,Damion Legaspe,San Antonio Cole,64.05,,,,,Single-ply,SBD,M
Boys,67.13,DQ,Cooper Conn,Poth,64.32,158.76,92.99,,,Single-ply,SBD,M
Boys,67.13,DQ,Ron Resendiz,San Antonio Memorial,66.68,106.59,68.04,,,Single-ply,SBD,M
Boys,74.84,1,Marcus Almeida,Stockdale,74.84,190.51,129.27,192.78,512.56,Single-ply,SBD,M
Boys,74.84,2,Kaden Crouch,Stockdale,72.3,181.44,124.74,192.78,498.95,Single-ply,SBD,M
Boys,74.84,3,Kyle Jones,Poth,74.62,185.97,97.52,192.78,476.27,Single-ply,SBD,M
Boys,74.84,4,Diego Martinez,Stockdale,73.03,170.1,108.86,181.44,460.4,Single-ply,SBD,M
Boys,74.84,5,Marco Burkman-Flaig,San Antonio Cole,71.58,185.97,102.06,165.56,453.59,Single-ply,SBD,M
Boys,74.84,6,David Elizondo,Castroville Medina Valley,69.49,172.37,83.91,176.9,433.18,Single-ply,SBD,M
Boys,74.84,7,Jimmy Garza,San Antonio Memorial,71.85,167.83,97.52,165.56,430.91,Single-ply,SBD,M
Boys,74.84,8,Evan O'Burg,Universal City Randolph,71.21,149.69,88.45,174.63,412.77,Single-ply,SBD,M
Boys,74.84,9,Matthew Gillam,Geronimo Navarro,73.57,158.76,83.91,151.95,394.63,Single-ply,SBD,M
Boys,74.84,10,Chirstopher Orta,Poteet,73.75,122.47,63.5,142.88,328.85,Single-ply,SBD,M
Boys,74.84,DQ,Dez Almond,Universal City Randolph,71.58,,,,,Single-ply,SBD,M
Boys,82.1,1,Brent Gisler,Karnes City,81.28,226.8,142.88,215.46,585.13,Single-ply,SBD,M
Boys,82.1,2,Steban Mireles,Castroville Medina Valley,81.37,215.46,131.54,215.46,562.45,Single-ply,SBD,M
Boys,82.1,3,Euler de Leon,Geronimo Navarro,79.2,204.12,108.86,215.46,528.44,Single-ply,SBD,M
Boys,82.1,4,Jeremy Voekel,Stockdale,78.65,161.03,95.25,165.56,421.84,Single-ply,SBD,M
Boys,82.1,5,Jeremy Martinez,Castroville Medina Valley,79.74,147.42,106.59,165.56,419.57,Single-ply,SBD,M
Boys,82.1,6,Gavin Fouch,Stockdale,77.2,154.22,92.99,165.56,412.77,Single-ply,SBD,M
Boys,82.1,7,Tyler Hughes,Geronimo Navarro,80.01,138.35,83.91,142.88,365.14,Single-ply,SBD,M
Boys,82.1,DQ,Trvion Trapp,Universal City Randolph,81.92,185.97,,,,Single-ply,SBD,M
Boys,89.81,1,Mitchell Rees,Karnes City,86.82,301.64,158.76,235.87,696.26,Single-ply,SBD,M
Boys,89.81,2,Jacob Trujillo,Universal City Randolph,89.63,204.12,127.01,204.12,535.24,Single-ply,SBD,M
Boys,89.81,3,Tyler Law,Geronimo Navarro,83.1,183.7,117.93,204.12,505.76,Single-ply,SBD,M
Boys,89.81,4,Tucker Walters,Marion,84.28,181.44,104.33,217.72,503.49,Single-ply,SBD,M
Boys,89.81,5,Sebastian Segura,Karnes City,88.36,204.12,106.59,192.78,503.49,Single-ply,SBD,M
Boys,89.81,6,Gabriel Means,Geronimo Navarro,88.27,165.56,108.86,195.04,469.47,Single-ply,SBD,M
Boys,89.81,7,David Reyna,Geronimo Navarro,89.27,192.78,97.52,174.63,464.93,Single-ply,SBD,M
Boys,89.81,8,Naythen Cardenas,San Antonio Southwest Legacy,86.64,149.69,102.06,165.56,417.3,Single-ply,SBD,M
Boys,89.81,9,Zachary Lawyer,Castroville Medina Valley,88.5,111.13,74.84,136.08,322.05,Single-ply,SBD,M
Boys,89.81,DQ,Robert Scmidt,Karnes City,82.96,,,,,Single-ply,SBD,M
Boys,99.79,1,Sean Allen,Poth,96.34,229.06,136.08,195.04,560.19,Single-ply,SBD,M
Boys,99.79,2,Kevin Herrera,Poth,98.25,224.53,142.88,192.78,560.19,Single-ply,SBD,M
Boys,99.79,3,Manuel Valverde,San Antonio Memorial,95.8,204.12,131.54,185.97,521.63,Single-ply,SBD,M
Boys,99.79,4,Jaden Maturey,Universal City Randolph,99.43,183.7,106.59,199.58,489.88,Single-ply,SBD,M
Boys,99.79,5,Edward Roya,Castroville Medina Valley,97.43,181.44,117.93,183.7,483.08,Single-ply,SBD,M
Boys,99.79,6,Herbert Logan,Stockdale,98.88,174.63,115.67,165.56,455.86,Single-ply,SBD,M
Boys,99.79,7,Brett Butler,Geronimo Navarro,91.22,170.1,108.86,174.63,453.59,Single-ply,SBD,M
Boys,99.79,8,Michael Cespedes,Universal City Randolph,92.35,181.44,86.18,170.1,437.72,Single-ply,SBD,M
Boys,99.79,9,Frank Alvarez,San Antonio Southwest Legacy,94.35,154.22,90.72,156.49,401.43,Single-ply,SBD,M
Boys,99.79,10,Francisco Duran,Marion,94.89,208.65,131.54,,340.19,Single-ply,SB,M
Boys,99.79,DQ,Moses Carrasco,Poteet,97.52,,,,,Single-ply,SB,M
Boys,99.79,DQ,Tim Carrasco,Poteet,91.72,,,,,Single-ply,SB,M
Boys,99.79,DQ,Patrick Rhodes,San Antonio Cole,92.26,,,,,Single-ply,SB,M
Boys,99.79,DQ,Mateo Garcia,San Antonio Memorial,96.62,,,,,Single-ply,SB,M
Boys,109.77,1,Nathaniel Gomez,Karnes City,101.24,208.65,117.93,185.97,512.56,Single-ply,SBD,M
Boys,109.77,2,Anthony Alegre,Poteet,107.95,188.24,106.59,197.31,492.15,Single-ply,SBD,M
Boys,109.77,3,Nathan Palacio,San Antonio Memorial,103.33,183.7,92.99,190.51,467.2,Single-ply,SBD,M
Boys,109.77,4,Deshawn Borders,Universal City Randolph,103.06,181.44,95.25,170.1,446.79,Single-ply,SBD,M
Boys,109.77,5,Brandon Glaspie,Universal City Randolph,107.32,181.44,90.72,158.76,430.91,Single-ply,SBD,M
Boys,109.77,6,Jonathan Luna,Universal City Randolph,107.14,167.83,95.25,163.29,426.38,Single-ply,SBD,M
Boys,109.77,7,Josh Pereida,San Antonio Southwest Legacy,105.69,165.56,74.84,165.56,405.97,Single-ply,SBD,M
Boys,109.77,8,Dalton Perry,Poth,108.05,138.35,90.72,138.35,367.41,Single-ply,SBD,M
Boys,109.77,DQ,Cole Doerr,Marion,109.77,183.7,,,,Single-ply,SBD,M
Boys,124.74,1,Jalen Cano,Stockdale,115.48,258.55,158.76,226.8,644.1,Single-ply,SBD,M
Boys,124.74,2,Jorge Flores,San Antonio Memorial,120.47,272.16,124.74,231.33,628.23,Single-ply,SBD,M
Boys,124.74,3,Dylan Hatfield,Geronimo Navarro,124.47,263.08,149.69,206.38,619.15,Single-ply,SBD,M
Boys,124.74,4,Jace Gonzales,Karnes City,119.02,249.48,142.88,224.53,616.89,Single-ply,SBD,M
Boys,124.74,5,Jacob Hernandez,Stockdale,112.31,226.8,140.61,197.31,564.72,Single-ply,SBD,M
Boys,124.74,6,Anthony Walters,San Antonio Cole,121.56,210.92,133.81,215.46,560.19,Single-ply,SBD,M
Boys,124.74,7,Fermin Cruz,San Antonio Memorial,123.56,210.92,108.86,181.44,501.22,Single-ply,SBD,M
Boys,124.74,8,Daniel Ornelas,San Antonio Southwest Legacy,111.04,151.95,115.67,165.56,433.18,Single-ply,SBD,M
Boys,124.74,9,Isaiah Ibarra,San Antonio Southwest Legacy,121.65,151.95,92.99,188.24,433.18,Single-ply,SBD,M
Boys,124.74,10,Fernando Martinez #4,San Antonio Southwest Legacy,112.76,167.83,102.06,161.03,430.91,Single-ply,SBD,M
Boys,124.74,11,Angel Banderas,San Antonio Memorial,116.48,154.22,86.18,190.51,430.91,Single-ply,SBD,M
Boys,124.74,DQ,Sam Ritchey,Poteet,111.63,,,,,Single-ply,SBD,M
Boys,124.74,DQ,Seth Ritchey,Poteet,120.93,238.14,129.27,,,Single-ply,SBD,M
Boys,124.74,DQ,Sebastian Ramirez,Castroville Medina Valley,123.01,,,,,Single-ply,SBD,M
Boys,124.74+,1,Caleb Hargraves,Geronimo Navarro,134.63,215.46,136.08,199.58,551.11,Single-ply,SBD,M
Boys,124.74+,2,Mikey Chapa,Karnes City,153.31,192.78,95.25,192.78,480.81,Single-ply,SBD,M
Boys,124.74+,3,Jesus Borroel,San Antonio Memorial,131.36,172.37,95.25,185.97,453.59,Single-ply,SBD,M
Boys,124.74+,4,Roy Cantu,San Antonio Memorial,127.37,183.7,88.45,172.37,444.52,Single-ply,SBD,M
Boys,124.74+,5,Luis Gonzales,San Antonio Southwest Legacy,148.51,174.63,106.59,161.03,442.25,Single-ply,SBD,M
Boys,124.74+,6,Ed Saldivar,Marion,125.65,138.35,97.52,163.29,399.16,Single-ply,SBD,M
Boys,124.74+,7,Ernesto Moreno,Castroville Medina Valley,159.57,233.6,154.22,,387.82,Single-ply,SB,M
