Division,WeightClassKg,Place,Name,Team,BodyweightKg,Best3SquatKg,Best3BenchKg,Best3DeadliftKg,TotalKg,Equipment,Event,Sex,BirthDate
Boys,51.71,1,Anthony Castro,Gonzales,50.26,102.06,58.97,106.59,267.62,Single-ply,SBD,M,
Boys,51.71,2,Cesar Vasquez,Nixon Smiley,48.35,83.91,31.75,102.06,217.72,Single-ply,SBD,M,
Boys,59.87,1,Tyler Barrientez,Nixon Smiley,57.47,129.27,63.5,104.33,297.1,Single-ply,SBD,M,
Boys,59.87,2,John Garza,Nixon Smiley,59.51,106.59,61.23,124.74,292.57,Single-ply,SBD,M,
Boys,59.87,3,Adolfo Vasquez,Nixon Smiley,59.87,111.13,52.16,113.4,276.69,Single-ply,SBD,M,
Boys,67.13,1,Jessiah Barr,Gonzales,64.68,183.7,115.67,199.58,498.95,Single-ply,SBD,M,
Boys,67.13,2,Hayden Hull,Gonzales,64.91,102.06,70.31,136.08,308.44,Single-ply,SBD,M,
Boys,74.84,1,Martin Moreno,Nixon Smiley,73.53,210.92,113.4,229.06,553.38,Single-ply,SBD,M,
Boys,74.84,2,Cesar Matamoros,Gonzales,73.84,217.72,117.93,215.46,551.11,Single-ply,SBD,M,
Boys,74.84,3,Kaden Deleon,Gonzales,71.71,165.56,113.4,170.1,449.06,Single-ply,SBD,M,
Boys,74.84,4,Miguel Ramos,Gonzales,70.76,151.95,106.59,170.1,428.64,Single-ply,SBD,M,
Boys,74.84,5,Armando Medel,Nixon Smiley,72.48,142.88,97.52,151.95,392.36,Single-ply,SBD,M,
Boys,74.84,6,Eric Rivas,Nixon Smiley,74.16,129.27,65.77,145.15,340.19,Single-ply,SBD,M,
Boys,74.84,DQ,Michael Brown,Nixon Smiley,74.75,133.81,,,,Single-ply,SBD,M,
Boys,82.1,1,Jesus Espino,Nixon Smiley,81.28,165.56,92.99,183.7,442.25,Single-ply,SBD,M,
Boys,82.1,DQ,Jose Olvera,Nixon Smiley,80.92,92.99,,,,Single-ply,SBD,M,
Boys,89.81,1,Blake Wright,Gonzales,85.77,197.31,113.4,174.63,485.34,Single-ply,SBD,M,
Boys,89.81,2,Rafael Rodriguez,Gonzales,89.36,183.7,99.79,185.97,469.47,Single-ply,SBD,M,
Boys,99.79,1,Layne Thiele,Gonzales,97.89,229.06,136.08,229.06,594.21,Single-ply,SBD,M,
Boys,99.79,2,Hayden Lopez,Gonzales,99.06,201.85,99.79,172.37,474,Single-ply,SBD,M,
Boys,99.79,3,Kevin Zavala,Nixon Smiley,99.61,204.12,92.99,158.76,455.86,Single-ply,SBD,M,
Boys,109.77,1,Kevin Veliz,Gonzales,103.06,72.57,90.72,115.67,278.96,Single-ply,SBD,M,
Boys,124.74,1,Landon Holub,Gonzales,111.45,201.85,138.35,170.1,510.29,Single-ply,SBD,M,
Boys,139.71,1,Omar Borjon,Gonzales,130.95,190.51,129.27,158.76,478.54,Single-ply,SBD,M,
